Wall time,Step,Value
1550684085.2660887,5270,0.1993199735879898
1550685885.2303734,10371,0.4174672067165375
1550687685.3869455,15476,0.5709177255630493
1550689485.9015067,20578,0.6408180594444275
1550691286.1042886,25682,0.6803070306777954
1550693086.6100233,30785,0.7097962498664856
1550694886.536329,35887,0.726794421672821
1550696686.7492976,40993,0.7435892224311829
1550698486.795757,46100,0.7543646097183228
1550700287.02609,51206,0.7631224393844604
1550702086.9736388,56311,0.7684926986694336
1550703886.700076,61415,0.7774907350540161
1550705687.057018,66525,0.7847651839256287
1550707487.069837,71636,0.78855299949646
1550709287.097066,76746,0.796299934387207
1550711087.4504642,81859,0.8004679083824158
1550712887.2794235,86970,0.8036603927612305
1550714687.4536078,92082,0.8094757795333862
1550716487.6038163,97196,0.8108472228050232
1550718287.5980392,102311,0.8157429099082947
1550720087.8531983,107426,0.8187013268470764
1550721887.999958,112539,0.8194363713264465
1550723688.220369,117650,0.8230929374694824
1550725488.3722625,122762,0.8275988698005676
1550727288.8483822,127876,0.8264588713645935
1550729088.957877,132985,0.8307994604110718
1550730889.2463377,138095,0.8318065404891968
1550732689.7906516,143193,0.8352305889129639
1550734490.1919441,148284,0.8367448449134827
1550736290.3160894,153370,0.8369358777999878
1550738090.4077547,158462,0.8396100997924805
1550739890.4656255,163547,0.8395897746086121
1550741690.933746,168633,0.843085527420044
1550743490.7948794,173717,0.8446937203407288
1550745291.3303745,178799,0.8447673916816711
1550747091.5007243,183880,0.8476483821868896
1550748891.5617769,188961,0.8487640619277954
1550750691.4693685,194046,0.8486613035202026
1550752491.678119,199130,0.8510169386863708
1550752969.8246677,200350,0.8498169779777527
1550754847.2861872,205801,0.8658400774002075
1550756647.2587233,211079,0.8671513795852661
1550758446.9907959,216366,0.8673266172409058
1550760247.1584985,221662,0.8688594102859497
1550762047.4007888,226961,0.8701972365379333
1550763847.428858,232257,0.8715725541114807
1550765647.3951397,237553,0.8722572326660156
1550767447.7676284,242850,0.8735296726226807
1550769247.7327836,248144,0.8754501342773438
1550771048.0421946,253437,0.8751195669174194
1550772848.2301707,258733,0.8762170076370239
1550774648.7289996,264028,0.8788844347000122
1550776448.8351445,269322,0.8787916302680969
1550778248.8385143,274618,0.8795778751373291
1550780048.9040737,279915,0.8812087774276733
1550781849.133628,285214,0.8801991939544678
1550783649.281172,290511,0.8817960023880005
1550785448.997532,295808,0.8830437064170837
1550787249.6453125,301107,0.8824952244758606
1550789049.542876,306407,0.8829324245452881
1550790849.561003,311710,0.884850025177002
1550792649.8601213,317011,0.8848972916603088
1550793873.5061731,320560,0.8856621384620667
