[
    {
        "plot_title": "macro_f1",
        "plot_file_prefix": "M_FR_dropout_bpe",
        "csv_dir": "csv_files/macro_f1",
        "output_format": "pgf",
        "csv_files": {
            "without dropout": "run_bpe_eval_configs_size_512_embdim_200_epochsWithDrop_0_isBi_True_optimizer_Adam_loss_sigmoidCrossEntropy_eval-tag-metrics_macro_f1.csv",
            "partially with dropout": "run_bpe_eval_configs_size_512_embdim_200_epochsWithDrop_5_isBi_True_optimizer_Adam_loss_sigmoidCrossEntropy_eval-tag-metrics_macro_f1.csv",
            "with dropout": "run-bpe_always_dropout_size_512_embdim_200_epochsWithDrop_8_isBi_True_optimizer_Adam_loss_sigmoidCrossEntropy_eval-tag-metrics_macro_f1.csv"
        }
    },
    {
        "plot_title": "micro_f1",
        "plot_file_prefix": "M_FR_dropout_bpe",
        "csv_dir": "csv_files/micro_f1",
        "output_format": "pgf",
        "csv_files": {
            "partially with dropout": "run_bpe_eval_configs_size_512_embdim_200_epochsWithDrop_5_isBi_True_optimizer_Adam_loss_sigmoidCrossEntropy_eval-tag-metrics_micro_f1.csv",
            "without dropout": "run_bpe_eval_configs_size_512_embdim_200_epochsWithDrop_0_isBi_True_optimizer_Adam_loss_sigmoidCrossEntropy_eval-tag-metrics_micro_f1.csv",
            "with dropout": "run-bpe_always_dropout_size_512_embdim_200_epochsWithDrop_8_isBi_True_optimizer_Adam_loss_sigmoidCrossEntropy_eval-tag-metrics_micro_f1.csv"
        }
    }
]
