Wall time,Step,Value
1552319560.5638669,3059,0.0021082505118101835
1552321360.5722215,6069,0.0007295128307305276
1552323161.0204349,9072,0.006816632580012083
1552324961.5767002,12081,0.03446117416024208
1552326762.156825,15084,0.07150571048259735
1552328562.344568,18072,0.11866805702447891
1552330362.1870332,21053,0.17063026130199432
1552332162.7946446,24040,0.1758950799703598
1552333963.0622642,27030,0.1677045077085495
1552335763.4028857,30033,0.167672798037529
1552337563.3876483,33042,0.19923344254493713
1552339363.4391067,36060,0.18159501254558563
1552341163.508532,39078,0.21737632155418396
1552342963.9970002,42091,0.2430359274148941
1552344764.4289603,45099,0.25842997431755066
1552346565.074577,48110,0.2584744393825531
1552348365.3368096,51122,0.28168269991874695
1552350165.3811216,54136,0.28910550475120544
1552351965.5139427,57152,0.30632680654525757
1552353765.8053217,60169,0.309108167886734
1552355566.0849967,63186,0.3223092257976532
1552357366.151416,66205,0.3291308581829071
1552359166.3986292,69226,0.3298422694206238
1552360966.4534962,72247,0.34232568740844727
1552362766.6831806,75267,0.34701550006866455
1552364567.0583582,78288,0.35220521688461304
1552366367.3888614,81309,0.36400163173675537
1552368167.4725943,84329,0.36825162172317505
1552369967.792836,87349,0.3686726987361908
1552371767.930564,90370,0.38188448548316956
1552373568.3087332,93390,0.3855583369731903
1552375368.6193767,96411,0.3854920268058777
1552377169.0840461,99432,0.38890400528907776
1552378969.559165,102453,0.3963691294193268
1552380770.1310954,105468,0.399556040763855
1552382570.6544285,108480,0.4000723659992218
1552384371.0592365,111493,0.39789825677871704
1552386171.4431677,114506,0.40998560190200806
1552387971.5731208,117518,0.4151841402053833
1552389771.8725917,120529,0.4168676733970642
1552391571.847958,123542,0.41073015332221985
1552393372.2999759,126555,0.41725003719329834
1552395172.6605275,129567,0.41936057806015015
1552395936.3040366,130816,0.4267851412296295
1552397780.2094653,134037,0.43866366147994995
1552399580.4470031,137210,0.4466383755207062
1552401380.4779978,140382,0.44185230135917664
1552403180.4751372,143550,0.4498247802257538
1552404980.9153113,146722,0.4553223252296448
1552406781.1484826,149893,0.4657072126865387
1552408581.4338431,153068,0.45547038316726685
1552410381.6919546,156240,0.45504850149154663
1552412181.959509,159413,0.4628843069076538
1552413982.5854645,162579,0.45697957277297974
1552415782.7235096,165733,0.4566839039325714
1552417583.316242,168894,0.45753416419029236
1552419383.7083023,172055,0.45416322350502014
1552421184.1741886,175214,0.46263912320137024
1552422984.2978914,178376,0.4556582570075989
1552424784.4515705,181553,0.4753189980983734
1552426584.3764515,184730,0.4690943658351898
1552427811.1578827,186880,0.46329692006111145
