Wall time,Step,Value
1550684085.2660887,5270,0.001749906805343926
1550685885.2303734,10371,0.019172336906194687
1550687685.3869455,15476,0.05812075734138489
1550689485.9015067,20578,0.09714959561824799
1550691286.1042886,25682,0.1346905678510666
1550693086.6100233,30785,0.16732236742973328
1550694886.536329,35887,0.1959904432296753
1550696686.7492976,40993,0.2158043086528778
1550698486.795757,46100,0.23854245245456696
1550700287.02609,51206,0.2525114119052887
1550702086.9736388,56311,0.2707534432411194
1550703886.700076,61415,0.29108870029449463
1550705687.057018,66525,0.3051602244377136
1550707487.069837,71636,0.3155730962753296
1550709287.097066,76746,0.32981306314468384
1550711087.4504642,81859,0.34832125902175903
1550712887.2794235,86970,0.3542449474334717
1550714687.4536078,92082,0.3685685992240906
1550716487.6038163,97196,0.3773847818374634
1550718287.5980392,102311,0.38176003098487854
1550720087.8531983,107426,0.3969317674636841
1550721887.999958,112539,0.40216943621635437
1550723688.220369,117650,0.40846607089042664
1550725488.3722625,122762,0.42054152488708496
1550727288.8483822,127876,0.42583534121513367
1550729088.957877,132985,0.4331907629966736
1550730889.2463377,138095,0.44253304600715637
1550732689.7906516,143193,0.45210403203964233
1550734490.1919441,148284,0.45851564407348633
1550736290.3160894,153370,0.4610324501991272
1550738090.4077547,158462,0.4711746275424957
1550739890.4656255,163547,0.4775191843509674
1550741690.933746,168633,0.47691306471824646
1550743490.7948794,173717,0.47978684306144714
1550745291.3303745,178799,0.49203261733055115
1550747091.5007243,183880,0.498056560754776
1550748891.5617769,188961,0.5010437965393066
1550750691.4693685,194046,0.5069394111633301
1550752491.678119,199130,0.5018159747123718
1550752969.8246677,200350,0.5062156915664673
1550754847.2861872,205801,0.5610049962997437
1550756647.2587233,211079,0.5641839504241943
1550758446.9907959,216366,0.575314998626709
1550760247.1584985,221662,0.5771521329879761
1550762047.4007888,226961,0.5811944603919983
1550763847.428858,232257,0.5839982032775879
1550765647.3951397,237553,0.5905081629753113
1550767447.7676284,242850,0.5919827818870544
1550769247.7327836,248144,0.5982198119163513
1550771048.0421946,253437,0.6016953587532043
1550772848.2301707,258733,0.6038308143615723
1550774648.7289996,264028,0.6106942892074585
1550776448.8351445,269322,0.6167998909950256
1550778248.8385143,274618,0.6110236644744873
1550780048.9040737,279915,0.6209475994110107
1550781849.133628,285214,0.6227306723594666
1550783649.281172,290511,0.6182637214660645
1550785448.997532,295808,0.6223762035369873
1550787249.6453125,301107,0.6301533579826355
1550789049.542876,306407,0.6259218454360962
1550790849.561003,311710,0.6365227103233337
1550792649.8601213,317011,0.6343415975570679
1550793873.5061731,320560,0.6332120299339294
