Wall time,Step,Value
1553250493.9591882,5316,3.5732859942072537e-06
1553252294.0177546,10487,0.0007475577294826508
1553254094.5054727,15650,0.01966189593076706
1553255894.7555122,20804,0.02473381534218788
1553257694.7440345,25953,0.07686903327703476
1553259495.0453734,31090,0.1088961809873581
1553261294.963679,36234,0.15112830698490143
1553263095.2564638,41395,0.3129807412624359
1553264895.33985,46556,0.20514164865016937
1553266695.7270381,51716,0.34112632274627686
1553268495.6703956,56863,0.24044835567474365
1553270296.0068078,62008,0.4285237789154053
1553272096.2435725,67162,0.41927680373191833
1553273896.3349566,72313,0.41660162806510925
1553275696.4806435,77467,0.39413416385650635
1553277496.7733386,82615,0.4795132875442505
1553279296.6900191,87752,0.4174778461456299
1553280601.5276384,91440,0.4916834235191345
1553282464.905692,96959,0.46996966004371643
1553284264.940483,102349,0.5501561164855957
1553286065.2994936,107742,0.4744473695755005
1553287865.5976408,113138,0.49569621682167053
1553289665.6213996,118541,0.5168604254722595
1553291465.7902021,123941,0.5464469194412231
1553293265.95081,129322,0.5542804598808289
1553295066.2279234,134712,0.5645179748535156
1553296866.130923,140105,0.5710803866386414
1553298666.512044,145503,0.5646367073059082
1553300466.5724485,150902,0.5703332424163818
1553302266.7547476,156302,0.5892903804779053
1553304066.7129617,161708,0.582682728767395
1553305866.9964216,167115,0.5884978175163269
1553307667.2540534,172525,0.5636340379714966
1553309467.6193366,177935,0.5729075074195862
1553311267.8574023,183345,0.583519458770752
1553313067.9370964,188754,0.5937945246696472
1553314868.0058506,194162,0.5883729457855225
1553315209.1288989,195072,0.5952093601226807
1553520332.395461,200596,0.5914629101753235
1553522132.277261,205991,0.6014630794525146
1553523932.4689596,211387,0.6051854491233826
1553525732.7224061,216782,0.6015426516532898
1553527532.8600042,222177,0.5766960978507996
1553529333.1457083,227570,0.5843967795372009
1553531133.3461611,232964,0.5878527760505676
1553532933.407728,238356,0.6027584671974182
1553534733.5172112,243746,0.5941874980926514
1553536533.8299825,249138,0.6076887845993042
1553538334.0674562,254530,0.5997623801231384
1553540134.2991104,259921,0.6036487221717834
1553541934.3552191,265310,0.6052590608596802
1553543734.4630682,270700,0.6041294932365417
1553545534.5654347,276091,0.6088390350341797
1553547334.8733044,281481,0.5946229696273804
1553549135.0437667,286871,0.6009246110916138
1553550935.2799344,292260,0.6026996374130249
1553552735.3695965,297649,0.6011342406272888
1553554535.8786051,303039,0.6144495010375977
1553556336.071267,308428,0.600652277469635
1553558136.2740798,313818,0.6128309369087219
1553559936.638203,319208,0.6076810956001282
1553561736.767349,324600,0.6119042634963989
1553563536.9661183,329994,0.6099551320075989
1553565337.3735216,335387,0.6070261001586914
1553567137.543505,340779,0.5932238101959229
1553568937.6912053,346172,0.6054023504257202
1553570737.7961547,351566,0.6093922257423401
1553572537.927021,356961,0.5914856195449829
1553574338.241388,362355,0.6094422936439514
1553576138.154668,367748,0.6152632832527161
1553577938.1954548,373142,0.615022599697113
1553579738.3423324,378534,0.6042052507400513
1553581538.814638,383927,0.6041857004165649
1553583338.5044854,389318,0.6134311556816101
1553583653.5783157,390144,0.6127573251724243
