Wall time,Step,Value
1553250493.9591882,5316,5.445733404485509e-05
1553252294.0177546,10487,0.0653362050652504
1553254094.5054727,15650,0.18759123980998993
1553255894.7555122,20804,0.1998770833015442
1553257694.7440345,25953,0.3295097053050995
1553259495.0453734,31090,0.39683645963668823
1553261294.963679,36234,0.45140784978866577
1553263095.2564638,41395,0.5096645355224609
1553264895.33985,46556,0.5106827020645142
1553266695.7270381,51716,0.5491058826446533
1553268495.6703956,56863,0.5403875112533569
1553270296.0068078,62008,0.5781766176223755
1553272096.2435725,67162,0.5868818759918213
1553273896.3349566,72313,0.5954785943031311
1553275696.4806435,77467,0.5964090824127197
1553277496.7733386,82615,0.6030575633049011
1553279296.6900191,87752,0.6067498326301575
1553280601.5276384,91440,0.6172875761985779
1553282464.905692,96959,0.6432482600212097
1553284264.940483,102349,0.6480348110198975
1553286065.2994936,107742,0.6496555209159851
1553287865.5976408,113138,0.648395299911499
1553289665.6213996,118541,0.6563549041748047
1553291465.7902021,123941,0.6542344689369202
1553293265.95081,129322,0.6618304252624512
1553295066.2279234,134712,0.6601031422615051
1553296866.130923,140105,0.6622542142868042
1553298666.512044,145503,0.6598986983299255
1553300466.5724485,150902,0.6645402312278748
1553302266.7547476,156302,0.6659306287765503
1553304066.7129617,161708,0.6651444435119629
1553305866.9964216,167115,0.6678317189216614
1553307667.2540534,172525,0.6627363562583923
1553309467.6193366,177935,0.6715326905250549
1553311267.8574023,183345,0.6648305654525757
1553313067.9370964,188754,0.6700084209442139
1553314868.0058506,194162,0.6721718907356262
1553315209.1288989,195072,0.6691687107086182
1553520332.395461,200596,0.6688905954360962
1553522132.277261,205991,0.6680768728256226
1553523932.4689596,211387,0.6705412268638611
1553525732.7224061,216782,0.6661974787712097
1553527532.8600042,222177,0.666041374206543
1553529333.1457083,227570,0.6694443225860596
1553531133.3461611,232964,0.6711347103118896
1553532933.407728,238356,0.6717429161071777
1553534733.5172112,243746,0.6727511882781982
1553536533.8299825,249138,0.6722092628479004
1553538334.0674562,254530,0.6713165044784546
1553540134.2991104,259921,0.6684629917144775
1553541934.3552191,265310,0.6701546311378479
1553543734.4630682,270700,0.6750268340110779
1553545534.5654347,276091,0.6755654811859131
1553547334.8733044,281481,0.6725687384605408
1553549135.0437667,286871,0.6747000217437744
1553550935.2799344,292260,0.674651026725769
1553552735.3695965,297649,0.6741096377372742
1553554535.8786051,303039,0.6745340824127197
1553556336.071267,308428,0.6733887195587158
1553558136.2740798,313818,0.6744809746742249
1553559936.638203,319208,0.675879180431366
1553561736.767349,324600,0.6714542508125305
1553563536.9661183,329994,0.6736820340156555
1553565337.3735216,335387,0.6747415065765381
1553567137.543505,340779,0.6698840260505676
1553568937.6912053,346172,0.6748241782188416
1553570737.7961547,351566,0.6741243004798889
1553572537.927021,356961,0.6753072142601013
1553574338.241388,362355,0.6739434599876404
1553576138.154668,367748,0.6754648685455322
1553577938.1954548,373142,0.6738387942314148
1553579738.3423324,378534,0.6725607514381409
1553581538.814638,383927,0.6709286570549011
1553583338.5044854,389318,0.673819363117218
1553583653.5783157,390144,0.6731938123703003
