Wall time,Step,Value
1553529430.665958,1843,0.7422871589660645
1553531231.1145773,3645,0.8213773369789124
1553533031.6361258,5447,0.8402199745178223
1553534832.4514964,7249,0.8524395823478699
1553536632.7199552,9049,0.8566807508468628
1553538433.0556495,10847,0.8714014887809753
1553540233.1894405,12647,0.8708840608596802
1553542033.841918,14448,0.8714687824249268
1553543834.377934,16250,0.8752049803733826
1553545634.7071946,18052,0.8745489120483398
1553547434.9816394,19854,0.875643789768219
1553549235.216164,21656,0.8771693706512451
1553551035.4241054,23458,0.8807429075241089
1553552835.8537686,25260,0.878949761390686
1553554635.9780567,27063,0.8796398639678955
1553556436.1095874,28866,0.8777551651000977
1553558236.8632133,30667,0.8787910342216492
1553560037.0439827,32470,0.8798490762710571
1553561837.5402837,34274,0.881392776966095
1553563638.1045284,36078,0.8812972903251648
1553565438.6918576,37881,0.8785939812660217
1553567239.376274,39685,0.8816354274749756
1553569040.1421425,41489,0.8797168731689453
1553570840.6377547,43293,0.8799958229064941
1553572641.150555,45098,0.8794940114021301
1553574441.9133654,46903,0.8753100633621216
1553576242.4917321,48706,0.8768951296806335
1553578042.5290627,50508,0.8813835978507996
1553579842.7450638,52311,0.880247175693512
1553581643.6234326,54113,0.880827009677887
1553583443.9939795,55916,0.8790193796157837
1553585244.865505,57719,0.876251757144928
1553587044.9196427,59521,0.881104588508606
1553588845.7362163,61324,0.8798606395721436
1553590646.7507112,63127,0.877731442451477
1553592447.0310807,64929,0.8766574859619141
1553594247.8968318,66732,0.8800406455993652
1553596048.5652804,68535,0.8795740604400635
1553597849.3657253,70339,0.8798406720161438
1553598143.6172104,70595,0.8782798647880554
1553599991.4728127,72552,0.8799092769622803
1553601792.2220116,74466,0.8807618021965027
1553603593.0212789,76380,0.8788608908653259
1553605393.517454,78294,0.8764851689338684
1553607193.7714498,80208,0.877597451210022
1553608994.6145406,82122,0.876545786857605
1553610795.2178752,84036,0.8795952200889587
1553612595.8828373,85950,0.8812618851661682
1553614396.5066285,87863,0.8758259415626526
1553616197.3862524,89776,0.8776264786720276
1553617997.8844595,91689,0.8742097020149231
1553619798.5189033,93602,0.8767695426940918
1553621598.9387045,95514,0.8733837604522705
1553623399.0476732,97425,0.8765684962272644
1553625199.3139877,99337,0.8745352029800415
1553626631.7710419,100850,0.8750354647636414
