Wall time,Step,Value
1550687220.9838932,5651,0.243329718708992
1550689020.890306,11134,0.46066954731941223
1550690820.9958675,16620,0.592326283454895
1550692621.2880611,22106,0.6640132069587708
1550694421.655428,27586,0.6947725415229797
1550696221.7919488,33070,0.7272593379020691
1550698021.9414194,38552,0.7434508204460144
1550699822.5944984,44031,0.7533748745918274
1550701622.8949084,49495,0.7661374807357788
1550703422.6868415,54949,0.7746859788894653
1550705222.5016742,60429,0.7821322083473206
1550707022.5516322,65918,0.7876789569854736
1550708822.5182283,71416,0.7939523458480835
1550710622.697533,76912,0.7981709837913513
1550712422.9273663,82408,0.8039400577545166
1550714223.146376,87904,0.8058796525001526
1550716023.2483795,93400,0.8100764155387878
1550717823.527073,98896,0.8159055113792419
1550719623.83287,104393,0.8173069357872009
1550721423.9374943,109888,0.8199544548988342
1550723224.4073048,115384,0.8227138519287109
1550725024.4723978,120879,0.8262369632720947
1550726824.6892188,126373,0.8276659250259399
1550728624.920248,131867,0.8313021063804626
1550730425.273229,137354,0.8333171606063843
1550732225.470218,142837,0.8334628939628601
1550734025.6100152,148318,0.8350777626037598
1550735825.8697655,153802,0.8359121680259705
1550737626.130341,159285,0.8385993242263794
1550739426.492584,164767,0.841529905796051
1550741226.7316096,170246,0.8386578559875488
1550743026.7289948,175723,0.8446236848831177
1550744827.010711,181200,0.843697726726532
1550746627.2385325,186680,0.8447577357292175
1550748427.3098164,192156,0.8471733927726746
1550750227.4739506,197629,0.8468419313430786
1550751150.2731504,200350,0.8483291268348694
1550753016.8990319,206207,0.8625271916389465
1550754817.1200826,211900,0.8637996315956116
1550756617.1484995,217597,0.8666315078735352
1550758418.0836523,223289,0.8672732710838318
1550760217.8097687,228976,0.8673450946807861
1550762017.8355322,234672,0.8686511516571045
1550763817.9926739,240366,0.8708549737930298
1550765618.0960445,246065,0.8692280054092407
1550767418.3221936,251770,0.872495174407959
1550769218.2995539,257475,0.872428297996521
1550771018.7154937,263179,0.8737337589263916
1550772818.8061068,268884,0.873334527015686
1550774619.2450085,274588,0.8757104277610779
1550776419.2583926,280293,0.8751097917556763
1550778219.4785078,285993,0.8756979703903198
1550780019.7607057,291690,0.877723217010498
1550781820.1423237,297391,0.877314031124115
1550783620.2610455,303089,0.8798331618309021
1550785420.3637931,308784,0.8804854154586792
1550787220.7838664,314455,0.8803068995475769
1550789020.3683546,320146,0.8811864852905273
1550789199.7093413,320560,0.8815743923187256
