Wall time,Step,Value
1554408599.4846432,2296,0.3303731679916382
1554410396.442026,4542,0.4582834839820862
1554412197.2418098,6795,0.5251604318618774
1554413997.3485804,9047,0.5629892349243164
1554415797.9725046,11300,0.6196961998939514
1554417598.0125175,13549,0.6254006028175354
1554419398.4020875,15801,0.6370154619216919
1554421198.4387095,18055,0.6480893492698669
1554422998.540679,20309,0.6506884098052979
1554424799.1204267,22564,0.6679227948188782
1554426599.3581471,24819,0.6814200282096863
1554428399.912629,27074,0.6638468503952026
1554430200.361477,29329,0.6812121868133545
1554432000.5140762,31584,0.6849268078804016
1554433801.196312,33839,0.6655818819999695
1554435601.7498481,36095,0.7038100957870483
1554437402.3080142,38350,0.6866649985313416
1554439202.9226663,40603,0.6845611929893494
1554441003.5780406,42853,0.682283878326416
1554442803.982037,45102,0.7028451561927795
1554444604.435341,47351,0.7149515748023987
1554446405.0823147,49600,0.701585054397583
1554448205.4216766,51842,0.6898961067199707
1554450005.7112021,54084,0.6912931799888611
1554451806.3040135,56326,0.6945424675941467
1554453606.9749486,58568,0.6901847124099731
1554455407.5355182,60810,0.7005134224891663
1554457207.6932464,63050,0.6937509179115295
1554459007.8732111,65291,0.6967589855194092
1554460808.7252376,67533,0.7039868235588074
1554462608.9791331,69774,0.6959608197212219
1554463290.6072905,70595,0.7177228927612305
1554465136.9238691,73101,0.7161026000976562
1554466937.3053026,75566,0.7119321823120117
1554468737.9420621,78031,0.7247505784034729
1554470538.3497977,80493,0.6928507089614868
1554472338.685659,82951,0.7217885255813599
1554474138.699432,85410,0.716975748538971
1554475939.094773,87869,0.7019009590148926
1554477739.7985587,90327,0.7090142965316772
1554479539.9341507,92785,0.7319355010986328
1554481340.089158,95242,0.7188279628753662
1554483140.771122,97706,0.7180067896842957
1554484940.704912,100169,0.7105072736740112
1554485460.776334,100850,0.7138810753822327
