Wall time,Step,Value
1552323678.7816355,3845,0.0008236182620748878
1552325478.4181635,7545,0.0067540728487074375
1552327279.0416448,11251,0.00987382885068655
1552329079.1223452,14952,0.02182549424469471
1552330879.2261891,18661,0.05087093636393547
1552332679.8527393,22370,0.07876009494066238
1552334479.668673,26078,0.10293891280889511
1552336279.7054646,29786,0.12427208572626114
1552338080.0859728,33501,0.14835362136363983
1552339880.3863306,37212,0.16509665548801422
1552341680.6066515,40924,0.1815972924232483
1552343480.9270947,44629,0.19629058241844177
1552345281.3743603,48335,0.21555879712104797
1552347081.5259492,52050,0.22165723145008087
1552348882.2288759,55766,0.24282993376255035
1552350682.1099977,59478,0.2513576149940491
1552352482.1498654,63192,0.2659066915512085
1552354282.4450836,66915,0.26975634694099426
1552356083.0155044,70631,0.28371211886405945
1552357883.3933325,74348,0.29229751229286194
1552359683.3772066,78069,0.30406269431114197
1552361483.7448921,81785,0.31533628702163696
1552363283.882224,85500,0.3221639394760132
1552365083.9484344,89215,0.3288130760192871
1552366884.3558636,92929,0.33538034558296204
1552368684.417831,96640,0.3440593183040619
1552370484.874458,100358,0.34546390175819397
1552372284.6969213,104070,0.35496681928634644
1552374084.7446597,107788,0.36076441407203674
1552375885.3543804,111504,0.36713123321533203
1552377685.3394723,115217,0.3690895438194275
1552379485.6669521,118930,0.37934109568595886
1552381285.8179104,122647,0.3837083578109741
1552383086.1606,126365,0.38904809951782227
1552384886.5543087,130077,0.3912864327430725
1552386686.7395139,133792,0.3951603174209595
1552388487.3672936,137504,0.40277373790740967
1552390287.6178067,141217,0.4098651111125946
1552392087.6046517,144929,0.41215306520462036
1552393887.850633,148640,0.41056737303733826
1552395688.5465631,152340,0.4153289794921875
1552397488.939643,156042,0.4230625629425049
1552399289.4885771,159736,0.43456363677978516
1552401089.1869173,163430,0.43067774176597595
1552402890.0458233,167131,0.44196048378944397
1552404690.2736123,170824,0.441301167011261
1552406490.4062927,174521,0.44609567523002625
1552408290.3369858,178223,0.44694066047668457
1552410090.95044,181915,0.4472644329071045
1552411890.885336,185611,0.4516182243824005
1552413691.4521372,189300,0.4527226984500885
1552415492.0754695,192988,0.44643110036849976
1552417292.1135762,196667,0.4594745337963104
1552419092.3716006,200360,0.4653547406196594
1552420892.1193159,204052,0.4604599177837372
1552422692.5684745,207745,0.4718621075153351
1552424492.0106616,211454,0.4786090850830078
1552426292.1884654,215155,0.48022860288619995
1552428092.8116312,218865,0.4817734658718109
1552429893.6271026,222569,0.47937941551208496
1552431693.2613854,226261,0.4811004102230072
1552433493.6849573,229963,0.48846518993377686
1552435293.7669988,233673,0.4842468202114105
1552437095.2014968,237357,0.48800626397132874
1552438896.3416662,241026,0.49182432889938354
1552440694.7001185,244728,0.4967460036277771
1552442494.7214584,248440,0.49671658873558044
1552444294.4252565,252158,0.5001919865608215
1552446095.0305402,255870,0.492972195148468
1552447895.4929607,259582,0.5038516521453857
1552449695.533951,263290,0.5068032145500183
1552451496.1675274,267000,0.4972228407859802
1552453296.4314163,270712,0.5067107677459717
1552455096.4851565,274427,0.5084310173988342
1552456896.8719254,278142,0.5063759088516235
1552458697.5989962,281849,0.520387589931488
1552460497.5350847,285561,0.5121610164642334
1552462298.3153617,289263,0.5171514749526978
1552464098.1225085,292964,0.5191991925239563
1552465898.695088,296665,0.5266992449760437
1552467698.746292,300369,0.5268147587776184
1552469498.5952144,304076,0.5176486372947693
1552471298.9854827,307781,0.5255487561225891
1552473099.3228056,311483,0.5256296992301941
1552474900.0743265,315186,0.5297437906265259
1552476700.157038,318893,0.5361188650131226
1552478499.7666016,322599,0.5284932255744934
1552480300.7236037,326296,0.5299476385116577
1552482100.7680318,329989,0.5354581475257874
1552483900.4273982,333688,0.5321740508079529
1552484749.6521566,335360,0.5350394248962402
1552486667.8803265,339309,0.5749648213386536
1552488468.1686132,343128,0.570997953414917
1552490268.390976,346946,0.5847960710525513
1552492068.4029558,350765,0.5738160014152527
1552493868.7838945,354580,0.5866602659225464
1552495668.9346602,358391,0.5822253823280334
1552497468.9645672,362208,0.5845233798027039
1552499269.5531285,366023,0.5863867402076721
1552501070.0028064,369833,0.5889367461204529
1552502869.8040972,373644,0.5879020690917969
1552504670.3384154,377456,0.5911166667938232
1552506470.262225,381269,0.5905107259750366
1552508270.5884051,385086,0.5869503617286682
1552510070.5529275,388901,0.5950984358787537
1552511871.0498195,392720,0.5952415466308594
1552513671.1508324,396536,0.5901893973350525
1552515471.790322,400349,0.5969091653823853
1552517271.7937415,404159,0.5953451991081238
1552519071.7123961,407974,0.6008956432342529
1552520871.9829144,411792,0.5992519855499268
1552522672.0422845,415609,0.5989681482315063
1552524472.0486329,419431,0.6109414100646973
1552526272.6441002,423249,0.6085395812988281
1552528072.6689303,427063,0.6030536890029907
1552529873.0912364,430884,0.5994389057159424
1552531673.024542,434704,0.6108601093292236
1552533473.714065,438514,0.6122433543205261
1552535273.9466643,442333,0.6027423739433289
1552537074.0833142,446150,0.6102813482284546
1552538873.861322,449974,0.606751024723053
1552540674.4337316,453795,0.6090180277824402
1552542474.6224573,457619,0.6081029176712036
1552544275.1924477,461436,0.6075566411018372
1552546075.4187837,465260,0.6090708374977112
1552547876.06808,469075,0.6084281206130981
1552549675.4850264,472883,0.6142460107803345
1552551476.4134407,476700,0.6147404313087463
1552553276.3876326,480513,0.613832414150238
1552555076.4913635,484325,0.6063557267189026
1552556877.2787666,488141,0.6157803535461426
1552558677.2318347,491962,0.6076321601867676
1552560478.2089753,495775,0.6157094836235046
1552562277.2187765,499579,0.6161072850227356
1552564077.7940276,503396,0.6216938495635986
1552565878.5778565,507212,0.6132327318191528
1552567678.4000764,511026,0.6181089282035828
1552569478.9438488,514844,0.6186011433601379
1552571278.9351628,518657,0.6159071326255798
1552573079.3202553,522472,0.6137818694114685
1552574879.1492617,526289,0.6283745765686035
1552576679.5537496,530110,0.6213904023170471
1552578479.366104,533928,0.6220765113830566
1552580279.7891765,537742,0.6275375485420227
1552582079.6530433,541561,0.6196608543395996
1552583880.1079276,545377,0.6251716613769531
1552585680.2276504,549197,0.6266229152679443
1552587480.3425715,553017,0.6243005990982056
1552589280.2961586,556842,0.629631757736206
1552591081.108691,560662,0.6269637942314148
1552592880.9145284,564482,0.62236088514328
1552594681.339273,568305,0.6238209009170532
1552596481.44988,572118,0.6281636357307434
1552598281.7214477,575944,0.6251603364944458
1552600081.5795245,579767,0.6261858344078064
1552601882.3573472,583588,0.6311531662940979
1552603682.0349498,587409,0.6285980939865112
1552605482.2852037,591236,0.6376143097877502
1552607281.995286,595056,0.632038950920105
1552609082.2461612,598882,0.6342786550521851
1552610882.4507596,602704,0.6290560364723206
1552612682.771926,606522,0.6281500458717346
1552614483.0861256,610349,0.6286773085594177
1552616283.130011,614174,0.631460428237915
1552618082.9898503,618002,0.63555908203125
1552619883.4444373,621826,0.6336312294006348
1552621683.8973603,625647,0.6275852918624878
1552623484.1807685,629472,0.6331604719161987
1552625284.3361952,633297,0.6296627521514893
1552627084.5913277,637119,0.6351513862609863
1552628884.622901,640939,0.6294238567352295
1552630684.9122136,644768,0.6356964111328125
1552632485.0986307,648592,0.6315293312072754
1552634285.785935,652418,0.6319214701652527
1552636085.8747177,656239,0.6381707787513733
1552637886.434614,660068,0.632078230381012
1552639686.6698902,663891,0.6338063478469849
1552641487.0501022,667709,0.6444955468177795
1552643287.0448828,671524,0.6349596977233887
1552645087.6328704,675343,0.636667013168335
1552646887.3233275,679158,0.6340735554695129
1552648687.594403,682963,0.6277167201042175
1552650487.5184517,686787,0.6378478407859802
1552652288.174357,690605,0.6380491852760315
1552654088.304161,694429,0.6307425498962402
1552655889.6483257,698236,0.6408514380455017
1552657689.5031905,702042,0.63615882396698
1552659489.0350912,705857,0.6449745297431946
1552661289.2376988,709674,0.6414299011230469
1552663089.484215,713488,0.6357758641242981
1552664890.5687916,717309,0.6397464275360107
1552666690.761331,721116,0.6357842683792114
1552668491.0280235,724926,0.6363178491592407
1552670290.7311287,728744,0.6433960199356079
1552672090.8084352,732567,0.6515554189682007
1552673891.262811,736390,0.6416062712669373
1552675691.748671,740209,0.6415135860443115
1552677492.0312026,744031,0.639435350894928
1552679292.032792,747852,0.6446783542633057
1552681092.4727142,751672,0.6447298526763916
1552682892.3647475,755490,0.6445555686950684
1552684692.8825424,759315,0.632924497127533
1552686492.9283457,763138,0.6382623910903931
1552688293.1904638,766961,0.6505491137504578
1552690094.2081342,770784,0.6388611793518066
1552691893.618326,774604,0.6474367380142212
1552693693.6445959,778428,0.6391772627830505
1552695494.3776941,782254,0.641207754611969
1552697294.5010178,786078,0.6460416913032532
1552699094.2604058,789903,0.6523359417915344
1552700894.2229557,793734,0.6528612971305847
1552702694.725781,797563,0.6479260325431824
1552704495.2435212,801393,0.6439250707626343
1552706295.626205,805218,0.6504605412483215
1552708095.7836092,809043,0.6443513631820679
1552709896.1543272,812870,0.6392102837562561
1552711696.2148566,816697,0.6447592377662659
1552713496.4495654,820526,0.6463508009910583
1552715297.0854833,824351,0.6454498171806335
1552717097.3062887,828172,0.6441267132759094
1552718897.2908788,831979,0.6473013758659363
1552720697.893901,835801,0.6450333595275879
1552722497.977513,839623,0.647301435470581
1552724298.3424354,843447,0.6441197395324707
1552726098.5019803,847277,0.655703067779541
1552727899.183005,851097,0.6483119130134583
1552729699.3383012,854925,0.6465965509414673
1552731499.3936734,858747,0.6467105150222778
1552733299.446708,862570,0.6494271159172058
1552735099.4861677,866389,0.6428539752960205
1552736899.4849985,870213,0.6465375423431396
1552738699.8366802,874029,0.6445738077163696
1552740500.6211822,877847,0.6446630954742432
1552742300.8524952,881666,0.6467260122299194
1552744101.136731,885488,0.6448718309402466
1552745901.6652822,889311,0.6469461917877197
1552747701.572271,893129,0.6444756984710693
1552749502.028046,896940,0.6482114791870117
1552751301.9242342,900762,0.652067244052887
1552753101.986288,904577,0.6495975255966187
1552754901.698316,908386,0.6526547074317932
1552756702.4820573,912207,0.644027590751648
1552758502.3478882,916026,0.6521849036216736
1552760303.2688212,919841,0.6511827707290649
1552762103.366524,923647,0.6525264382362366
1552763903.5514178,927453,0.6528670787811279
1552765703.197808,931261,0.650467038154602
1552767503.5383537,935081,0.6563106775283813
1552769303.61768,938902,0.650380551815033
1552771104.412533,942726,0.6445530652999878
1552772904.5376396,946552,0.650124728679657
1552774705.252417,950373,0.6571674942970276
1552776505.8388295,954181,0.6515995860099792
1552778306.3500988,957987,0.6499559283256531
1552780106.6831796,961797,0.6488506197929382
1552781906.6840568,965606,0.6500321626663208
1552783707.8608491,969414,0.6506751775741577
1552785507.6871393,973217,0.6501578688621521
1552787307.292737,977021,0.6507171988487244
1552789106.8245878,980833,0.6464534401893616
1552790906.8926451,984662,0.6488503217697144
1552792706.9419985,988488,0.6501191854476929
1552794507.1052327,992314,0.648504376411438
1552796307.4064243,996144,0.6518522500991821
1552798107.4816144,999970,0.6548097133636475
1552799907.9864426,1003798,0.651856541633606
1552801708.0190728,1007619,0.654072642326355
1552803508.639628,1011447,0.6525776386260986
1552805308.3399966,1015273,0.6502677202224731
1552807108.6654148,1019100,0.6523340344429016
1552808908.716527,1022924,0.6522893309593201
1552810709.0226245,1026742,0.6476483345031738
1552812509.0921848,1030569,0.6577441096305847
1552814309.3729494,1034396,0.6530501246452332
1552816109.5323167,1038211,0.6509573459625244
1552817909.9402459,1042022,0.6492156386375427
1552819710.0663671,1045844,0.6554821133613586
1552821510.7808523,1049661,0.6545617580413818
1552823315.3366597,1053457,0.6474217772483826
1552825117.4495473,1057191,0.6477788686752319
1552826916.0236428,1060891,0.6568769216537476
1552828716.8131397,1064594,0.6585820317268372
1552830516.656488,1068283,0.6619129180908203
1552832318.4585884,1071981,0.6483842730522156
1552834118.530884,1075676,0.6601279973983765
1552835918.484024,1079377,0.655544102191925
1552837719.4534314,1083075,0.6511237621307373
1552839519.263798,1086781,0.6548055410385132
1552841319.7490804,1090479,0.6515686511993408
1552843119.412085,1094177,0.6571005582809448
1552844920.0803602,1097880,0.6540874242782593
1552846721.1268365,1101572,0.6539417505264282
1552848520.549192,1105265,0.6528434753417969
1552850321.1002967,1108956,0.657400906085968
1552852120.6958883,1112652,0.6535000205039978
1552853920.8899038,1116352,0.6583133935928345
1552855721.5955722,1120054,0.6573880314826965
1552857521.4972882,1123763,0.6547490954399109
1552859322.164536,1127473,0.6574840545654297
1552861122.3112264,1131168,0.6587616205215454
1552862922.4103665,1134860,0.659285306930542
1552864717.902173,1138598,0.6499254107475281
1552866517.4382792,1142412,0.6599841117858887
1552868317.7772522,1146234,0.6509156227111816
1552870118.0292945,1150058,0.6550961136817932
1552871918.4586458,1153876,0.656421422958374
1552873718.7743273,1157701,0.656019926071167
1552875519.3883786,1161531,0.6504709720611572
1552877319.3680162,1165357,0.6587728261947632
1552879119.9707856,1169189,0.6574429273605347
1552880920.278147,1173014,0.6535456776618958
1552882720.6842139,1176840,0.6484499573707581
1552884521.1573424,1180667,0.6530462503433228
1552886321.3585136,1184492,0.6561411023139954
1552888121.4831328,1188315,0.6591547727584839
1552889921.2589433,1192134,0.6550067663192749
1552891721.7093287,1195954,0.6638839244842529
1552893521.7422388,1199772,0.6562596559524536
1552895322.093913,1203590,0.6608995795249939
1552897125.6170053,1207372,0.6578991413116455
1552904892.070475,1211842,0.6586169600486755
1552926509.8389065,1215558,0.6593430042266846
1552948133.5164683,1219268,0.6631017923355103
1552969750.7444422,1223017,0.6574960947036743
1552991388.7003691,1226748,0.6549515724182129
1553013011.6805873,1230421,0.6569128632545471
1553034617.406864,1234115,0.6529603600502014
1553056241.5693161,1237865,0.662064790725708
1553077864.7741199,1241620,0.6562297344207764
1553099490.5896573,1245363,0.6547963619232178
1553121113.3355756,1249109,0.6625422239303589
1553142727.4175966,1252845,0.6583313941955566
1553164359.6457782,1256612,0.6551107168197632
1553185994.2085373,1260336,0.6533189415931702
1553207613.1047554,1264041,0.6593256592750549
1553229232.2157068,1267774,0.6621424555778503
1553250883.135734,1271523,0.6618245244026184
1553272500.7919655,1275246,0.6521143913269043
1553294109.3066404,1278970,0.6599656939506531
1553315735.2882667,1282749,0.6594175696372986
1553337363.728012,1286485,0.6578676104545593
1553358986.2160583,1290203,0.656724214553833
1553380607.28374,1293907,0.6533408164978027
1553402223.5094998,1297677,0.664470374584198
1553423863.2580266,1301416,0.6565638780593872
1553445484.740712,1305127,0.6556326746940613
1553467112.3106015,1308821,0.6616686582565308
1553488727.930866,1312552,0.6631668210029602
1553510359.389636,1316299,0.6638349294662476
1553524524.7040315,1322079,0.6674137115478516
1553526325.0214674,1325918,0.6619564294815063
1553528125.1454167,1329760,0.660682737827301
1553529925.3159158,1333599,0.6521844863891602
1553531725.8436,1337441,0.6574473977088928
1553533526.0456867,1341281,0.6560099720954895
1553535326.3759992,1345122,0.6625678539276123
1553537126.717862,1348956,0.6581512689590454
1553538926.5673957,1352797,0.6583343148231506
1553540726.6792,1356638,0.658683180809021
1553542526.7104294,1360477,0.6611171364784241
1553544326.803047,1364319,0.6646435260772705
1553546127.0236423,1368165,0.6573846340179443
1553547927.1059048,1372018,0.6588021516799927
1553549727.4401639,1375868,0.6587796211242676
1553551527.8955412,1379716,0.6588206887245178
1553553328.2201245,1383551,0.6596824526786804
1553555128.364157,1387386,0.6608808040618896
1553556928.457478,1391217,0.661892831325531
1553558728.6469462,1395058,0.6628175973892212
1553560528.816465,1398898,0.6573099493980408
1553562329.301187,1402743,0.6566302180290222
1553564129.5091085,1406589,0.6604787707328796
1553565930.015506,1410434,0.6634486317634583
1553567730.2835064,1414282,0.6643374562263489
1553569530.459046,1418133,0.6527365446090698
1553571330.7275195,1421982,0.659931480884552
1553573131.0599015,1425831,0.6608284711837769
1553574931.663835,1429687,0.6659010052680969
1553576731.9166453,1433537,0.6597970724105835
1553578532.1719873,1437386,0.6584048867225647
1553580332.4126742,1441234,0.6604752540588379
1553582132.433077,1445091,0.6599687933921814
1553583932.4634185,1448941,0.6617198586463928
1553585732.879635,1452797,0.6598497033119202
1553587533.0183334,1456643,0.6608906388282776
1553589333.171488,1460492,0.65996253490448
1553591133.581777,1464346,0.6634485125541687
1553592933.8818693,1468198,0.6655088067054749
1553594733.8071847,1472054,0.6614583134651184
1553596533.8753512,1475900,0.657253086566925
1553598334.528699,1479751,0.6637908816337585
1553600134.4135742,1483596,0.6677087545394897
1553601934.301132,1487437,0.6615334749221802
1553603735.1879177,1491282,0.662290096282959
1553605535.000597,1495129,0.6622748374938965
1553607335.640218,1498975,0.6633535623550415
1553609135.5356083,1502818,0.6541352868080139
1553610935.1882086,1506669,0.6635551452636719
1553612736.0997846,1510516,0.6559966802597046
1553614536.3431544,1514363,0.6585936546325684
1553616336.580996,1518206,0.6600342988967896
1553618136.766798,1522049,0.6674509048461914
1553619936.6802175,1525890,0.6611537933349609
1553621736.7967749,1529729,0.6668111085891724
1553623537.2884011,1533564,0.6599634885787964
1553625337.4641294,1537402,0.6586316823959351
1553627137.9379435,1541234,0.6576575636863708
1553628937.7750356,1545068,0.6636966466903687
1553630738.0850601,1548913,0.6596004366874695
1553632537.847482,1552761,0.6626971364021301
1553634338.4173877,1556608,0.6668169498443604
1553636138.8535867,1560454,0.6637564897537231
1553637939.3452852,1564305,0.6652475595474243
1553639739.7642825,1568136,0.6597276926040649
1553641539.8251295,1571984,0.6629233360290527
1553643340.4161646,1575830,0.6664604544639587
1553645140.4490442,1579678,0.6654083132743835
1553646940.4153605,1583525,0.6630194783210754
1553648740.8158007,1587375,0.6642106175422668
1553650540.882224,1591222,0.6592521071434021
1553652341.1259568,1595072,0.6629781723022461
1553654141.3677876,1598922,0.6613591909408569
1553655941.2950895,1602775,0.6643571853637695
1553657741.540055,1606628,0.6631338000297546
1553659541.586553,1610484,0.6639522314071655
1553661341.7848008,1614342,0.6707576513290405
1553663141.8075433,1618195,0.6616798639297485
1553664941.9863665,1622046,0.6642242074012756
1553666742.0750864,1625897,0.6628519296646118
1553668542.170893,1629744,0.6648415327072144
1553670342.5427096,1633596,0.6619632244110107
1553672143.1558726,1637445,0.665005624294281
1553673943.4905734,1641294,0.6560942530632019
1553675743.773059,1645139,0.655287504196167
1553677544.1792116,1648987,0.6668303608894348
1553679344.1955616,1652833,0.6646152138710022
1553681144.2609658,1656679,0.6593883037567139
1553682944.2312453,1660523,0.6642014980316162
1553684744.4089663,1664370,0.6637963056564331
1553686544.6364057,1668220,0.6593206524848938
1553688344.6831307,1672067,0.6671355962753296
1553690144.4224102,1675911,0.6711632013320923
1553691945.4435685,1679764,0.6673787832260132
1553693745.4735396,1683609,0.6650531888008118
1553695545.8709216,1687461,0.6623826622962952
1553697346.0820684,1691304,0.6614002585411072
1553699145.9963243,1695154,0.6674898862838745
1553700946.464308,1699001,0.663385272026062
1553702746.977636,1702849,0.6592788696289062
1553704547.2386775,1706698,0.6599497199058533
1553706347.35621,1710546,0.6646175980567932
1553708147.9692457,1714391,0.6627814173698425
1553709948.0970674,1718225,0.661140501499176
1553711748.2581093,1722055,0.6673266887664795
1553713548.6963146,1725887,0.6644121408462524
1553715348.6973407,1729727,0.663139820098877
1553717148.893872,1733568,0.6608575582504272
1553718948.8612938,1737412,0.6674292683601379
1553720749.127835,1741254,0.6615176796913147
1553722549.5382743,1745098,0.6657220721244812
1553724349.5224762,1748938,0.66007000207901
1553726149.7184534,1752778,0.6637557148933411
1553727949.9849398,1756623,0.6669501662254333
1553729750.2271447,1760467,0.6654578447341919
1553731550.8314168,1764315,0.6570979952812195
1553733351.0902982,1768161,0.6625622510910034
1553735151.4345005,1772004,0.6622119545936584
1553736951.4900262,1775850,0.6603288650512695
1553738751.914289,1779693,0.6629047393798828
1553740552.029569,1783535,0.6621425151824951
1553742352.2564142,1787386,0.6635884642601013
1553744152.348349,1791240,0.667907178401947
1553745952.457472,1795088,0.6660794615745544
1553747752.8870986,1798942,0.6594499945640564
1553749552.9889212,1802792,0.6600865721702576
1553751352.8897858,1806641,0.6627287864685059
1553753153.0707057,1810491,0.6688156723976135
1553754953.1140096,1814341,0.6627960205078125
1553756753.3578231,1818194,0.6593018770217896
1553758553.484329,1822049,0.6607096791267395
1553760353.543279,1825902,0.6647127270698547
1553762154.0509448,1829758,0.6652598977088928
1553763954.7735803,1833608,0.6673979759216309
1553765755.3915284,1837456,0.6630457043647766
1553767555.5420535,1841296,0.6656859517097473
1553769355.6866276,1845137,0.6658108830451965
1553771155.903966,1848986,0.6612678170204163
1553772956.4037826,1852834,0.6603877544403076
1553774756.8525352,1856681,0.6722913980484009
1553776557.151425,1860527,0.664852499961853
1553778357.1548672,1864366,0.6627535223960876
1553780157.0126498,1868207,0.6677842736244202
1553781957.505339,1872051,0.6698235273361206
1553783758.2216308,1875894,0.6702324748039246
1553785558.5567803,1879736,0.6664838790893555
1553787358.8647933,1883576,0.6657154560089111
1553789159.014675,1887415,0.6635661125183105
1553790959.325591,1891256,0.6603582501411438
1553792759.3148577,1895094,0.6663915514945984
1553794559.4548457,1898936,0.6657670736312866
1553796359.9834335,1902776,0.6664420366287231
1553798159.8636672,1906605,0.6623690724372864
1553799960.0182157,1910432,0.6727905869483948
1553801759.6925678,1914273,0.6637212634086609
1553803560.216032,1918112,0.6701722145080566
1553805360.1788716,1921954,0.6629799604415894
1553807160.1841815,1925797,0.6610209941864014
1553808960.446287,1929637,0.6641485691070557
1553810760.5567691,1933474,0.6661581993103027
1553812560.7737956,1937316,0.6639799475669861
1553814361.209959,1941162,0.666978120803833
1553816161.5433838,1945007,0.6683031916618347
1553817961.6141174,1948853,0.6610605120658875
1553819762.0651433,1952692,0.6632044315338135
1553821562.0905468,1956533,0.6635897755622864
1553823362.1210613,1960374,0.6663963198661804
1553825162.456555,1964217,0.6674855351448059
1553826962.8369303,1968062,0.6638102531433105
1553828762.964246,1971916,0.6701602339744568
1553830563.302995,1975764,0.6682868599891663
1553832363.8159916,1979610,0.6640449166297913
1553834164.1812298,1983456,0.6671931743621826
1553835964.4032133,1987303,0.6698105931282043
1553837764.6426952,1991149,0.6626909375190735
1553839564.8463817,1994996,0.6671593189239502
1553841365.3812475,1998843,0.6677313446998596
1553843165.6386693,2002687,0.662168025970459
1553844966.02927,2006531,0.6660954356193542
1553846766.2193096,2010377,0.6633058786392212
1553847629.209847,2012160,0.6658194065093994
