Wall time,Step,Value
1554130680.8569357,5315,0.24494785070419312
1554132480.911621,10490,0.32266682386398315
1554134281.3607745,15664,0.5117059946060181
1554136081.6824527,20840,0.6068968176841736
1554137881.8722057,26013,0.6591047644615173
1554139682.1190195,31175,0.6950333714485168
1554141482.6089382,36347,0.7140793204307556
1554143282.4857843,41518,0.7347574234008789
1554145082.802146,46693,0.7517383694648743
1554146882.8300402,51865,0.7594673037528992
1554148683.038525,57039,0.769011914730072
1554150483.2873397,62211,0.7755654454231262
1554152283.3985012,67385,0.7828289866447449
1554154083.663066,72557,0.7899951338768005
1554155883.6408427,77732,0.7973844408988953
1554157683.5780916,82906,0.7988296747207642
1554159483.5490649,88080,0.8047886490821838
1554161284.029651,93255,0.8080158233642578
1554163084.241011,98429,0.8099942207336426
1554164884.333795,103600,0.8146246075630188
1554166684.505108,108778,0.8170737624168396
1554168484.5312197,113964,0.8216593265533447
1554170284.7946198,119150,0.8258282542228699
1554172085.1205094,124336,0.8249725103378296
1554173885.2275615,129521,0.8262902498245239
1554175685.3167543,134707,0.830530047416687
1554177485.4056537,139892,0.8319247961044312
1554179285.6332543,145078,0.8322659730911255
1554181085.7663796,150266,0.8365827202796936
1554182886.1090844,155449,0.838483989238739
1554184686.2022526,160633,0.8407973647117615
1554186486.1936104,165816,0.8417075276374817
1554188286.5384345,171000,0.8437566757202148
1554190086.5437148,176183,0.8442625999450684
1554191886.916151,181368,0.8452072739601135
1554193686.9825494,186549,0.8470826148986816
1554195486.9850128,191729,0.8477612137794495
1554197287.4403787,196905,0.8484670519828796
1554199087.7741117,202075,0.8513210415840149
1554200888.2998915,207241,0.852692186832428
1554202688.197394,212410,0.852668285369873
1554204488.1400292,217587,0.8532935380935669
1554206288.2666907,222767,0.8550205826759338
1554208088.4560714,227948,0.8562765121459961
1554209888.4495616,233126,0.8566029071807861
1554211688.8310623,238296,0.8592863082885742
1554213488.9705722,243464,0.8580874800682068
1554215289.3835115,248626,0.8599033355712891
1554217089.6914308,253794,0.8604318499565125
1554218889.948657,258963,0.8610550761222839
1554220690.010754,264132,0.8628978133201599
1554222490.2247915,269291,0.8628773093223572
1554224290.272201,274445,0.865261971950531
1554226090.2969408,279604,0.86396324634552
1554227890.5199208,284765,0.8646796941757202
1554229690.4731562,289923,0.867237389087677
1554231490.5710738,295089,0.8667559623718262
1554233290.7648234,300263,0.8671010136604309
1554235091.0836892,305438,0.8658552169799805
1554236891.253228,310613,0.8684601783752441
1554238691.5547166,315792,0.868907630443573
1554240351.3611863,320560,0.8680856227874756
