Wall time,Step,Value
1551761654.4108202,1397,0.00048552107182331383
1551763454.462909,2752,0.0026824907399713993
1551765255.7453818,4109,0.005884762853384018
1551767056.9013767,5466,0.01563340425491333
1551768857.2767177,6819,0.031246544793248177
1551770657.5310233,8176,0.05707736313343048
1551772458.2450697,9533,0.08098176121711731
1551774259.643555,10889,0.03502951189875603
1551776060.4862678,12242,0.10204460471868515
1551777861.3575518,13596,0.11414319276809692
1551779661.9829931,14950,0.13777151703834534
1551781463.5987463,16304,0.14415866136550903
1551783264.3684008,17660,0.10364031791687012
1551785064.9691586,19014,0.13239116966724396
1551786866.1462033,20368,0.13905251026153564
1551788667.8710837,21719,0.15455032885074615
1551790468.4864192,23075,0.17214974761009216
1551792269.0782228,24428,0.17880327999591827
1551794069.8362126,25782,0.17335186898708344
1551795870.1947844,27136,0.19701039791107178
1551797670.1279793,28490,0.19819319248199463
1551799471.648774,29845,0.20730619132518768
1551801271.3624055,31199,0.21882393956184387
1551803072.6448772,32554,0.2259855568408966
1551804873.3779538,33904,0.22731757164001465
1551806673.9654176,35255,0.2416672259569168
1551808474.448718,36612,0.2477443814277649
1551810274.8123033,37973,0.24589835107326508
1551812075.4431767,39335,0.2628571391105652
1551813876.6059978,40698,0.25454047322273254
1551815677.4281828,42061,0.2749091386795044
1551817478.6322465,43425,0.2818606495857239
1551819279.6340547,44789,0.2835840582847595
1551821079.474168,46147,0.285987913608551
1551822879.8874307,47505,0.2972259223461151
1551824681.3261223,48864,0.3095192015171051
1551826482.705826,50221,0.3066287636756897
1551828283.4124134,51582,0.31847134232521057
1551830085.1263297,52939,0.32212480902671814
1551831886.3812435,54294,0.3180170953273773
1551833687.0621424,55648,0.33633917570114136
1551835487.3782465,57002,0.3304744064807892
1551837287.5643864,58358,0.33770522475242615
1551839088.0576792,59715,0.33589276671409607
1551840889.0431972,61070,0.34099799394607544
1551842690.175537,62425,0.3510822057723999
1551844490.261542,63779,0.352611780166626
1551846291.5717435,65134,0.35749003291130066
1551848092.3020449,66492,0.3569023609161377
1551849893.6543033,67852,0.3564215898513794
1551851694.783802,69212,0.3564635217189789
1551853495.7949657,70572,0.3755509555339813
1551855296.6524913,71932,0.36385971307754517
1551857096.9131124,73292,0.37431225180625916
1551858897.2017689,74652,0.3792334794998169
1551860698.498782,76013,0.3864775002002716
1551862499.1429965,77373,0.3834143579006195
1551864299.3207805,78733,0.3871518671512604
1551866099.5548654,80092,0.3944252133369446
1551867900.1532116,81451,0.38685038685798645
1551869701.0725653,82810,0.3851914405822754
1551871501.60405,84169,0.38362109661102295
1551873301.5239992,85528,0.3861747980117798
1551875102.5211036,86887,0.39406880736351013
1551876903.085332,88246,0.3947789967060089
1551878704.326395,89605,0.40531185269355774
1551880504.9463465,90961,0.4030877947807312
1551882305.578864,92314,0.39704903960227966
1551884105.57302,93669,0.3974531292915344
1551885906.9649339,95025,0.40233340859413147
1551887707.2710395,96382,0.403668075799942
1551889507.887249,97739,0.4151815176010132
1551891307.9165704,99097,0.41244930028915405
1551893108.033321,100454,0.4121374487876892
1551894909.5383284,101812,0.40918752551078796
1551896709.7352586,103169,0.40671563148498535
1551898510.4146216,104528,0.4073941707611084
1551900311.818615,105888,0.41458913683891296
1551902112.620072,107248,0.40902361273765564
1551903913.6461275,108608,0.415707528591156
1551905713.916331,109968,0.4258723556995392
1551907513.7982783,111327,0.42964866757392883
1551909314.7416997,112686,0.4188222885131836
1551911114.8469806,114045,0.4278993606567383
1551912916.2548614,115404,0.424328476190567
1551914716.4065223,116763,0.43531540036201477
1551916517.459861,118123,0.4283033609390259
1551918317.3817623,119482,0.427907794713974
1551920117.8389966,120839,0.4264843463897705
1551921918.7273974,122197,0.42227038741111755
1551923719.735516,123556,0.4306447207927704
1551925520.0626476,124914,0.423766553401947
1551927320.8078032,126273,0.42737066745758057
1551929121.129659,127634,0.43599724769592285
1551930921.2774475,128993,0.4396030306816101
1551932722.1464,130352,0.4285256266593933
1551933372.6146512,130816,0.4460197687149048
1551935291.8228357,132241,0.459151029586792
1551937092.0934196,133625,0.4488155245780945
1551938892.1677074,135010,0.46474286913871765
1551940692.463229,136395,0.45952022075653076
1551942493.8209238,137781,0.4646555781364441
1551944294.0180125,139167,0.46270841360092163
1551946095.3323243,140552,0.46536868810653687
1551947895.7102497,141937,0.4634316861629486
1551949695.929169,143322,0.4666951298713684
1551951496.1263416,144706,0.4619724750518799
1551953296.322274,146090,0.4586399793624878
1551955097.4672568,147469,0.46642810106277466
1551956897.4750848,148847,0.46925830841064453
1551958697.2779188,150227,0.4616210460662842
1551960497.3113587,151611,0.47256559133529663
1551962298.7020519,152994,0.4777967631816864
1551964099.3699496,154378,0.47083112597465515
1551965899.301806,155763,0.47103023529052734
1551967700.5034318,157148,0.4673559069633484
1551969500.9887938,158534,0.4637988209724426
1551971300.9311407,159918,0.4830770194530487
1551973102.0159938,161304,0.4744607210159302
1551974902.201244,162691,0.4744666814804077
1551976702.990007,164077,0.48385298252105713
1551978502.8615184,165462,0.4758632183074951
1551980303.8372216,166847,0.47621986269950867
1551982104.842413,168236,0.47875040769577026
1551983905.7994044,169623,0.48309606313705444
1551985706.7634466,171008,0.4812498390674591
1551987506.2790954,172394,0.47686442732810974
1551989307.1403239,173787,0.48283854126930237
1551991107.8908794,175178,0.4792366027832031
1551992909.292015,176570,0.4794219732284546
1551994709.2035134,177961,0.48198819160461426
1551996510.4859536,179352,0.4823610186576843
1551998311.1738157,180744,0.4742239713668823
1552000112.0937881,182137,0.48154136538505554
1552001913.0300882,183530,0.4814211130142212
1552003713.9768133,184924,0.47475555539131165
1552005514.269191,186318,0.48073261976242065
1552006271.3286977,186880,0.4916103184223175
