Wall time,Step,Value
1552323678.7816355,3845,0.16960886120796204
1552325478.4181635,7545,0.3234986960887909
1552327279.0416448,11251,0.4003070890903473
1552329079.1223452,14952,0.48132190108299255
1552330879.2261891,18661,0.5605080723762512
1552332679.8527393,22370,0.6128615140914917
1552334479.668673,26078,0.6489908695220947
1552336279.7054646,29786,0.6728246808052063
1552338080.0859728,33501,0.6956924796104431
1552339880.3863306,37212,0.7070536017417908
1552341680.6066515,40924,0.718316912651062
1552343480.9270947,44629,0.7288129329681396
1552345281.3743603,48335,0.7396528124809265
1552347081.5259492,52050,0.7435374855995178
1552348882.2288759,55766,0.7537410259246826
1552350682.1099977,59478,0.758675217628479
1552352482.1498654,63192,0.7639684081077576
1552354282.4450836,66915,0.7669777870178223
1552356083.0155044,70631,0.771865725517273
1552357883.3933325,74348,0.7750320434570312
1552359683.3772066,78069,0.7787566184997559
1552361483.7448921,81785,0.7820979356765747
1552363283.882224,85500,0.7856799364089966
1552365083.9484344,89215,0.7875368595123291
1552366884.3558636,92929,0.7897675633430481
1552368684.417831,96640,0.7921830415725708
1552370484.874458,100358,0.7934660315513611
1552372284.6969213,104070,0.7958548665046692
1552374084.7446597,107788,0.8004311323165894
1552375885.3543804,111504,0.7989712953567505
1552377685.3394723,115217,0.802733302116394
1552379485.6669521,118930,0.8041671514511108
1552381285.8179104,122647,0.8058782815933228
1552383086.1606,126365,0.8070231080055237
1552384886.5543087,130077,0.8068361282348633
1552386686.7395139,133792,0.8086016178131104
1552388487.3672936,137504,0.8109320998191833
1552390287.6178067,141217,0.8124059438705444
1552392087.6046517,144929,0.8133878111839294
1552393887.850633,148640,0.8134351372718811
1552395688.5465631,152340,0.8139625191688538
1552397488.939643,156042,0.8166439533233643
1552399289.4885771,159736,0.8166943192481995
1552401089.1869173,163430,0.818462610244751
1552402890.0458233,167131,0.8215001225471497
1552404690.2736123,170824,0.8199583888053894
1552406490.4062927,174521,0.8210701942443848
1552408290.3369858,178223,0.8219819068908691
1552410090.95044,181915,0.8220847845077515
1552411890.885336,185611,0.8234666585922241
1552413691.4521372,189300,0.8248153924942017
1552415492.0754695,192988,0.8221772909164429
1552417292.1135762,196667,0.8250811696052551
1552419092.3716006,200360,0.8264968395233154
1552420892.1193159,204052,0.8259233832359314
1552422692.5684745,207745,0.82820725440979
1552424492.0106616,211454,0.8285908102989197
1552426292.1884654,215155,0.829172670841217
1552428092.8116312,218865,0.829298198223114
1552429893.6271026,222569,0.8282615542411804
1552431693.2613854,226261,0.8296620845794678
1552433493.6849573,229963,0.8312357664108276
1552435293.7669988,233673,0.8310264348983765
1552437095.2014968,237357,0.8310115933418274
1552438896.3416662,241026,0.8333285450935364
1552440694.7001185,244728,0.833471953868866
1552442494.7214584,248440,0.8337435722351074
1552444294.4252565,252158,0.833869218826294
1552446095.0305402,255870,0.8349246382713318
1552447895.4929607,259582,0.834964394569397
1552449695.533951,263290,0.8347949385643005
1552451496.1675274,267000,0.83418208360672
1552453296.4314163,270712,0.8357885479927063
1552455096.4851565,274427,0.8371692299842834
1552456896.8719254,278142,0.8358311057090759
1552458697.5989962,281849,0.8392294049263
1552460497.5350847,285561,0.8377195000648499
1552462298.3153617,289263,0.8383394479751587
1552464098.1225085,292964,0.8393891453742981
1552465898.695088,296665,0.8388808965682983
1552467698.746292,300369,0.840358555316925
1552469498.5952144,304076,0.8380957841873169
1552471298.9854827,307781,0.8394155502319336
1552473099.3228056,311483,0.8409444093704224
1552474900.0743265,315186,0.8420730233192444
1552476700.157038,318893,0.842219352722168
1552478499.7666016,322599,0.8410707712173462
1552480300.7236037,326296,0.8417813181877136
1552482100.7680318,329989,0.8416457772254944
1552483900.4273982,333688,0.8417101502418518
1552484749.6521566,335360,0.8417242169380188
1552486667.8803265,339309,0.8515090942382812
1552488468.1686132,343128,0.8515281677246094
1552490268.390976,346946,0.8522853851318359
1552492068.4029558,350765,0.850877583026886
1552493868.7838945,354580,0.853492021560669
1552495668.9346602,358391,0.852031409740448
1552497468.9645672,362208,0.8550927042961121
1552499269.5531285,366023,0.8553438782691956
1552501070.0028064,369833,0.8557491302490234
1552502869.8040972,373644,0.8542790412902832
1552504670.3384154,377456,0.8548303246498108
1552506470.262225,381269,0.8567357659339905
1552508270.5884051,385086,0.855445146560669
1552510070.5529275,388901,0.8572251200675964
1552511871.0498195,392720,0.856809139251709
1552513671.1508324,396536,0.8543798923492432
1552515471.790322,400349,0.856903612613678
1552517271.7937415,404159,0.857661783695221
1552519071.7123961,407974,0.856545090675354
1552520871.9829144,411792,0.8574589490890503
1552522672.0422845,415609,0.8576385378837585
1552524472.0486329,419431,0.8571125268936157
1552526272.6441002,423249,0.8572126626968384
1552528072.6689303,427063,0.8584250211715698
1552529873.0912364,430884,0.8565250039100647
1552531673.024542,434704,0.859366774559021
1552533473.714065,438514,0.8592417240142822
1552535273.9466643,442333,0.8581864833831787
1552537074.0833142,446150,0.8603136539459229
1552538873.861322,449974,0.859714686870575
1552540674.4337316,453795,0.8581119775772095
1552542474.6224573,457619,0.8612506985664368
1552544275.1924477,461436,0.8598442673683167
1552546075.4187837,465260,0.8591405749320984
1552547876.06808,469075,0.8588545322418213
1552549675.4850264,472883,0.8610328435897827
1552551476.4134407,476700,0.8595443367958069
1552553276.3876326,480513,0.8597608804702759
1552555076.4913635,484325,0.8600931763648987
1552556877.2787666,488141,0.8615162372589111
1552558677.2318347,491962,0.8597308993339539
1552560478.2089753,495775,0.8595601320266724
1552562277.2187765,499579,0.8604239225387573
1552564077.7940276,503396,0.8601727485656738
1552565878.5778565,507212,0.860091507434845
1552567678.4000764,511026,0.8624565005302429
1552569478.9438488,514844,0.8599085807800293
1552571278.9351628,518657,0.8627169132232666
1552573079.3202553,522472,0.8608987331390381
1552574879.1492617,526289,0.8637372851371765
1552576679.5537496,530110,0.8612028360366821
1552578479.366104,533928,0.8623433113098145
1552580279.7891765,537742,0.8614886403083801
1552582079.6530433,541561,0.8626203536987305
1552583880.1079276,545377,0.8633010983467102
1552585680.2276504,549197,0.8642062544822693
1552587480.3425715,553017,0.8635320067405701
1552589280.2961586,556842,0.8639729022979736
1552591081.108691,560662,0.8620609045028687
1552592880.9145284,564482,0.8630970120429993
1552594681.339273,568305,0.8630301356315613
1552596481.44988,572118,0.863497793674469
1552598281.7214477,575944,0.8622878193855286
1552600081.5795245,579767,0.8629249930381775
1552601882.3573472,583588,0.86443030834198
1552603682.0349498,587409,0.8625320196151733
1552605482.2852037,591236,0.8650950193405151
1552607281.995286,595056,0.8633488416671753
1552609082.2461612,598882,0.8629845976829529
1552610882.4507596,602704,0.8627163171768188
1552612682.771926,606522,0.8640461564064026
1552614483.0861256,610349,0.8631200194358826
1552616283.130011,614174,0.8633113503456116
1552618082.9898503,618002,0.8658448457717896
1552619883.4444373,621826,0.8632130026817322
1552621683.8973603,625647,0.8624585270881653
1552623484.1807685,629472,0.8633962869644165
1552625284.3361952,633297,0.8620880842208862
1552627084.5913277,637119,0.8634998202323914
1552628884.622901,640939,0.8623902201652527
1552630684.9122136,644768,0.8640051484107971
1552632485.0986307,648592,0.8629519939422607
1552634285.785935,652418,0.8633125424385071
1552636085.8747177,656239,0.8649386167526245
1552637886.434614,660068,0.8622585535049438
1552639686.6698902,663891,0.8644446730613708
1552641487.0501022,667709,0.8656371831893921
1552643287.0448828,671524,0.8639798760414124
1552645087.6328704,675343,0.8639089465141296
1552646887.3233275,679158,0.8641942739486694
1552648687.594403,682963,0.8628385663032532
1552650487.5184517,686787,0.8635135293006897
1552652288.174357,690605,0.8628966212272644
1552654088.304161,694429,0.8644567131996155
1552655889.6483257,698236,0.865687906742096
1552657689.5031905,702042,0.8635461926460266
1552659489.0350912,705857,0.8651764392852783
1552661289.2376988,709674,0.8631705045700073
1552663089.484215,713488,0.8629328012466431
1552664890.5687916,717309,0.8645201325416565
1552666690.761331,721116,0.8635165095329285
1552668491.0280235,724926,0.8625529408454895
1552670290.7311287,728744,0.8647058010101318
1552672090.8084352,732567,0.8651256561279297
1552673891.262811,736390,0.8647997975349426
1552675691.748671,740209,0.8659344911575317
1552677492.0312026,744031,0.8641406297683716
1552679292.032792,747852,0.8652741312980652
1552681092.4727142,751672,0.8668932914733887
1552682892.3647475,755490,0.8659406900405884
1552684692.8825424,759315,0.8642304539680481
1552686492.9283457,763138,0.8632439374923706
1552688293.1904638,766961,0.8659070730209351
1552690094.2081342,770784,0.8636696934700012
1552691893.618326,774604,0.8666659593582153
1552693693.6445959,778428,0.8641103506088257
1552695494.3776941,782254,0.8665332198143005
1552697294.5010178,786078,0.8663109540939331
1552699094.2604058,789903,0.866093635559082
1552700894.2229557,793734,0.8678892254829407
1552702694.725781,797563,0.8654868602752686
1552704495.2435212,801393,0.8646432757377625
1552706295.626205,805218,0.8661336302757263
1552708095.7836092,809043,0.8665400147438049
1552709896.1543272,812870,0.8632009625434875
1552711696.2148566,816697,0.8662208914756775
1552713496.4495654,820526,0.8657408952713013
1552715297.0854833,824351,0.8658468723297119
1552717097.3062887,828172,0.8662798404693604
1552718897.2908788,831979,0.8649901151657104
1552720697.893901,835801,0.8662177324295044
1552722497.977513,839623,0.866639256477356
1552724298.3424354,843447,0.8651842474937439
1552726098.5019803,847277,0.8678205013275146
1552727899.183005,851097,0.8642324805259705
1552729699.3383012,854925,0.8654958009719849
1552731499.3936734,858747,0.8659141659736633
1552733299.446708,862570,0.8654177188873291
1552735099.4861677,866389,0.865277886390686
1552736899.4849985,870213,0.866049587726593
1552738699.8366802,874029,0.8648055195808411
1552740500.6211822,877847,0.8648689985275269
1552742300.8524952,881666,0.8661238551139832
1552744101.136731,885488,0.8653754591941833
1552745901.6652822,889311,0.8635733723640442
1552747701.572271,893129,0.8667342066764832
1552749502.028046,896940,0.8654940724372864
1552751301.9242342,900762,0.866273045539856
1552753101.986288,904577,0.8653503656387329
1552754901.698316,908386,0.865044355392456
1552756702.4820573,912207,0.8644504547119141
1552758502.3478882,916026,0.8667948842048645
1552760303.2688212,919841,0.8658596873283386
1552762103.366524,923647,0.8655288815498352
1552763903.5514178,927453,0.8659897446632385
1552765703.197808,931261,0.8644082546234131
1552767503.5383537,935081,0.8670338988304138
1552769303.61768,938902,0.8656497001647949
1552771104.412533,942726,0.8649147748947144
1552772904.5376396,946552,0.8663220405578613
1552774705.252417,950373,0.8674023747444153
1552776505.8388295,954181,0.8680185079574585
1552778306.3500988,957987,0.8650873303413391
1552780106.6831796,961797,0.8651076555252075
1552781906.6840568,965606,0.86513352394104
1552783707.8608491,969414,0.8646071553230286
1552785507.6871393,973217,0.8666154742240906
1552787307.292737,977021,0.8652663826942444
1552789106.8245878,980833,0.8654764294624329
1552790906.8926451,984662,0.8656225800514221
1552792706.9419985,988488,0.8671286106109619
1552794507.1052327,992314,0.8647698760032654
1552796307.4064243,996144,0.8653906583786011
1552798107.4816144,999970,0.8667249083518982
1552799907.9864426,1003798,0.8670375347137451
1552801708.0190728,1007619,0.8644368052482605
1552803508.639628,1011447,0.8664544820785522
1552805308.3399966,1015273,0.8653830885887146
1552807108.6654148,1019100,0.8659172654151917
1552808908.716527,1022924,0.866582989692688
1552810709.0226245,1026742,0.8648267984390259
1552812509.0921848,1030569,0.8650258183479309
1552814309.3729494,1034396,0.8658763766288757
1552816109.5323167,1038211,0.8654016852378845
1552817909.9402459,1042022,0.8651126623153687
1552819710.0663671,1045844,0.866447389125824
1552821510.7808523,1049661,0.8667570352554321
1552823315.3366597,1053457,0.8661426305770874
1552825117.4495473,1057191,0.864547610282898
1552826916.0236428,1060891,0.8687049150466919
1552828716.8131397,1064594,0.8658358454704285
1552830516.656488,1068283,0.8670464158058167
1552832318.4585884,1071981,0.8640570044517517
1552834118.530884,1075676,0.8660787343978882
1552835918.484024,1079377,0.8664985299110413
1552837719.4534314,1083075,0.8661519289016724
1552839519.263798,1086781,0.8663772344589233
1552841319.7490804,1090479,0.8646591305732727
1552843119.412085,1094177,0.8666887283325195
1552844920.0803602,1097880,0.8667359948158264
1552846721.1268365,1101572,0.8656646013259888
1552848520.549192,1105265,0.8666476011276245
1552850321.1002967,1108956,0.866659939289093
1552852120.6958883,1112652,0.8660479187965393
1552853920.8899038,1116352,0.8676247000694275
1552855721.5955722,1120054,0.8649842143058777
1552857521.4972882,1123763,0.8668886423110962
1552859322.164536,1127473,0.8653790950775146
1552861122.3112264,1131168,0.8656798601150513
1552862922.4103665,1134860,0.8659378886222839
1552864717.902173,1138598,0.8662592768669128
1552866517.4382792,1142412,0.8596444725990295
1552868317.7772522,1146234,0.8590225577354431
1552870118.0292945,1150058,0.8672112226486206
1552871918.4586458,1153876,0.8644939064979553
1552873718.7743273,1157701,0.8647726774215698
1552875519.3883786,1161531,0.8662035465240479
1552877319.3680162,1165357,0.8675289154052734
1552879119.9707856,1169189,0.865577757358551
1552880920.278147,1173014,0.8653078675270081
1552882720.6842139,1176840,0.8651850819587708
1552884521.1573424,1180667,0.8665343523025513
1552886321.3585136,1184492,0.8662449717521667
1552888121.4831328,1188315,0.8679642081260681
1552889921.2589433,1192134,0.866707980632782
1552891721.7093287,1195954,0.8668798208236694
1552893521.7422388,1199772,0.8649036288261414
1552895322.093913,1203590,0.8668299913406372
1552897125.6170053,1207372,0.8661973476409912
1552904892.070475,1211842,0.8664706945419312
1552926509.8389065,1215558,0.8664619326591492
1552948133.5164683,1219268,0.8678234219551086
1552969750.7444422,1223017,0.8671872615814209
1552991388.7003691,1226748,0.8660971522331238
1553013011.6805873,1230421,0.8652573823928833
1553034617.406864,1234115,0.8662838339805603
1553056241.5693161,1237865,0.8681394457817078
1553077864.7741199,1241620,0.866307258605957
1553099490.5896573,1245363,0.8666436672210693
1553121113.3355756,1249109,0.8590239882469177
1553142727.4175966,1252845,0.8664665222167969
1553164359.6457782,1256612,0.8642946481704712
1553185994.2085373,1260336,0.8658222556114197
1553207613.1047554,1264041,0.8676450848579407
1553229232.2157068,1267774,0.8674073815345764
1553250883.135734,1271523,0.8683614730834961
1553272500.7919655,1275246,0.8655952215194702
1553294109.3066404,1278970,0.8656648397445679
1553315735.2882667,1282749,0.8645111322402954
1553337363.728012,1286485,0.8654230833053589
1553358986.2160583,1290203,0.8664847612380981
1553380607.28374,1293907,0.8659734725952148
1553402223.5094998,1297677,0.8626635670661926
1553423863.2580266,1301416,0.8597301244735718
1553445484.740712,1305127,0.8670104742050171
1553467112.3106015,1308821,0.8683978319168091
1553488727.930866,1312552,0.8662835359573364
1553510359.389636,1316299,0.8666074275970459
1553524524.7040315,1322079,0.8670488595962524
1553526325.0214674,1325918,0.8666566610336304
1553528125.1454167,1329760,0.8647679090499878
1553529925.3159158,1333599,0.865638792514801
1553531725.8436,1337441,0.8668623566627502
1553533526.0456867,1341281,0.8686995506286621
1553535326.3759992,1345122,0.866076648235321
1553537126.717862,1348956,0.8661233186721802
1553538926.5673957,1352797,0.8651193976402283
1553540726.6792,1356638,0.8659529089927673
1553542526.7104294,1360477,0.8618983030319214
1553544326.803047,1364319,0.8681440353393555
1553546127.0236423,1368165,0.867141842842102
1553547927.1059048,1372018,0.8656398057937622
1553549727.4401639,1375868,0.8653426766395569
1553551527.8955412,1379716,0.8654237389564514
1553553328.2201245,1383551,0.8642434477806091
1553555128.364157,1387386,0.8661822080612183
1553556928.457478,1391217,0.8661577105522156
1553558728.6469462,1395058,0.8673709630966187
1553560528.816465,1398898,0.8595777750015259
1553562329.301187,1402743,0.8663514256477356
1553564129.5091085,1406589,0.8671345710754395
1553565930.015506,1410434,0.8620460629463196
1553567730.2835064,1414282,0.8668148517608643
1553569530.459046,1418133,0.8646050095558167
1553571330.7275195,1421982,0.863608181476593
1553573131.0599015,1425831,0.8666789531707764
1553574931.663835,1429687,0.8592180013656616
1553576731.9166453,1433537,0.8670474886894226
1553578532.1719873,1437386,0.8659793138504028
1553580332.4126742,1441234,0.8664811849594116
1553582132.433077,1445091,0.8658868670463562
1553583932.4634185,1448941,0.866482138633728
1553585732.879635,1452797,0.8655586838722229
1553587533.0183334,1456643,0.8657220602035522
1553589333.171488,1460492,0.8649397492408752
1553591133.581777,1464346,0.8674100637435913
1553592933.8818693,1468198,0.8676829934120178
1553594733.8071847,1472054,0.867387592792511
1553596533.8753512,1475900,0.8682732582092285
1553598334.528699,1479751,0.8654738068580627
1553600134.4135742,1483596,0.8612442016601562
1553601934.301132,1487437,0.857572078704834
1553603735.1879177,1491282,0.8674614429473877
1553605535.000597,1495129,0.8664212822914124
1553607335.640218,1498975,0.8617870211601257
1553609135.5356083,1502818,0.8648842573165894
1553610935.1882086,1506669,0.8616217970848083
1553612736.0997846,1510516,0.865602433681488
1553614536.3431544,1514363,0.8645751476287842
1553616336.580996,1518206,0.86554354429245
1553618136.766798,1522049,0.8662447333335876
1553619936.6802175,1525890,0.8643640875816345
1553621736.7967749,1529729,0.8607748746871948
1553623537.2884011,1533564,0.8676202893257141
1553625337.4641294,1537402,0.8674486875534058
1553627137.9379435,1541234,0.8599926233291626
1553628937.7750356,1545068,0.8664568066596985
1553630738.0850601,1548913,0.8663017153739929
1553632537.847482,1552761,0.8659644722938538
1553634338.4173877,1556608,0.8672424554824829
1553636138.8535867,1560454,0.8693922758102417
1553637939.3452852,1564305,0.8607775568962097
1553639739.7642825,1568136,0.8665405511856079
1553641539.8251295,1571984,0.8660522699356079
1553643340.4161646,1575830,0.862487256526947
1553645140.4490442,1579678,0.8677321076393127
1553646940.4153605,1583525,0.8658826351165771
1553648740.8158007,1587375,0.8659921288490295
1553650540.882224,1591222,0.8656256198883057
1553652341.1259568,1595072,0.8652780055999756
1553654141.3677876,1598922,0.8602394461631775
1553655941.2950895,1602775,0.8674523830413818
1553657741.540055,1606628,0.8676927089691162
1553659541.586553,1610484,0.8676489591598511
1553661341.7848008,1614342,0.8621310591697693
1553663141.8075433,1618195,0.8601476550102234
1553664941.9863665,1622046,0.8617159724235535
1553666742.0750864,1625897,0.8640604615211487
1553668542.170893,1629744,0.8654466867446899
1553670342.5427096,1633596,0.865336537361145
1553672143.1558726,1637445,0.8659375905990601
1553673943.4905734,1641294,0.8647605776786804
1553675743.773059,1645139,0.8652409911155701
1553677544.1792116,1648987,0.8670747876167297
1553679344.1955616,1652833,0.8672998547554016
1553681144.2609658,1656679,0.865437924861908
1553682944.2312453,1660523,0.8663380146026611
1553684744.4089663,1664370,0.8628543019294739
1553686544.6364057,1668220,0.8658901453018188
1553688344.6831307,1672067,0.8665438890457153
1553690144.4224102,1675911,0.8670819401741028
1553691945.4435685,1679764,0.8688287734985352
1553693745.4735396,1683609,0.8654898405075073
1553695545.8709216,1687461,0.8659458160400391
1553697346.0820684,1691304,0.8659451007843018
1553699145.9963243,1695154,0.8658747673034668
1553700946.464308,1699001,0.8628823161125183
1553702746.977636,1702849,0.8652697801589966
1553704547.2386775,1706698,0.8648449778556824
1553706347.35621,1710546,0.8678127527236938
1553708147.9692457,1714391,0.8665028214454651
1553709948.0970674,1718225,0.8657462000846863
1553711748.2581093,1722055,0.858426570892334
1553713548.6963146,1725887,0.8654156923294067
1553715348.6973407,1729727,0.8667726516723633
1553717148.893872,1733568,0.8662064671516418
1553718948.8612938,1737412,0.865541934967041
1553720749.127835,1741254,0.866947591304779
1553722549.5382743,1745098,0.8663192987442017
1553724349.5224762,1748938,0.8647392988204956
1553726149.7184534,1752778,0.8652560114860535
1553727949.9849398,1756623,0.8686920404434204
1553729750.2271447,1760467,0.8675065040588379
1553731550.8314168,1764315,0.8649450540542603
1553733351.0902982,1768161,0.8679457306861877
1553735151.4345005,1772004,0.8651067018508911
1553736951.4900262,1775850,0.8586475253105164
1553738751.914289,1779693,0.8677095770835876
1553740552.029569,1783535,0.8670279383659363
1553742352.2564142,1787386,0.8666930198669434
1553744152.348349,1791240,0.8669017553329468
1553745952.457472,1795088,0.8674523234367371
1553747752.8870986,1798942,0.8656525015830994
1553749552.9889212,1802792,0.8657614588737488
1553751352.8897858,1806641,0.866544783115387
1553753153.0707057,1810491,0.8669899106025696
1553754953.1140096,1814341,0.8664928078651428
1553756753.3578231,1818194,0.8650137782096863
1553758553.484329,1822049,0.8657083511352539
1553760353.543279,1825902,0.8650610446929932
1553762154.0509448,1829758,0.8669456243515015
1553763954.7735803,1833608,0.8655910491943359
1553765755.3915284,1837456,0.867584228515625
1553767555.5420535,1841296,0.8681623339653015
1553769355.6866276,1845137,0.865500807762146
1553771155.903966,1848986,0.8586057424545288
1553772956.4037826,1852834,0.8645317554473877
1553774756.8525352,1856681,0.8677746057510376
1553776557.151425,1860527,0.8663679361343384
1553778357.1548672,1864366,0.8664731383323669
1553780157.0126498,1868207,0.8671551942825317
1553781957.505339,1872051,0.8604292869567871
1553783758.2216308,1875894,0.8672376871109009
1553785558.5567803,1879736,0.8689965605735779
1553787358.8647933,1883576,0.8656030297279358
1553789159.014675,1887415,0.8640609383583069
1553790959.325591,1891256,0.8647905588150024
1553792759.3148577,1895094,0.8657639622688293
1553794559.4548457,1898936,0.8654822111129761
1553796359.9834335,1902776,0.8672907948493958
1553798159.8636672,1906605,0.8674195408821106
1553799960.0182157,1910432,0.8677845001220703
1553801759.6925678,1914273,0.8655106425285339
1553803560.216032,1918112,0.8678721189498901
1553805360.1788716,1921954,0.8672583699226379
1553807160.1841815,1925797,0.8658997416496277
1553808960.446287,1929637,0.8657283186912537
1553810760.5567691,1933474,0.8650835752487183
1553812560.7737956,1937316,0.8655956387519836
1553814361.209959,1941162,0.8641592264175415
1553816161.5433838,1945007,0.8691906929016113
1553817961.6141174,1948853,0.8646431565284729
1553819762.0651433,1952692,0.8646093010902405
1553821562.0905468,1956533,0.8654839992523193
1553823362.1210613,1960374,0.865372896194458
1553825162.456555,1964217,0.867480456829071
1553826962.8369303,1968062,0.8602393865585327
1553828762.964246,1971916,0.8680158853530884
1553830563.302995,1975764,0.8684220314025879
1553832363.8159916,1979610,0.8657277822494507
1553834164.1812298,1983456,0.8676952719688416
1553835964.4032133,1987303,0.8680310845375061
1553837764.6426952,1991149,0.8666281700134277
1553839564.8463817,1994996,0.8649659156799316
1553841365.3812475,1998843,0.866953432559967
1553843165.6386693,2002687,0.8666787147521973
1553844966.02927,2006531,0.866683304309845
1553846766.2193096,2010377,0.8629152774810791
1553847629.209847,2012160,0.8680110573768616
