Wall time,Step,Value
1554114388.2415197,1671,0.0
1554116187.885997,3300,0.062066689133644104
1554117988.3415587,4929,0.16912664473056793
1554119789.1933186,6560,0.13026966154575348
1554121589.9918997,8192,0.15198813378810883
1554123390.422984,9823,0.22927935421466827
1554125191.2925308,11455,0.27937620878219604
1554126992.2740064,13087,0.2815651595592499
1554128793.2319362,14720,0.28956225514411926
1554130593.7718382,16351,0.3327901363372803
1554132393.987155,17983,0.35287269949913025
1554134193.9686236,19615,0.38463324308395386
1554135994.2992043,21247,0.3588649034500122
1554137794.8780193,22879,0.396725058555603
1554139595.0714219,24510,0.440275639295578
1554141395.3330033,26141,0.4418078660964966
1554143195.3510056,27771,0.42110127210617065
1554144995.2877283,29404,0.5081072449684143
1554146795.4838152,31038,0.4760931730270386
1554148596.3471572,32673,0.5074548125267029
1554150397.140436,34308,0.5106779932975769
1554152197.2900999,35944,0.4488484263420105
1554153997.9866784,37581,0.4961932301521301
1554155799.1046271,39218,0.48139360547065735
1554157599.5380034,40853,0.5026700496673584
1554159399.561798,42483,0.4861249625682831
1554161199.998726,44118,0.4665733873844147
1554162999.9410734,45753,0.4766121804714203
1554164800.3433115,47390,0.5580220222473145
1554166601.1347618,49028,0.5731456875801086
1554168402.0324116,50666,0.4968547523021698
1554170202.570478,52303,0.5234373211860657
1554172002.6511745,53940,0.5737099647521973
1554173803.6995847,55578,0.5668172836303711
1554175604.5763566,57215,0.603139340877533
1554177405.3972344,58850,0.5470510125160217
1554179205.6018224,60487,0.5912948846817017
1554181005.6408095,62124,0.513521134853363
1554182806.6283557,63761,0.5333803296089172
1554184607.705471,65399,0.5684080123901367
1554186408.1057656,67035,0.6073892116546631
1554188208.7155764,68673,0.5411262512207031
1554190008.76016,70309,0.5984066128730774
1554190362.9253683,70595,0.5208876132965088
1554192234.8112135,72369,0.6169970035552979
1554194035.3530557,74101,0.5759506821632385
1554195836.4768765,75834,0.6257529258728027
1554197637.4715817,77566,0.6264260411262512
1554199438.0528104,79295,0.5565922260284424
1554201238.4711926,81024,0.6356943249702454
1554203039.1644678,82753,0.6171636581420898
1554204839.8588455,84482,0.631723940372467
1554206640.7037613,86210,0.5368012189865112
1554208441.3725934,87938,0.5800482630729675
1554210241.6566098,89669,0.5628537535667419
1554212042.7035646,91399,0.6434048414230347
1554213843.1871996,93129,0.6579573750495911
1554215643.435999,94858,0.5722708702087402
1554217444.2029576,96588,0.6210532188415527
1554219245.2560246,98318,0.6463398933410645
1554221045.5227704,100047,0.529261589050293
1554221905.0881848,100850,0.6136355996131897
