Wall time,Step,Value
1553595180.2935832,5261,0.038453761488199234
1553596980.1853087,10387,0.056458842009305954
1553598780.659746,15510,0.04708930104970932
1553600580.6574218,20633,0.04459815099835396
1553602380.9369578,25753,0.056173697113990784
1553604181.0876384,30874,0.04953902214765549
1553605981.1419737,35993,0.04827849566936493
1553607781.3756468,41109,0.046773575246334076
1553609581.3287518,46229,0.039142195135354996
1553611381.3942075,51350,0.04466841369867325
1553613181.6760259,56471,0.03871496394276619
1553614981.9083297,61593,0.034743841737508774
1553616781.9475079,66713,0.04038152098655701
1553618582.2098246,71833,0.028258761391043663
1553620382.2305863,76949,0.03922156244516373
1553622182.4265504,82068,0.026525022462010384
1553623982.7970586,87170,0.03288966417312622
1553625494.77207,91440,0.029496243223547935
1553627359.3644555,96908,0.026904534548521042
1553629159.3601096,102249,0.024446910247206688
1553630959.509994,107599,0.025039920583367348
1553632759.637664,112950,0.027905970811843872
1553634559.6720324,118304,0.024289578199386597
1553636360.0007381,123659,0.026111682876944542
1553638160.202227,129009,0.023121429607272148
1553639960.1279914,134352,0.01991182565689087
1553641760.4228964,139705,0.022288626059889793
1553643560.45767,145058,0.02161278948187828
1553645360.686421,150410,0.025354472920298576
1553647160.507069,155761,0.019342374056577682
1553648960.8502197,161117,0.020476119592785835
1553650761.090627,166471,0.022929834201931953
1553652561.3101041,171825,0.022203920409083366
1553654361.534177,177178,0.020334705710411072
1553656161.6866324,182530,0.0217607282102108
1553657961.794007,187884,0.01779410056769848
1553659762.0125527,193238,0.02112303487956524
1553661562.3899505,198592,0.020998971536755562
1553663362.480493,203945,0.02074621431529522
1553665162.7383144,209298,0.022269101813435555
1553666962.7705288,214650,0.020851094275712967
1553668762.739339,220004,0.020473401993513107
1553670563.0481389,225360,0.02214273065328598
1553672363.065229,230721,0.019159264862537384
1553674163.374061,236084,0.022237887606024742
1553675963.5159836,241446,0.02031850814819336
1553677763.6543086,246808,0.01867787539958954
1553679564.0497732,252169,0.022893698886036873
1553681364.138211,257530,0.023422114551067352
1553683164.416148,262891,0.02472003735601902
1553684964.5356054,268250,0.023247111588716507
1553686764.8606837,273605,0.022711176425218582
1553688564.9794905,278959,0.021463587880134583
1553690365.1973162,284313,0.02491791918873787
1553692165.1275845,289670,0.024267135187983513
1553693965.525347,295032,0.025576874613761902
1553695765.5956216,300393,0.019545607268810272
