Wall time,Step,Value
1552323678.7816355,3845,0.08260249346494675
1552325478.4181635,7545,0.3911365270614624
1552327279.0416448,11251,0.44635477662086487
1552329079.1223452,14952,0.589924156665802
1552330879.2261891,18661,0.6853488087654114
1552332679.8527393,22370,0.7365086078643799
1552334479.668673,26078,0.7529281377792358
1552336279.7054646,29786,0.7781069278717041
1552338080.0859728,33501,0.7949030995368958
1552339880.3863306,37212,0.7954425811767578
1552341680.6066515,40924,0.8084487318992615
1552343480.9270947,44629,0.8154500126838684
1552345281.3743603,48335,0.8180448412895203
1552347081.5259492,52050,0.8277409076690674
1552348882.2288759,55766,0.8290224075317383
1552350682.1099977,59478,0.8367975950241089
1552352482.1498654,63192,0.8348317742347717
1552354282.4450836,66915,0.8390503525733948
1552356083.0155044,70631,0.8415123820304871
1552357883.3933325,74348,0.8425520658493042
1552359683.3772066,78069,0.848859429359436
1552361483.7448921,81785,0.8467435836791992
1552363283.882224,85500,0.8489985466003418
1552365083.9484344,89215,0.8548832535743713
1552366884.3558636,92929,0.8557194471359253
1552368684.417831,96640,0.8569173216819763
1552370484.874458,100358,0.8574996590614319
1552372284.6969213,104070,0.8587747812271118
1552374084.7446597,107788,0.8620558381080627
1552375885.3543804,111504,0.8593101501464844
1552377685.3394723,115217,0.8603951334953308
1552379485.6669521,118930,0.860002338886261
1552381285.8179104,122647,0.8647609949111938
1552383086.1606,126365,0.8635097742080688
1552384886.5543087,130077,0.8649658560752869
1552386686.7395139,133792,0.864998459815979
1552388487.3672936,137504,0.869698703289032
1552390287.6178067,141217,0.8706272840499878
1552392087.6046517,144929,0.8715006709098816
1552393887.850633,148640,0.8711267709732056
1552395688.5465631,152340,0.8734071850776672
1552397488.939643,156042,0.873478353023529
1552399289.4885771,159736,0.8703633546829224
1552401089.1869173,163430,0.8702937960624695
1552402890.0458233,167131,0.8730543255805969
1552404690.2736123,170824,0.8749403953552246
1552406490.4062927,174521,0.8710534572601318
1552408290.3369858,178223,0.8713611364364624
1552410090.95044,181915,0.876244843006134
1552411890.885336,185611,0.872046709060669
1552413691.4521372,189300,0.8764870762825012
1552415492.0754695,192988,0.8626939654350281
1552417292.1135762,196667,0.8750917911529541
1552419092.3716006,200360,0.87554931640625
1552420892.1193159,204052,0.876178503036499
1552422692.5684745,207745,0.8781852722167969
1552424492.0106616,211454,0.8775686025619507
1552426292.1884654,215155,0.8770901560783386
1552428092.8116312,218865,0.876580536365509
1552429893.6271026,222569,0.8752621412277222
1552431693.2613854,226261,0.8770817518234253
1552433493.6849573,229963,0.8802724480628967
1552435293.7669988,233673,0.8648878335952759
1552437095.2014968,237357,0.8794708847999573
1552438896.3416662,241026,0.8822247982025146
1552440694.7001185,244728,0.8800837397575378
1552442494.7214584,248440,0.8774068355560303
1552444294.4252565,252158,0.8836252093315125
1552446095.0305402,255870,0.8812808394432068
1552447895.4929607,259582,0.8798720836639404
1552449695.533951,263290,0.8798997402191162
1552451496.1675274,267000,0.8710779547691345
1552453296.4314163,270712,0.8794237971305847
1552455096.4851565,274427,0.8828575611114502
1552456896.8719254,278142,0.8815400004386902
1552458697.5989962,281849,0.8846254944801331
1552460497.5350847,285561,0.8847141861915588
1552462298.3153617,289263,0.8805391788482666
1552464098.1225085,292964,0.8805161118507385
1552465898.695088,296665,0.8823825120925903
1552467698.746292,300369,0.8856715559959412
1552469498.5952144,304076,0.8830745816230774
1552471298.9854827,307781,0.8811529874801636
1552473099.3228056,311483,0.8835755586624146
1552474900.0743265,315186,0.8851374983787537
1552476700.157038,318893,0.8857405781745911
1552478499.7666016,322599,0.8813731074333191
1552480300.7236037,326296,0.8871027231216431
1552482100.7680318,329989,0.8852251768112183
1552483900.4273982,333688,0.8834876418113708
1552484749.6521566,335360,0.8831493854522705
1552486667.8803265,339309,0.8916612267494202
1552488468.1686132,343128,0.8913195133209229
1552490268.390976,346946,0.889480471611023
1552492068.4029558,350765,0.888081967830658
1552493868.7838945,354580,0.8930755853652954
1552495668.9346602,358391,0.8882063627243042
1552497468.9645672,362208,0.8929383754730225
1552499269.5531285,366023,0.8931000232696533
1552501070.0028064,369833,0.8926951289176941
1552502869.8040972,373644,0.8900319933891296
1552504670.3384154,377456,0.8894116282463074
1552506470.262225,381269,0.8947710394859314
1552508270.5884051,385086,0.8895225524902344
1552510070.5529275,388901,0.8946325778961182
1552511871.0498195,392720,0.891415536403656
1552513671.1508324,396536,0.8822073340415955
1552515471.790322,400349,0.8912538886070251
1552517271.7937415,404159,0.8932271599769592
1552519071.7123961,407974,0.8894190788269043
1552520871.9829144,411792,0.8936077952384949
1552522672.0422845,415609,0.8891626596450806
1552524472.0486329,419431,0.8929538726806641
1552526272.6441002,423249,0.8924376964569092
1552528072.6689303,427063,0.8916968703269958
1552529873.0912364,430884,0.8898025155067444
1552531673.024542,434704,0.8938682675361633
1552533473.714065,438514,0.8948561549186707
1552535273.9466643,442333,0.8782704472541809
1552537074.0833142,446150,0.8947864174842834
1552538873.861322,449974,0.893066942691803
1552540674.4337316,453795,0.8927547931671143
1552542474.6224573,457619,0.8843014240264893
1552544275.1924477,461436,0.891792893409729
1552546075.4187837,465260,0.8928126096725464
1552547876.06808,469075,0.891142725944519
1552549675.4850264,472883,0.8915541172027588
1552551476.4134407,476700,0.8937391042709351
1552553276.3876326,480513,0.892961323261261
1552555076.4913635,484325,0.8920027017593384
1552556877.2787666,488141,0.8960126638412476
1552558677.2318347,491962,0.8921419978141785
1552560478.2089753,495775,0.8899744153022766
1552562277.2187765,499579,0.881633460521698
1552564077.7940276,503396,0.8929574489593506
1552565878.5778565,507212,0.8835896849632263
1552567678.4000764,511026,0.8963454365730286
1552569478.9438488,514844,0.8952572345733643
1552571278.9351628,518657,0.8828542232513428
1552573079.3202553,522472,0.8926997184753418
1552574879.1492617,526289,0.8979742527008057
1552576679.5537496,530110,0.8804284334182739
1552578479.366104,533928,0.8934642672538757
1552580279.7891765,537742,0.8962498307228088
1552582079.6530433,541561,0.8831491470336914
1552583880.1079276,545377,0.8971869349479675
1552585680.2276504,549197,0.89724200963974
1552587480.3425715,553017,0.8929669260978699
1552589280.2961586,556842,0.8970993757247925
1552591081.108691,560662,0.8905904293060303
1552592880.9145284,564482,0.8837597966194153
1552594681.339273,568305,0.8937932848930359
1552596481.44988,572118,0.8840685486793518
1552598281.7214477,575944,0.8921129107475281
1552600081.5795245,579767,0.8922781944274902
1552601882.3573472,583588,0.8988791108131409
1552603682.0349498,587409,0.8829100728034973
1552605482.2852037,591236,0.8943612575531006
1552607281.995286,595056,0.8952788710594177
1552609082.2461612,598882,0.8800572156906128
1552610882.4507596,602704,0.8794414401054382
1552612682.771926,606522,0.8846117258071899
1552614483.0861256,610349,0.8883724212646484
1552616283.130011,614174,0.8938906788825989
1552618082.9898503,618002,0.8957890868186951
1552619883.4444373,621826,0.8827957510948181
1552621683.8973603,625647,0.889409601688385
1552623484.1807685,629472,0.8836197257041931
1552625284.3361952,633297,0.8870080709457397
1552627084.5913277,637119,0.8935196995735168
1552628884.622901,640939,0.8831391930580139
1552630684.9122136,644768,0.8837738633155823
1552632485.0986307,648592,0.8789775967597961
1552634285.785935,652418,0.8934885859489441
1552636085.8747177,656239,0.8830386996269226
1552637886.434614,660068,0.8742573261260986
1552639686.6698902,663891,0.8932943940162659
1552641487.0501022,667709,0.8946945071220398
1552643287.0448828,671524,0.8915939331054688
1552645087.6328704,675343,0.8818872570991516
1552646887.3233275,679158,0.8901287913322449
1552648687.594403,682963,0.8899825811386108
1552650487.5184517,686787,0.8863246440887451
1552652288.174357,690605,0.8796564340591431
1552654088.304161,694429,0.881513237953186
1552655889.6483257,698236,0.8880273699760437
1552657689.5031905,702042,0.8793577551841736
1552659489.0350912,705857,0.8906952738761902
1552661289.2376988,709674,0.8926895260810852
1552663089.484215,713488,0.8889586925506592
1552664890.5687916,717309,0.8804245591163635
1552666690.761331,721116,0.8770236968994141
1552668491.0280235,724926,0.8766043186187744
1552670290.7311287,728744,0.8786526918411255
1552672090.8084352,732567,0.8913856148719788
1552673891.262811,736390,0.8928946852684021
1552675691.748671,740209,0.8948260545730591
1552677492.0312026,744031,0.893008291721344
1552679292.032792,747852,0.884911835193634
1552681092.4727142,751672,0.8977449536323547
1552682892.3647475,755490,0.8918195962905884
1552684692.8825424,759315,0.8845259547233582
1552686492.9283457,763138,0.8790335059165955
1552688293.1904638,766961,0.8918552994728088
1552690094.2081342,770784,0.8807361125946045
1552691893.618326,774604,0.8912470936775208
1552693693.6445959,778428,0.8785698413848877
1552695494.3776941,782254,0.8816460967063904
1552697294.5010178,786078,0.8963220715522766
1552699094.2604058,789903,0.8922711610794067
1552700894.2229557,793734,0.8990992903709412
1552702694.725781,797563,0.8945063948631287
1552704495.2435212,801393,0.8894075155258179
1552706295.626205,805218,0.8939380049705505
1552708095.7836092,809043,0.895279049873352
1552709896.1543272,812870,0.8766384124755859
1552711696.2148566,816697,0.8920424580574036
1552713496.4495654,820526,0.8808065056800842
1552715297.0854833,824351,0.8826647400856018
1552717097.3062887,828172,0.8834397196769714
1552718897.2908788,831979,0.8899514079093933
1552720697.893901,835801,0.8938986659049988
1552722497.977513,839623,0.8945191502571106
1552724298.3424354,843447,0.8764421939849854
1552726098.5019803,847277,0.8952646255493164
1552727899.183005,851097,0.8902926445007324
1552729699.3383012,854925,0.8879761099815369
1552731499.3936734,858747,0.8938219547271729
1552733299.446708,862570,0.8911601901054382
1552735099.4861677,866389,0.8798665404319763
1552736899.4849985,870213,0.8954909443855286
1552738699.8366802,874029,0.8803892731666565
1552740500.6211822,877847,0.8766258358955383
1552742300.8524952,881666,0.8835980892181396
1552744101.136731,885488,0.8925361633300781
1552745901.6652822,889311,0.8751164674758911
1552747701.572271,893129,0.8980136513710022
1552749502.028046,896940,0.8766563534736633
1552751301.9242342,900762,0.8932530879974365
1552753101.986288,904577,0.8773931860923767
1552754901.698316,908386,0.8811373710632324
1552756702.4820573,912207,0.87798672914505
1552758502.3478882,916026,0.894769012928009
1552760303.2688212,919841,0.8846897482872009
1552762103.366524,923647,0.894172191619873
1552763903.5514178,927453,0.8904643654823303
1552765703.197808,931261,0.8859885334968567
1552767503.5383537,935081,0.8934797048568726
1552769303.61768,938902,0.8894593119621277
1552771104.412533,942726,0.8766983151435852
1552772904.5376396,946552,0.8909180760383606
1552774705.252417,950373,0.8946505188941956
1552776505.8388295,954181,0.8957598805427551
1552778306.3500988,957987,0.8770385384559631
1552780106.6831796,961797,0.8943440318107605
1552781906.6840568,965606,0.8914620876312256
1552783707.8608491,969414,0.8779165148735046
1552785507.6871393,973217,0.886614978313446
1552787307.292737,977021,0.878329873085022
1552789106.8245878,980833,0.8894756436347961
1552790906.8926451,984662,0.8926430344581604
1552792706.9419985,988488,0.8959572315216064
1552794507.1052327,992314,0.8792098760604858
1552796307.4064243,996144,0.8919005393981934
1552798107.4816144,999970,0.8905115723609924
1552799907.9864426,1003798,0.8965487480163574
1552801708.0190728,1007619,0.8769352436065674
1552803508.639628,1011447,0.8823952078819275
1552805308.3399966,1015273,0.8904717564582825
1552807108.6654148,1019100,0.8794430494308472
1552808908.716527,1022924,0.895604133605957
1552810709.0226245,1026742,0.8827109336853027
1552812509.0921848,1030569,0.8772618770599365
1552814309.3729494,1034396,0.8906490206718445
1552816109.5323167,1038211,0.8803000450134277
1552817909.9402459,1042022,0.8771002292633057
1552819710.0663671,1045844,0.8914980888366699
1552821510.7808523,1049661,0.8915320038795471
1552823315.3366597,1053457,0.8807584047317505
1552825117.4495473,1057191,0.8893237113952637
1552826916.0236428,1060891,0.8920506834983826
1552828716.8131397,1064594,0.8895852565765381
1552830516.656488,1068283,0.8931565284729004
1552832318.4585884,1071981,0.8766506314277649
1552834118.530884,1075676,0.8924588561058044
1552835918.484024,1079377,0.894378125667572
1552837719.4534314,1083075,0.8824491500854492
1552839519.263798,1086781,0.8811144828796387
1552841319.7490804,1090479,0.8765386343002319
1552843119.412085,1094177,0.8902314901351929
1552844920.0803602,1097880,0.8807162046432495
1552846721.1268365,1101572,0.881100594997406
1552848520.549192,1105265,0.8882363438606262
1552850321.1002967,1108956,0.8941165208816528
1552852120.6958883,1112652,0.8777095675468445
1552853920.8899038,1116352,0.8938679099082947
1552855721.5955722,1120054,0.8888100981712341
1552857521.4972882,1123763,0.8913188576698303
1552859322.164536,1127473,0.8792572617530823
1552861122.3112264,1131168,0.8875441551208496
1552862922.4103665,1134860,0.8777512311935425
1552864717.902173,1138598,0.8777378797531128
1552866517.4382792,1142412,0.8887403607368469
1552868317.7772522,1146234,0.8764592409133911
1552870118.0292945,1150058,0.8934531807899475
1552871918.4586458,1153876,0.8769606947898865
1552873718.7743273,1157701,0.8783458471298218
1552875519.3883786,1161531,0.8902925848960876
1552877319.3680162,1165357,0.8957257270812988
1552879119.9707856,1169189,0.8784311413764954
1552880920.278147,1173014,0.8899350166320801
1552882720.6842139,1176840,0.8795182704925537
1552884521.1573424,1180667,0.8876638412475586
1552886321.3585136,1184492,0.8777165412902832
1552888121.4831328,1188315,0.8807267546653748
1552889921.2589433,1192134,0.8911685347557068
1552891721.7093287,1195954,0.8892883062362671
1552893521.7422388,1199772,0.8903927206993103
1552895322.093913,1203590,0.8929745554924011
1552897125.6170053,1207372,0.8868946433067322
1552898927.2707248,1211096,0.8820070028305054
1552903090.6930742,1211533,0.8818727731704712
1552904892.070475,1211842,0.8916281461715698
1552906691.0498533,1212150,0.8881110548973083
1552908495.422548,1212461,0.880540132522583
1552910300.0585098,1212769,0.8938573002815247
1552912100.502647,1213078,0.8957312107086182
1552913900.0078225,1213386,0.8803076148033142
1552915700.1545637,1213696,0.8968932032585144
1552917501.7052717,1214007,0.8816185593605042
1552919301.8963027,1214318,0.8749759793281555
1552921104.3125143,1214630,0.878598153591156
1552922910.940078,1214943,0.8884232640266418
1552924711.4785793,1215250,0.8866114020347595
1552926509.8389065,1215558,0.8919768333435059
1552928316.346665,1215868,0.8796401619911194
1552930111.1996644,1216179,0.8880228400230408
1552931918.1958182,1216491,0.8768460750579834
1552933722.5596793,1216798,0.877845823764801
1552935526.0538201,1217105,0.8821597695350647
1552937321.7672951,1217415,0.8905907869338989
1552939120.500595,1217728,0.8888025879859924
1552940933.9342687,1218039,0.8869154453277588
1552942732.1321344,1218346,0.8883673548698425
1552944534.2548335,1218655,0.8768970966339111
1552946340.5259085,1218962,0.8904114365577698
1552948133.5164683,1219268,0.8939377069473267
1552949932.146101,1219580,0.8909558653831482
1552951736.926677,1219893,0.8788542747497559
1552953543.017484,1220202,0.8777709007263184
1552955338.2649724,1220512,0.8880483508110046
1552957138.8967617,1220824,0.8911676406860352
1552958935.0261652,1221138,0.8915504217147827
1552960737.9540715,1221453,0.8932448029518127
1552962541.015299,1221767,0.8750556707382202
1552964340.2176301,1222082,0.8771931529045105
1552966144.6741955,1222397,0.878424346446991
1552967948.4966087,1222707,0.8785682320594788
1552969750.7444422,1223017,0.890776515007019
1552971556.0731363,1223328,0.8782126903533936
1552973354.0229957,1223638,0.8794872164726257
1552975153.7961557,1223951,0.888515830039978
1552976957.2889209,1224265,0.8774242401123047
1552978757.7279768,1224581,0.8752275705337524
1552980560.874748,1224896,0.8873544335365295
1552982365.5675905,1225209,0.881727933883667
1552984171.3319192,1225519,0.8778141736984253
1552985974.7653897,1225828,0.8771634697914124
1552987782.6102388,1226136,0.8780815601348877
1552989586.650625,1226442,0.8899459838867188
1552991388.7003691,1226748,0.8898401856422424
1552993189.0212474,1227056,0.8758424520492554
1552994989.0665698,1227361,0.8918194770812988
1552996795.0315552,1227667,0.8760698437690735
1552998594.039009,1227971,0.876957356929779
1553000397.360199,1228277,0.8780236840248108
1553002197.110918,1228582,0.8899322152137756
1553003998.6816692,1228888,0.8895441293716431
1553005800.4428742,1229194,0.8911460041999817
1553007604.3698134,1229502,0.8892014026641846
1553009404.0906737,1229808,0.8743223547935486
1553011208.5289516,1230115,0.8807749152183533
1553013011.6805873,1230421,0.8790069222450256
1553014810.0331585,1230726,0.8797906637191772
1553016612.7976327,1231034,0.8759070634841919
1553018416.2916703,1231340,0.8767613172531128
1553020216.77715,1231644,0.8780609965324402
1553022022.0761878,1231950,0.8776589035987854
1553023821.0611286,1232253,0.8746926784515381
1553025612.7307494,1232561,0.8740777969360352
1553027409.2213483,1232871,0.8772672414779663
1553029216.529528,1233184,0.889825701713562
1553031017.7559693,1233495,0.8767879009246826
1553032819.7668319,1233806,0.8906617164611816
1553034617.406864,1234115,0.8769177198410034
1553036428.7310195,1234425,0.8862027525901794
1553038226.4948545,1234732,0.8869035840034485
1553040028.5119035,1235043,0.878320574760437
1553041831.1404252,1235355,0.8918009996414185
1553043633.2004654,1235669,0.8955161571502686
1553045434.8413262,1235982,0.8833686709403992
1553047234.3066306,1236295,0.8948355317115784
1553049034.249076,1236608,0.8799014091491699
1553050835.808356,1236923,0.8812565803527832
1553052638.9567387,1237237,0.8840118050575256
1553054440.7167873,1237552,0.8906042575836182
1553056241.5693161,1237865,0.8936779499053955
1553058045.5532408,1238180,0.881276547908783
1553059846.532899,1238494,0.8923300504684448
1553061646.8687882,1238808,0.8927395343780518
1553063452.4868248,1239122,0.8917503356933594
1553065253.481159,1239433,0.883388876914978
1553067053.964575,1239747,0.8819617033004761
1553068857.8092616,1240061,0.8899802565574646
1553070660.5981402,1240374,0.8785834908485413
1553072461.9516795,1240686,0.8784225583076477
1553074263.654783,1240999,0.8810424208641052
1553076064.7929852,1241308,0.8892942667007446
1553077864.7741199,1241620,0.8854313492774963
1553079669.4082947,1241930,0.8806741237640381
1553081470.758431,1242242,0.8811678886413574
1553083269.2705603,1242555,0.8859553933143616
1553085076.2745516,1242867,0.8789249062538147
1553086879.124188,1243180,0.8896977305412292
1553088682.19946,1243487,0.893134593963623
1553090480.9089584,1243796,0.8791961669921875
1553092279.9926598,1244108,0.8790449500083923
1553094079.8748019,1244422,0.8799514770507812
1553095888.1390634,1244737,0.8822767734527588
1553097686.132808,1245050,0.8860199451446533
1553099490.5896573,1245363,0.8817564845085144
1553101291.5949206,1245676,0.8800808787345886
1553103096.4000225,1245989,0.8791620135307312
1553104897.389395,1246300,0.8931778073310852
1553106699.0316136,1246612,0.8891059160232544
1553108502.8205533,1246925,0.8958672285079956
1553110302.426909,1247239,0.8953741192817688
1553112107.277644,1247550,0.8910383582115173
1553113909.5625114,1247861,0.886430561542511
1553115709.7536373,1248173,0.8929208517074585
1553117511.5448422,1248485,0.8917104601860046
1553119310.7749581,1248796,0.8803836107254028
1553121113.3355756,1249109,0.8774865865707397
1553122916.1211956,1249422,0.8923579454421997
1553124713.9907827,1249733,0.8784886002540588
1553126513.9262617,1250046,0.8862704038619995
1553128327.768757,1250353,0.874765157699585
1553130117.963919,1250660,0.8901318311691284
1553131922.979308,1250974,0.8920846581459045
1553133727.3547635,1251281,0.8917366862297058
1553135534.8517964,1251590,0.8757306337356567
1553137325.5844884,1251896,0.8803774118423462
1553139123.0268233,1252212,0.8793188333511353
1553140924.4975898,1252528,0.8914923071861267
1553142727.4175966,1252845,0.8908748030662537
1553144533.0751815,1253162,0.8758770823478699
1553146333.6047556,1253478,0.8905518054962158
1553148138.3203487,1253792,0.877166211605072
1553149941.9733973,1254105,0.8748646974563599
1553151742.0569975,1254419,0.8792537450790405
1553153544.464325,1254734,0.8882930874824524
1553155348.3550305,1255048,0.8954852819442749
1553157147.9590552,1255361,0.8929911851882935
1553158954.2298572,1255675,0.889680027961731
1553160752.7249627,1255987,0.8790111541748047
1553162556.6716955,1256300,0.8782666921615601
1553164359.6457782,1256612,0.8771703839302063
1553166163.6556618,1256925,0.8915320038795471
1553167966.2583487,1257237,0.8782737255096436
1553169767.8235152,1257549,0.8776236176490784
1553171570.3067389,1257860,0.8784842491149902
1553173371.7890892,1258167,0.8765071630477905
1553175173.7928104,1258475,0.887470543384552
1553176974.5697575,1258781,0.8886091709136963
1553178775.0501955,1259092,0.876545250415802
1553180577.1232443,1259403,0.8920764923095703
1553182379.703162,1259715,0.8920918703079224
1553184184.4588864,1260028,0.8777632713317871
1553185994.2085373,1260336,0.8771592378616333
1553187795.517678,1260637,0.8909818530082703
1553189598.3346255,1260936,0.8776077032089233
1553191396.6689703,1261239,0.8895581960678101
1553193195.6306002,1261547,0.8889003396034241
1553195001.4552593,1261859,0.8785497546195984
1553196805.6841247,1262170,0.8871607780456543
1553198606.7521172,1262481,0.8814702033996582
1553200408.2393477,1262792,0.8907216191291809
1553202209.40985,1263105,0.8950384855270386
1553204007.6096287,1263416,0.879239559173584
1553205812.2708728,1263729,0.8880451917648315
1553207613.1047554,1264041,0.8796700835227966
1553209416.509148,1264353,0.8927323818206787
1553211217.6515107,1264667,0.8908489346504211
1553213028.2727184,1264980,0.8886930346488953
1553214825.2579074,1265284,0.8759562373161316
1553216621.9927435,1265596,0.8909299373626709
1553218436.4221456,1265908,0.8759163618087769
1553220239.622824,1266214,0.8740339279174805
1553222037.092882,1266520,0.87642902135849
1553223827.8681817,1266829,0.8732932209968567
1553225632.9355862,1267145,0.8775357604026794
1553227433.458386,1267460,0.8771413564682007
1553229232.2157068,1267774,0.8913873434066772
1553231036.6583548,1268088,0.8782562613487244
1553232836.1922824,1268402,0.8917878866195679
1553234642.8971992,1268717,0.8906324505805969
1553236448.2619143,1269028,0.8796237707138062
1553238245.0327384,1269340,0.8988884091377258
1553240050.2872207,1269654,0.8819887042045593
1553241852.7428873,1269968,0.8805203437805176
1553243656.107634,1270277,0.880532443523407
1553245458.7126102,1270586,0.8806752562522888
1553247262.9369183,1270896,0.8794552683830261
1553249065.5182064,1271209,0.8807043433189392
1553250883.135734,1271523,0.8951685428619385
1553252681.111489,1271830,0.8904628157615662
1553254479.4715433,1272137,0.8801836371421814
1553256289.3781834,1272445,0.8763679265975952
1553258094.4662113,1272754,0.8964549899101257
1553259880.7600968,1273062,0.8941669464111328
1553261679.7578404,1273375,0.8845089673995972
1553263484.629624,1273690,0.8874619603157043
1553265285.8937006,1273998,0.8935270309448242
1553267086.8477182,1274307,0.8965415358543396
1553268885.8264937,1274620,0.8787921667098999
1553270689.397213,1274935,0.8952319025993347
1553272500.7919655,1275246,0.8794382214546204
1553274289.2258668,1275556,0.8837485313415527
1553276092.518745,1275869,0.882118821144104
1553277902.0688999,1276177,0.8897400498390198
1553279704.3887103,1276483,0.879729151725769
1553281497.107904,1276791,0.8898499608039856
1553283305.1255422,1277101,0.892871618270874
1553285105.95613,1277411,0.8896968364715576
1553286906.8430212,1277720,0.8894369602203369
1553288705.4716887,1278032,0.887491762638092
1553290507.1086934,1278346,0.8925801515579224
1553292310.1219184,1278658,0.8963539004325867
1553294109.3066404,1278970,0.8898600339889526
1553295916.993463,1279284,0.8767803907394409
1553297712.6886187,1279595,0.8920701146125793
1553299513.6588259,1279909,0.8782771825790405
1553301316.8256447,1280225,0.8936116695404053
1553303117.5749729,1280539,0.8787276148796082
1553304916.1914341,1280854,0.8952792882919312
1553306719.8647788,1281170,0.8819148540496826
1553308521.9344869,1281486,0.8769769668579102
1553310323.1859684,1281801,0.8916112780570984
1553312124.555833,1282117,0.87943035364151
1553313925.7401226,1282432,0.8902015089988708
1553315735.2882667,1282749,0.887820303440094
1553317539.7249656,1283061,0.8743237257003784
1553319342.2018,1283373,0.8773990273475647
1553321147.0219183,1283686,0.878930389881134
1553322951.4244359,1283997,0.8760899305343628
1553324748.390029,1284308,0.8817914128303528
1553326550.2010887,1284621,0.8956993818283081
1553328352.2083445,1284932,0.891606867313385
1553330154.676633,1285244,0.8755506277084351
1553331959.8564358,1285557,0.8899145126342773
1553333765.4734485,1285868,0.8793886303901672
1553335565.5464294,1286176,0.8793410062789917
1553337363.728012,1286485,0.8774735331535339
1553339168.7676423,1286795,0.8775591850280762
1553340966.7394805,1287105,0.8914724588394165
1553342771.565718,1287416,0.8770747780799866
1553344575.498244,1287726,0.8868771195411682
1553346374.2044394,1288034,0.8934570550918579
1553348176.7485363,1288345,0.8747872710227966
1553349979.3829842,1288656,0.8901785016059875
1553351777.4092526,1288965,0.8888877630233765
1553353581.264895,1289276,0.8902120590209961
1553355384.295372,1289585,0.8770765662193298
1553357183.9453733,1289893,0.8777746558189392
1553358986.2160583,1290203,0.8808321356773376
1553360788.5067081,1290511,0.875882089138031
1553362588.9281902,1290820,0.8889390230178833
1553364400.1419222,1291127,0.8911662101745605
1553366199.2217662,1291433,0.8816768527030945
1553367998.580295,1291738,0.8908266425132751
1553369791.466797,1292047,0.8737244606018066
1553371593.259347,1292358,0.8792633414268494
1553373392.8911932,1292670,0.8909733295440674
1553375197.1323404,1292982,0.894768238067627
1553376999.9697084,1293293,0.875842273235321
1553378807.8996751,1293598,0.8895266056060791
1553380607.28374,1293907,0.878756582736969
1553382403.6027713,1294217,0.8774003982543945
1553384205.2824497,1294530,0.8907194137573242
1553386002.6065428,1294842,0.8913198113441467
1553387801.7538655,1295156,0.8796252012252808
1553389607.0486755,1295471,0.8828461766242981
1553391406.8321924,1295785,0.8937587738037109
1553393212.848574,1296100,0.8864915370941162
1553395012.7005322,1296415,0.8796799182891846
1553396814.6183085,1296730,0.8786715269088745
1553398616.9204586,1297045,0.8765552639961243
1553400418.798375,1297361,0.8799090385437012
1553402223.5094998,1297677,0.8971583247184753
1553404026.496083,1297990,0.8890791535377502
1553405829.6369598,1298304,0.8766015768051147
1553407632.9636445,1298617,0.8889644742012024
1553409435.081053,1298932,0.8885475993156433
1553411240.8298473,1299248,0.8860933780670166
1553413044.845474,1299563,0.8889228701591492
1553414844.3840506,1299875,0.8756422400474548
1553416648.5942743,1300188,0.8774763941764832
1553418459.2955651,1300498,0.8883509635925293
1553420262.1472583,1300805,0.8759005069732666
1553422064.974791,1301111,0.8810660243034363
1553423863.2580266,1301416,0.8910350203514099
1553425667.799686,1301722,0.877600371837616
1553427469.270818,1302030,0.8939355611801147
1553429273.735808,1302337,0.8966007828712463
1553431073.8945522,1302644,0.8918530941009521
1553432871.8338916,1302951,0.8954871892929077
1553434681.4270597,1303260,0.8793513774871826
1553436478.14262,1303565,0.8957712650299072
1553438279.1537735,1303875,0.8901191353797913
1553440074.1704888,1304186,0.8814125061035156
1553441884.521645,1304501,0.879859983921051
1553443680.1670177,1304813,0.8745694160461426
1553445484.740712,1305127,0.8820158243179321
1553447289.5240166,1305436,0.891806960105896
1553449089.7822065,1305746,0.8921614289283752
1553450895.326525,1306056,0.8828076720237732
1553452696.9965038,1306365,0.896030843257904
1553454499.2842965,1306674,0.8795948624610901
1553456302.2727416,1306982,0.890929102897644
1553458103.4532728,1307290,0.8927432894706726
1553459906.8724794,1307595,0.8804946541786194
1553461709.9681492,1307901,0.890687108039856
1553463512.7092698,1308209,0.8919153809547424
1553465309.4630575,1308514,0.8798287510871887
1553467112.3106015,1308821,0.8956242203712463
1553468912.9237387,1309129,0.8871110081672668
1553470715.715118,1309438,0.8888229727745056
1553472519.642922,1309747,0.8960958123207092
1553474318.7056286,1310054,0.8886650800704956
1553476119.823929,1310361,0.879342794418335
1553477922.0083756,1310670,0.8911863565444946
1553479725.366556,1310982,0.890475332736969
1553481528.8663197,1311293,0.8879889845848083
1553483322.0852158,1311606,0.8778074979782104
1553485123.3947945,1311922,0.8771526217460632
1553486923.4716318,1312236,0.8785315155982971
1553488727.930866,1312552,0.8918464183807373
1553490528.173322,1312866,0.8759967088699341
1553492330.9375048,1313180,0.8780685663223267
1553494131.6894174,1313495,0.8767513036727905
1553495932.806959,1313809,0.8903180360794067
1553497734.44992,1314125,0.8837155103683472
1553499536.4084802,1314440,0.8816608786582947
1553501341.4316697,1314755,0.8935428261756897
1553503137.564306,1315069,0.8774840831756592
1553504950.193075,1315382,0.8905618786811829
1553506755.4468973,1315690,0.8872226476669312
1553508560.96567,1315994,0.8916956186294556
1553510359.389636,1316299,0.8904451727867126
1553512157.5738306,1316607,0.887739896774292
1553513961.8021908,1316918,0.8772268295288086
1553515763.2919443,1317227,0.8770597577095032
1553517565.7357163,1317537,0.8923295140266418
1553519369.592374,1317846,0.8797227740287781
1553521178.2608058,1318156,0.8767514824867249
1553524524.7040315,1322079,0.8890107870101929
1553526325.0214674,1325918,0.8864205479621887
1553528125.1454167,1329760,0.889308512210846
1553529925.3159158,1333599,0.8790938258171082
1553531725.8436,1337441,0.8804286122322083
1553533526.0456867,1341281,0.8828681111335754
1553535326.3759992,1345122,0.8903332948684692
1553537126.717862,1348956,0.8794636726379395
1553538926.5673957,1352797,0.876682460308075
1553540726.6792,1356638,0.8770431876182556
1553542526.7104294,1360477,0.8839648365974426
1553544326.803047,1364319,0.8914914131164551
1553546127.0236423,1368165,0.8807455897331238
1553547927.1059048,1372018,0.8795428276062012
1553549727.4401639,1375868,0.8799911737442017
1553551527.8955412,1379716,0.8770601749420166
1553553328.2201245,1383551,0.8867945671081543
1553555128.364157,1387386,0.8929020762443542
1553556928.457478,1391217,0.8901271224021912
1553558728.6469462,1395058,0.8878421187400818
1553560528.816465,1398898,0.8867560625076294
1553562329.301187,1402743,0.8808882236480713
1553564129.5091085,1406589,0.8888314962387085
1553565930.015506,1410434,0.8916957378387451
1553567730.2835064,1414282,0.8892433047294617
1553569530.459046,1418133,0.8822672367095947
1553571330.7275195,1421982,0.8751413822174072
1553573131.0599015,1425831,0.8805598020553589
1553574931.663835,1429687,0.8886722326278687
1553576731.9166453,1433537,0.8936153650283813
1553578532.1719873,1437386,0.8769102692604065
1553580332.4126742,1441234,0.8923486471176147
1553582132.433077,1445091,0.8810681104660034
1553583932.4634185,1448941,0.8788193464279175
1553585732.879635,1452797,0.8771587610244751
1553587533.0183334,1456643,0.8759170770645142
1553589333.171488,1460492,0.8755047917366028
1553591133.581777,1464346,0.888003408908844
1553592933.8818693,1468198,0.89449542760849
1553594733.8071847,1472054,0.8855254650115967
1553596533.8753512,1475900,0.8896137475967407
1553598334.528699,1479751,0.8780194520950317
1553600134.4135742,1483596,0.8905841112136841
1553601934.301132,1487437,0.8746985793113708
1553603735.1879177,1491282,0.8793186545372009
1553605535.000597,1495129,0.8796118497848511
1553607335.640218,1498975,0.8786817789077759
1553609135.5356083,1502818,0.8769508600234985
1553610935.1882086,1506669,0.8775120377540588
1553612736.0997846,1510516,0.8776097893714905
1553614536.3431544,1514363,0.8774239420890808
1553616336.580996,1518206,0.8759994506835938
1553618136.766798,1522049,0.886759340763092
1553619936.6802175,1525890,0.8869556784629822
1553621736.7967749,1529729,0.8892941474914551
1553623537.2884011,1533564,0.891730010509491
1553625337.4641294,1537402,0.881409764289856
1553627137.9379435,1541234,0.876217782497406
1553628937.7750356,1545068,0.8778558969497681
1553630738.0850601,1548913,0.8757342100143433
1553632537.847482,1552761,0.8854429125785828
1553634338.4173877,1556608,0.8901009559631348
1553636138.8535867,1560454,0.8957390189170837
1553637939.3452852,1564305,0.8864217400550842
1553639739.7642825,1568136,0.8766497373580933
1553641539.8251295,1571984,0.8765153884887695
1553643340.4161646,1575830,0.8916453719139099
1553645140.4490442,1579678,0.8873671293258667
1553646940.4153605,1583525,0.8892412781715393
1553648740.8158007,1587375,0.8784083127975464
1553650540.882224,1591222,0.8794319033622742
1553652341.1259568,1595072,0.8878361582756042
1553654141.3677876,1598922,0.8769943714141846
1553655941.2950895,1602775,0.8913933634757996
1553657741.540055,1606628,0.8804813027381897
1553659541.586553,1610484,0.8930705785751343
1553661341.7848008,1614342,0.8916016817092896
1553663141.8075433,1618195,0.8921523690223694
1553664941.9863665,1622046,0.8784660696983337
1553666742.0750864,1625897,0.8734617233276367
1553668542.170893,1629744,0.8776274919509888
1553670342.5427096,1633596,0.8759957551956177
1553672143.1558726,1637445,0.8776634335517883
1553673943.4905734,1641294,0.8798841238021851
1553675743.773059,1645139,0.8792192339897156
1553677544.1792116,1648987,0.8916435837745667
1553679344.1955616,1652833,0.8750537037849426
1553681144.2609658,1656679,0.8767929673194885
1553682944.2312453,1660523,0.8909227848052979
1553684744.4089663,1664370,0.8752086758613586
1553686544.6364057,1668220,0.8825944066047668
1553688344.6831307,1672067,0.8791283965110779
1553690144.4224102,1675911,0.8888092041015625
1553691945.4435685,1679764,0.894209086894989
1553693745.4735396,1683609,0.8781778216362
1553695545.8709216,1687461,0.8756919503211975
1553697346.0820684,1691304,0.8765727281570435
1553699145.9963243,1695154,0.8877683877944946
1553700946.464308,1699001,0.8756282925605774
1553702746.977636,1702849,0.8776911497116089
1553704547.2386775,1706698,0.8758069276809692
1553706347.35621,1710546,0.8772911429405212
1553708147.9692457,1714391,0.8894903659820557
1553709948.0970674,1718225,0.8799951672554016
1553711748.2581093,1722055,0.8868603110313416
1553713548.6963146,1725887,0.8785775303840637
1553715348.6973407,1729727,0.8810298442840576
1553717148.893872,1733568,0.8802117109298706
1553718948.8612938,1737412,0.879190981388092
1553720749.127835,1741254,0.8773872256278992
1553722549.5382743,1745098,0.8919658064842224
1553724349.5224762,1748938,0.8763667941093445
1553726149.7184534,1752778,0.877018928527832
1553727949.9849398,1756623,0.8915383219718933
1553729750.2271447,1760467,0.8795121908187866
1553731550.8314168,1764315,0.8796562552452087
1553733351.0902982,1768161,0.8812518119812012
1553735151.4345005,1772004,0.8765947818756104
1553736951.4900262,1775850,0.8775583505630493
1553738751.914289,1779693,0.8816607594490051
1553740552.029569,1783535,0.8806999325752258
1553742352.2564142,1787386,0.8797171711921692
1553744152.348349,1791240,0.889194905757904
1553745952.457472,1795088,0.8911387920379639
1553747752.8870986,1798942,0.8788980841636658
1553749552.9889212,1802792,0.8769654631614685
1553751352.8897858,1806641,0.8802095651626587
1553753153.0707057,1810491,0.8914225697517395
1553754953.1140096,1814341,0.8794238567352295
1553756753.3578231,1818194,0.8774170279502869
1553758553.484329,1822049,0.8788101673126221
1553760353.543279,1825902,0.8762195110321045
1553762154.0509448,1829758,0.8880409598350525
1553763954.7735803,1833608,0.8893485069274902
1553765755.3915284,1837456,0.8764449954032898
1553767555.5420535,1841296,0.8919981122016907
1553769355.6866276,1845137,0.8876050710678101
1553771155.903966,1848986,0.8770560026168823
1553772956.4037826,1852834,0.8787407875061035
1553774756.8525352,1856681,0.8768333792686462
1553776557.151425,1860527,0.8749945163726807
1553778357.1548672,1864366,0.8892528414726257
1553780157.0126498,1868207,0.888487696647644
1553781957.505339,1872051,0.8905467987060547
1553783758.2216308,1875894,0.8901323080062866
1553785558.5567803,1879736,0.8843557834625244
1553787358.8647933,1883576,0.8914290070533752
1553789159.014675,1887415,0.8736364841461182
1553790959.325591,1891256,0.8751287460327148
1553792759.3148577,1895094,0.8851562738418579
1553794559.4548457,1898936,0.8868989944458008
1553796359.9834335,1902776,0.8913742899894714
1553798159.8636672,1906605,0.8813157081604004
1553799960.0182157,1910432,0.8774701952934265
1553801759.6925678,1914273,0.8865144848823547
1553803560.216032,1918112,0.8897655606269836
1553805360.1788716,1921954,0.893151581287384
1553807160.1841815,1925797,0.8873883485794067
1553808960.446287,1929637,0.8763531446456909
1553810760.5567691,1933474,0.8875726461410522
1553812560.7737956,1937316,0.8875668048858643
1553814361.209959,1941162,0.8862104415893555
1553816161.5433838,1945007,0.8774204850196838
1553817961.6141174,1948853,0.8775606155395508
1553819762.0651433,1952692,0.8749113082885742
1553821562.0905468,1956533,0.8761021494865417
1553823362.1210613,1960374,0.8873298168182373
1553825162.456555,1964217,0.8795104026794434
1553826962.8369303,1968062,0.8778193593025208
1553828762.964246,1971916,0.8924649357795715
1553830563.302995,1975764,0.8863142728805542
1553832363.8159916,1979610,0.8782957792282104
1553834164.1812298,1983456,0.877396821975708
1553835964.4032133,1987303,0.8894683122634888
1553837764.6426952,1991149,0.877021849155426
1553839564.8463817,1994996,0.8758084177970886
1553841365.3812475,1998843,0.890639066696167
1553843165.6386693,2002687,0.8908526301383972
1553844966.02927,2006531,0.8813319206237793
1553846766.2193096,2010377,0.8923513889312744
1553847629.209847,2012160,0.8918138146400452
