Wall time,Step,Value
1551712166.6554837,5289,0.21896517276763916
1551713966.8550253,10405,0.48037534952163696
1551715766.9851353,15525,0.7636427283287048
1551717566.702994,20644,0.8087247610092163
1551719366.8321073,25772,0.831278920173645
1551721167.1467838,30901,0.843470573425293
1551722967.761444,36014,0.8529218435287476
1551724767.8445883,41127,0.8628750443458557
1551726567.8109944,46238,0.8699888586997986
1551728367.9569302,51349,0.8775525093078613
1551730168.040325,56457,0.8829860687255859
1551731967.5752492,61576,0.8869762420654297
1551733767.7865033,66713,0.8894177079200745
1551735567.7514834,71850,0.8903038501739502
1551737368.1987216,76989,0.8951489329338074
1551739168.4621377,82108,0.8962985873222351
1551740968.376817,87235,0.8956537246704102
1551742768.4130058,92369,0.8986600041389465
1551744568.3045053,97511,0.9019121527671814
1551746368.42501,102662,0.9016615152359009
1551748168.3243673,107815,0.9056357145309448
1551749968.6203282,112967,0.9098948836326599
1551751768.6461945,118120,0.9098619818687439
1551753568.7148108,123274,0.9107650518417358
1551755368.961669,128425,0.9094234704971313
1551757169.2631392,133575,0.9138669967651367
1551758969.3951237,138727,0.9151620268821716
1551760769.6850035,143879,0.9144200682640076
1551762569.591518,149031,0.9148209095001221
1551764369.8900104,154181,0.9171192049980164
1551766170.2175236,159336,0.9164804816246033
1551767970.541025,164487,0.9177621006965637
1551769770.8595464,169626,0.9162294268608093
1551771571.212551,174765,0.9204049706459045
1551773374.304508,179895,0.9218756556510925
1551775174.2103088,184925,0.9202960133552551
1551776973.5921874,189988,0.9211673140525818
1551778773.64548,195054,0.9215677976608276
1551780574.4405866,200116,0.92586749792099
1551782374.916915,205175,0.9232890009880066
1551784175.3461988,210235,0.9219221472740173
1551785974.5732536,215284,0.9234975576400757
1551787775.1405003,220331,0.9249316453933716
1551789574.9998202,225383,0.9256253838539124
1551791374.8933785,230432,0.9265168309211731
1551793176.5771198,235476,0.923997700214386
1551794976.1174376,240529,0.9271482229232788
1551796776.5837824,245574,0.9289947152137756
1551798576.390243,250618,0.928141713142395
1551800376.441658,255665,0.9280881881713867
1551802176.1924953,260707,0.9290288090705872
1551803977.0896115,265754,0.9281007647514343
1551805777.188906,270797,0.928622305393219
1551807577.4953654,275839,0.9292697906494141
1551809243.4960248,280490,0.9317097067832947
1551811122.9016776,285877,0.9374774098396301
1551812923.5983257,291096,0.9349234700202942
1551814723.4376006,296320,0.9371800422668457
1551816523.0350666,301540,0.9358264803886414
1551818323.120892,306768,0.9358769655227661
1551820123.9974504,312013,0.9399381875991821
1551821922.794067,317255,0.9383606314659119
1551823723.8117888,322515,0.9420261979103088
1551825521.7719493,327770,0.9411284923553467
1551827322.8971474,333035,0.9394799470901489
1551829122.9430356,338324,0.9390696883201599
1551830922.8772445,343621,0.9401885271072388
1551832721.6210656,348916,0.9397109746932983
1551834522.348228,354234,0.9428684711456299
1551836322.2826374,359552,0.9413302540779114
1551838122.2191927,364864,0.9420023560523987
1551839923.6722295,370174,0.9407082200050354
1551841722.5323076,375479,0.9409238696098328
1551843524.0004206,380790,0.9411816596984863
1551845323.2691529,386086,0.9415702819824219
1551847125.0491858,391373,0.9417029619216919
1551848924.9755766,396634,0.9439300298690796
1551850725.5861278,401874,0.9414145946502686
1551852526.4222429,407104,0.9429231286048889
1551854326.2575097,412324,0.9428185224533081
1551856127.117505,417536,0.9445008039474487
1551857926.9561946,422751,0.9456596374511719
1551859727.9103236,427981,0.9431754946708679
1551861527.445745,433203,0.9438958764076233
1551863327.5152953,438413,0.9435125589370728
1551865127.9062405,443631,0.9458823800086975
1551866928.1702323,448845,0.9445745348930359
1551868727.9667773,454062,0.9468254446983337
1551870527.9732025,459294,0.9465177059173584
1551872328.5226736,464513,0.9471039772033691
1551874128.873062,469728,0.9450296759605408
1551875928.425432,474940,0.9471586346626282
1551877728.835816,480156,0.9463819265365601
1551879529.4356678,485381,0.944057047367096
1551881328.0117898,490621,0.9445672631263733
1551883129.3816745,495859,0.9449948072433472
1551884928.80752,501090,0.9456891417503357
1551886729.1564302,506315,0.9475046396255493
1551888529.552477,511552,0.9469429850578308
1551890329.0014238,516811,0.9478582143783569
1551892129.989315,522057,0.9482333064079285
1551893930.4981215,527282,0.9454246163368225
1551895730.1809335,532502,0.9459995627403259
1551897529.901828,537738,0.9465624094009399
1551899331.0911605,542986,0.9475128650665283
1551901130.2276297,548231,0.9477971196174622
1551902929.8842373,553480,0.9467955231666565
1551904730.5737605,558738,0.9484739303588867
1551906530.3059216,564004,0.9471312761306763
1551908330.47696,569262,0.9471085071563721
1551910131.0453548,574528,0.9478064775466919
1551911930.12749,579789,0.9479379653930664
1551913730.6859055,585069,0.9491451382637024
1551915530.4165795,590349,0.9479126334190369
1551917329.7357433,595644,0.9470705389976501
1551919131.0581973,600921,0.9490978717803955
1551920931.3122861,606194,0.9484024047851562
1551922730.495556,611475,0.9489927887916565
1551924531.5243495,616759,0.947935938835144
1551926333.1167762,622043,0.9484656453132629
1551928132.870579,627319,0.9513024091720581
1551929930.9826179,632591,0.9467418789863586
1551931732.1622186,637870,0.948345959186554
1551933531.8617046,643133,0.9481526613235474
1551935333.5934832,648404,0.9505968689918518
1551937134.081916,653673,0.9491926431655884
1551938933.637672,658917,0.9482815265655518
1551940733.3032243,664164,0.9489551186561584
1551942533.8663158,669400,0.9477625489234924
1551944333.8255873,674622,0.9493824243545532
1551946134.1299343,679839,0.9485310912132263
1551947935.7697723,685062,0.9515839219093323
1551949734.9015656,690280,0.9500035047531128
1551952726.4516678,695766,0.9482679963111877
1551954526.4406285,701094,0.9494444727897644
1551956326.6770456,706427,0.9481436014175415
1551958127.219347,711749,0.9494872689247131
1551959927.6130686,717065,0.9493131041526794
1551961727.6582177,722379,0.9492108225822449
1551963527.461935,727698,0.9498282074928284
1551965329.0299222,733014,0.9494322538375854
1551967127.9307191,738324,0.9496349692344666
1551968927.927233,743644,0.95075523853302
1551970727.8704283,748959,0.9493362903594971
1551972528.2101815,754288,0.9500539898872375
1551974328.1909082,759571,0.9495705366134644
1551976128.904981,764887,0.9498783946037292
1551977928.8982644,770198,0.950593888759613
1551979729.156614,775516,0.9513967633247375
1551981529.7560859,780831,0.949327290058136
1551983328.9125366,786156,0.9492098689079285
1551985128.9702234,791476,0.950040340423584
1551986929.291007,796795,0.9507783651351929
1551988729.4644408,802109,0.949968695640564
1551990530.139466,807426,0.9503909945487976
1551992329.9719129,812740,0.9529047012329102
1551994129.771736,818067,0.9513537287712097
1551995929.788964,823397,0.9495063424110413
1551997730.590422,828714,0.9522722959518433
1551999530.2919226,834040,0.9495459794998169
1552001330.0567381,839367,0.9498924612998962
1552003130.1545084,844698,0.9508563876152039
1552004930.7092876,850036,0.9490228295326233
1552006730.447519,855376,0.9507946968078613
1552008530.5848062,860717,0.951483964920044
1552010330.9408338,866058,0.9528811573982239
1552012130.7712986,871398,0.9514200687408447
1552013931.280374,876734,0.9495118260383606
1552015731.5258672,882074,0.9488677978515625
1552017531.6553066,887413,0.9513778686523438
1552019331.6570396,892746,0.9517159461975098
1552021131.2024913,898098,0.9496893286705017
1552022931.5917132,903456,0.9491443634033203
1552024731.5417318,908812,0.9503366351127625
1552026531.467261,914170,0.9512022137641907
1552028331.932028,919526,0.9512920379638672
1552030132.2914383,924881,0.9507226943969727
1552031932.3284025,930234,0.9519782662391663
1552033732.1410632,935593,0.9514559507369995
1552035532.6939394,940932,0.9505765438079834
1552037332.9746213,946283,0.9525805711746216
1552039133.3314419,951621,0.9511806964874268
1552040934.2707133,956949,0.9533243775367737
1552042734.2698166,962266,0.9514976143836975
1552044534.4086378,967578,0.9511752724647522
1552046334.470067,972901,0.9496230483055115
1552048134.9561322,978215,0.9527923464775085
1552049934.7581112,983530,0.9517398476600647
1552051734.9019828,988850,0.9521405100822449
1552053535.1313205,994175,0.9514184594154358
1552055335.985055,999495,0.9512308835983276
1552057135.765007,1004807,0.9512323141098022
1552058935.962156,1010121,0.9497885704040527
1552060736.0075083,1015441,0.952107846736908
1552062536.0514908,1020763,0.9521796703338623
1552064336.37694,1026074,0.9528884887695312
1552066136.3579943,1031387,0.9506880640983582
1552067936.8663669,1036716,0.9516955614089966
1552069736.7941146,1042029,0.9509877562522888
1552071537.0453308,1047355,0.9532690644264221
1552073337.5619652,1052667,0.9501802325248718
1552075137.8448596,1057986,0.9515436291694641
1552076937.6827555,1063314,0.9502640962600708
1552078737.826253,1068647,0.951549768447876
1552080538.186478,1073971,0.9530208110809326
1552082338.3172858,1079307,0.9511888027191162
1552084138.8316152,1084642,0.9521578550338745
1552085938.4920714,1089976,0.9519917964935303
1552087738.530215,1095303,0.9516730308532715
1552089538.5014608,1100636,0.9531431794166565
1552091339.1028214,1105967,0.9523478150367737
1552093139.0765734,1111300,0.952506959438324
1552094939.6432984,1116633,0.9521925449371338
1552096739.280591,1121962,0.9520041942596436
1552098539.5193422,1127296,0.9521462321281433
1552100339.4816566,1132634,0.9514192938804626
1552102140.1046653,1137977,0.9505595564842224
1552103940.069577,1143315,0.9514472484588623
1552105740.3485408,1148654,0.9517970085144043
1552107540.4952366,1153990,0.9507618546485901
1552109340.9429178,1159329,0.9511080384254456
1552111140.8130028,1164664,0.9510830044746399
1552112941.1942132,1170001,0.9527435302734375
1552114741.1788368,1175331,0.9539923667907715
1552116541.2465844,1180662,0.9513072371482849
1552118341.4731362,1185993,0.9515216946601868
1552120141.7473698,1191326,0.9536083936691284
1552121941.6218915,1196661,0.9532201290130615
1552123741.8605196,1201994,0.9525420069694519
1552123830.5710309,1202100,0.9517468810081482
1552948779.037809,1207008,0.938222348690033
1552950648.925412,1212521,0.9508950114250183
1552952449.0972269,1217895,0.9510055184364319
1552954249.0805862,1223268,0.951998770236969
1552956049.4293928,1228643,0.9490074515342712
1552957849.6428099,1234018,0.9506745338439941
1552959649.6922548,1239391,0.9511240124702454
1552961449.8543072,1244767,0.9501485228538513
1552963250.0529332,1250143,0.9500762224197388
1552965050.2837975,1255515,0.9491910338401794
1552966850.1486807,1260885,0.9478680491447449
1552968650.5500207,1266252,0.947941780090332
1552970450.9157934,1271620,0.9497228264808655
1552972250.948929,1276987,0.9485101699829102
1552974050.9369264,1282355,0.948993980884552
1552975851.118985,1287724,0.9497206211090088
1552977651.3438373,1293095,0.9492697715759277
1552979451.5380697,1298467,0.947761058807373
1552981251.8922508,1303837,0.947346568107605
1552983052.270627,1309206,0.9477239847183228
1552984852.5092747,1314570,0.9476121664047241
1552986652.7219656,1319930,0.9482677578926086
1552988453.0887475,1325288,0.9464249014854431
1552989692.8127942,1328928,0.9493837356567383
