Wall time,Step,Value
1551712166.6554837,5289,0.0023015656042844057
1551713966.8550253,10405,0.008626780472695827
1551715766.9851353,15525,0.05793394148349762
1551717566.702994,20644,0.09185022115707397
1551719366.8321073,25772,0.12658770382404327
1551721167.1467838,30901,0.16024544835090637
1551722967.761444,36014,0.18378561735153198
1551724767.8445883,41127,0.21175283193588257
1551726567.8109944,46238,0.23531627655029297
1551728367.9569302,51349,0.2467201203107834
1551730168.040325,56457,0.26282477378845215
1551731967.5752492,61576,0.2801012694835663
1551733767.7865033,66713,0.29641106724739075
1551735567.7514834,71850,0.3162878751754761
1551737368.1987216,76989,0.3274490535259247
1551739168.4621377,82108,0.3337024748325348
1551740968.376817,87235,0.35639873147010803
1551742768.4130058,92369,0.36129066348075867
1551744568.3045053,97511,0.3719443678855896
1551746368.42501,102662,0.37953051924705505
1551748168.3243673,107815,0.3895929157733917
1551749968.6203282,112967,0.40323853492736816
1551751768.6461945,118120,0.4115718603134155
1551753568.7148108,123274,0.41689789295196533
1551755368.961669,128425,0.4258248209953308
1551757169.2631392,133575,0.430305540561676
1551758969.3951237,138727,0.4408475458621979
1551760769.6850035,143879,0.4436302185058594
1551762569.591518,149031,0.45773160457611084
1551764369.8900104,154181,0.4581315815448761
1551766170.2175236,159336,0.45989713072776794
1551767970.541025,164487,0.4758610427379608
1551769770.8595464,169626,0.4702463746070862
1551771571.212551,174765,0.4794277846813202
1551773374.304508,179895,0.4815470278263092
1551775174.2103088,184925,0.49175265431404114
1551776973.5921874,189988,0.492549329996109
1551778773.64548,195054,0.5013045072555542
1551780574.4405866,200116,0.5001619458198547
1551782374.916915,205175,0.5112602710723877
1551784175.3461988,210235,0.5149105191230774
1551785974.5732536,215284,0.517625093460083
1551787775.1405003,220331,0.5191247463226318
1551789574.9998202,225383,0.5192064642906189
1551791374.8933785,230432,0.5197722315788269
1551793176.5771198,235476,0.5378831624984741
1551794976.1174376,240529,0.5344933271408081
1551796776.5837824,245574,0.5370022058486938
1551798576.390243,250618,0.5409122705459595
1551800376.441658,255665,0.5493481755256653
1551802176.1924953,260707,0.5473877787590027
1551803977.0896115,265754,0.551897406578064
1551805777.188906,270797,0.5532406568527222
1551807577.4953654,275839,0.5524651408195496
1551809243.4960248,280490,0.5573076009750366
1551811122.9016776,285877,0.6059777736663818
1551812923.5983257,291096,0.6150884032249451
1551814723.4376006,296320,0.6136756539344788
1551816523.0350666,301540,0.6190745234489441
1551818323.120892,306768,0.6165473461151123
1551820123.9974504,312013,0.6244453191757202
1551821922.794067,317255,0.633846640586853
1551823723.8117888,322515,0.6330574750900269
1551825521.7719493,327770,0.6364935636520386
1551827322.8971474,333035,0.6350114941596985
1551829122.9430356,338324,0.6353023648262024
1551830922.8772445,343621,0.6360820531845093
1551832721.6210656,348916,0.6359773278236389
1551834522.348228,354234,0.6455709934234619
1551836322.2826374,359552,0.6434047222137451
1551838122.2191927,364864,0.6471701264381409
1551839923.6722295,370174,0.6558723449707031
1551841722.5323076,375479,0.6535497307777405
1551843524.0004206,380790,0.647213876247406
1551845323.2691529,386086,0.6509257555007935
1551847125.0491858,391373,0.6571017503738403
1551848924.9755766,396634,0.6575512886047363
1551850725.5861278,401874,0.665280818939209
1551852526.4222429,407104,0.6638493537902832
1551854326.2575097,412324,0.6680871844291687
1551856127.117505,417536,0.6601428389549255
1551857926.9561946,422751,0.6642718315124512
1551859727.9103236,427981,0.6683858036994934
1551861527.445745,433203,0.6668158173561096
1551863327.5152953,438413,0.6716805696487427
1551865127.9062405,443631,0.6736215949058533
1551866928.1702323,448845,0.6728683710098267
1551868727.9667773,454062,0.6770638227462769
1551870527.9732025,459294,0.6830013990402222
1551872328.5226736,464513,0.6689910292625427
1551874128.873062,469728,0.6804133057594299
1551875928.425432,474940,0.675364077091217
1551877728.835816,480156,0.6765192747116089
1551879529.4356678,485381,0.6853521466255188
1551881328.0117898,490621,0.6828970313072205
1551883129.3816745,495859,0.6802613735198975
1551884928.80752,501090,0.6932945847511292
1551886729.1564302,506315,0.6845514178276062
1551888529.552477,511552,0.6829116940498352
1551890329.0014238,516811,0.6851718425750732
1551892129.989315,522057,0.6857204437255859
1551893930.4981215,527282,0.6816760897636414
1551895730.1809335,532502,0.699256181716919
1551897529.901828,537738,0.6934807896614075
1551899331.0911605,542986,0.6970291137695312
1551901130.2276297,548231,0.6947299242019653
1551902929.8842373,553480,0.698425829410553
1551904730.5737605,558738,0.7005094289779663
1551906530.3059216,564004,0.6867398619651794
1551908330.47696,569262,0.6972823143005371
1551910131.0453548,574528,0.703235387802124
1551911930.12749,579789,0.6956790685653687
1551913730.6859055,585069,0.6982712149620056
1551915530.4165795,590349,0.6990365386009216
1551917329.7357433,595644,0.7036576867103577
1551919131.0581973,600921,0.7057974934577942
1551920931.3122861,606194,0.7026302218437195
1551922730.495556,611475,0.7060715556144714
1551924531.5243495,616759,0.7064340710639954
1551926333.1167762,622043,0.7088350653648376
1551928132.870579,627319,0.711479127407074
1551929930.9826179,632591,0.7042760848999023
1551931732.1622186,637870,0.7078735828399658
1551933531.8617046,643133,0.7037863731384277
1551935333.5934832,648404,0.7035109400749207
1551937134.081916,653673,0.714306652545929
1551938933.637672,658917,0.7056257128715515
1551940733.3032243,664164,0.7171462178230286
1551942533.8663158,669400,0.7122093439102173
1551944333.8255873,674622,0.7057339549064636
1551946134.1299343,679839,0.7103418111801147
1551947935.7697723,685062,0.7182000875473022
1551949734.9015656,690280,0.7120780944824219
1551952726.4516678,695766,0.7096946239471436
1551954526.4406285,701094,0.7149187922477722
1551956326.6770456,706427,0.704464316368103
1551958127.219347,711749,0.7117234468460083
1551959927.6130686,717065,0.7165713310241699
1551961727.6582177,722379,0.7168839573860168
1551963527.461935,727698,0.7107251286506653
1551965329.0299222,733014,0.7170170545578003
1551967127.9307191,738324,0.7199690341949463
1551968927.927233,743644,0.7190828323364258
1551970727.8704283,748959,0.717920184135437
1551972528.2101815,754288,0.7187890410423279
1551974328.1909082,759571,0.7112310528755188
1551976128.904981,764887,0.7199206352233887
1551977928.8982644,770198,0.718817949295044
1551979729.156614,775516,0.7191081047058105
1551981529.7560859,780831,0.7150176763534546
1551983328.9125366,786156,0.7213314175605774
1551985128.9702234,791476,0.71611088514328
1551986929.291007,796795,0.7200741767883301
1551988729.4644408,802109,0.722679853439331
1551990530.139466,807426,0.7293485999107361
1551992329.9719129,812740,0.7213231325149536
1551994129.771736,818067,0.7218772768974304
1551995929.788964,823397,0.7269598245620728
1551997730.590422,828714,0.7243465185165405
1551999530.2919226,834040,0.721161961555481
1552001330.0567381,839367,0.7179312705993652
1552003130.1545084,844698,0.7287228107452393
1552004930.7092876,850036,0.7233325839042664
1552006730.447519,855376,0.7208749651908875
1552008530.5848062,860717,0.7236294746398926
1552010330.9408338,866058,0.7210315465927124
1552012130.7712986,871398,0.728725016117096
1552013931.280374,876734,0.7241814136505127
1552015731.5258672,882074,0.7236514687538147
1552017531.6553066,887413,0.7250157594680786
1552019331.6570396,892746,0.7322214245796204
1552021131.2024913,898098,0.7294963002204895
1552022931.5917132,903456,0.7277231216430664
1552024731.5417318,908812,0.7344160676002502
1552026531.467261,914170,0.7273428440093994
1552028331.932028,919526,0.7304699420928955
1552030132.2914383,924881,0.729623556137085
1552031932.3284025,930234,0.7323269248008728
1552033732.1410632,935593,0.7247116565704346
1552035532.6939394,940932,0.7306128740310669
1552037332.9746213,946283,0.7276833057403564
1552039133.3314419,951621,0.7302748560905457
1552040934.2707133,956949,0.730674147605896
1552042734.2698166,962266,0.7274302840232849
1552044534.4086378,967578,0.7289757132530212
1552046334.470067,972901,0.7317129373550415
1552048134.9561322,978215,0.7369441390037537
1552049934.7581112,983530,0.7238581776618958
1552051734.9019828,988850,0.7314330339431763
1552053535.1313205,994175,0.725308895111084
1552055335.985055,999495,0.7320162057876587
1552057135.765007,1004807,0.734764814376831
1552058935.962156,1010121,0.7319674491882324
1552060736.0075083,1015441,0.7317158579826355
1552062536.0514908,1020763,0.7367429137229919
1552064336.37694,1026074,0.7356570363044739
1552066136.3579943,1031387,0.7347882390022278
1552067936.8663669,1036716,0.7410772442817688
1552069736.7941146,1042029,0.7409591674804688
1552071537.0453308,1047355,0.7366117835044861
1552073337.5619652,1052667,0.729486346244812
1552075137.8448596,1057986,0.7294180393218994
1552076937.6827555,1063314,0.7373257279396057
1552078737.826253,1068647,0.731479287147522
1552080538.186478,1073971,0.7408326268196106
1552082338.3172858,1079307,0.7310447692871094
1552084138.8316152,1084642,0.732981264591217
1552085938.4920714,1089976,0.7349957227706909
1552087738.530215,1095303,0.7361474633216858
1552089538.5014608,1100636,0.7327264547348022
1552091339.1028214,1105967,0.7296810150146484
1552093139.0765734,1111300,0.7371728420257568
1552094939.6432984,1116633,0.7436012625694275
1552096739.280591,1121962,0.7374523878097534
1552098539.5193422,1127296,0.7373088002204895
1552100339.4816566,1132634,0.7379401326179504
1552102140.1046653,1137977,0.7357688546180725
1552103940.069577,1143315,0.7454575896263123
1552105740.3485408,1148654,0.734929621219635
1552107540.4952366,1153990,0.7380970120429993
1552109340.9429178,1159329,0.7383464574813843
1552111140.8130028,1164664,0.7414228320121765
1552112941.1942132,1170001,0.7433122396469116
1552114741.1788368,1175331,0.7358331680297852
1552116541.2465844,1180662,0.7339292168617249
1552118341.4731362,1185993,0.7392016053199768
1552120141.7473698,1191326,0.7397441267967224
1552121941.6218915,1196661,0.739345133304596
1552123741.8605196,1201994,0.7349553108215332
1552123830.5710309,1202100,0.7462517023086548
1553258949.673288,1207608,0.7404167652130127
1553260749.579238,1212984,0.7344697713851929
1553262549.820554,1218359,0.7376881241798401
1553264349.8985062,1223740,0.7346504330635071
1553266150.0094748,1229121,0.7360550761222839
1553267950.2062507,1234497,0.7429836988449097
1553269750.0964808,1239875,0.7463555932044983
1553271550.2219267,1245256,0.7366130352020264
1553273350.5110922,1250636,0.7402042746543884
1553275150.444849,1256014,0.7430011630058289
1553276950.619204,1261392,0.7366297245025635
1553278750.9347637,1266762,0.739637553691864
1553280550.9593625,1272131,0.7460960149765015
1553282351.1197755,1277509,0.7359825968742371
1553284151.3388047,1282883,0.7432836890220642
1553285951.4798198,1288254,0.7465345859527588
1553287751.4994884,1293619,0.7474380135536194
1553289551.6252363,1298986,0.7432126998901367
1553291351.6963983,1304360,0.7401007413864136
1553293151.9595802,1309734,0.7414655089378357
1553294952.1233318,1315113,0.7421543598175049
1553296752.528749,1320494,0.7446990013122559
1553298552.8045747,1325878,0.7387592196464539
1553300353.044253,1331264,0.7370882034301758
1553302153.2579796,1336649,0.7451359629631042
1553303953.4936788,1342034,0.7456337809562683
1553305753.6847494,1347415,0.7433354258537292
1553307553.6904178,1352797,0.7451026439666748
1553309353.923656,1358180,0.7384535670280457
1553310767.8946903,1362380,0.7373511791229248
