Wall time,Step,Value
1551712390.8760962,5698,0.0037226013373583555
1551714191.109601,11226,0.014466243796050549
1551715991.098644,16755,0.039467643946409225
1551717791.27517,22284,0.07952781766653061
1551719591.3784707,27814,0.12211447209119797
1551721391.707996,33343,0.15834245085716248
1551723191.8756363,38868,0.18712010979652405
1551724991.918033,44392,0.21189065277576447
1551726792.1907399,49918,0.24388712644577026
1551728592.397329,55447,0.2631838321685791
1551730392.46654,60975,0.2795228958129883
1551732192.4402764,66508,0.2950560748577118
1551733992.5757222,72046,0.30814215540885925
1551735792.644441,77583,0.32551291584968567
1551737592.8508894,83122,0.3429700434207916
1551739393.0721571,88656,0.34792155027389526
1551741193.2305748,94191,0.36797964572906494
1551742993.1571867,99726,0.36752375960350037
1551744793.206421,105262,0.38058868050575256
1551746593.4441917,110801,0.40025436878204346
1551748393.4206696,116340,0.40359780192375183
1551750193.5950289,121880,0.4138268232345581
1551751993.6787763,127419,0.4064982831478119
1551753793.8940763,132960,0.42136499285697937
1551755593.9499493,138500,0.43419691920280457
1551757394.2284558,144038,0.4382474720478058
1551759194.4500263,149578,0.44084542989730835
1551760994.6896002,155116,0.45529624819755554
1551762794.899688,160656,0.46306315064430237
1551764595.0767536,166194,0.4651031494140625
1551766395.3549254,171732,0.4665106534957886
1551768195.6092508,177271,0.47008514404296875
1551769995.8902218,182811,0.482700377702713
1551771795.9475257,188350,0.4849034547805786
1551773596.0545254,193889,0.4911857545375824
1551775396.1672962,199429,0.4989898204803467
1551777196.3169246,204970,0.5000451803207397
1551778996.611722,210511,0.5029586553573608
1551780796.9398644,216048,0.5113298892974854
1551782597.0056794,221582,0.5057089328765869
1551784397.0786006,227114,0.513102114200592
1551786197.2140806,232644,0.5196424126625061
1551787997.6133413,238174,0.5159172415733337
1551789797.6137564,243706,0.5243356227874756
1551791597.9928012,249237,0.531663179397583
1551793398.136432,254772,0.5293825268745422
1551795198.4845586,260308,0.5242854952812195
1551796998.603321,265840,0.5328164100646973
1551798798.7519455,271373,0.5438968539237976
1551800598.876482,276902,0.5430898070335388
1551801786.712254,280490,0.5387430191040039
1551803652.4308746,286405,0.5954608917236328
1551805452.6320841,292157,0.5985260605812073
1551807252.6480663,297913,0.6020588278770447
1551809052.9933975,303664,0.6054018139839172
1551810852.8784118,309410,0.6053076982498169
1551812652.9383829,315159,0.6141749620437622
1551814453.1664188,320908,0.6130476593971252
1551816253.3323917,326657,0.6174014210700989
1551818053.624663,332408,0.619391143321991
1551819853.82916,338161,0.6175791621208191
1551821653.9676356,343919,0.6217569708824158
1551823453.8854985,349677,0.6296765804290771
1551825254.253222,355440,0.6272090673446655
1551827054.5998697,361193,0.6248934864997864
1551828854.382417,366948,0.6326428651809692
1551830654.6926243,372708,0.6334871053695679
1551832454.917645,378472,0.6382249593734741
1551834255.0256507,384237,0.6348910331726074
1551836055.0799115,390003,0.635129451751709
1551837855.3621752,395769,0.6419963240623474
1551839655.4754133,401535,0.6355116367340088
1551841455.8347604,407300,0.6518584489822388
1551843255.667565,413064,0.644020676612854
1551845055.819793,418831,0.6529552340507507
1551846855.7274234,424597,0.6558870673179626
1551848656.1027343,430363,0.6486225724220276
1551850456.0148597,436128,0.6529714465141296
1551852256.338458,441895,0.6518169641494751
1551854056.6065528,447660,0.6640337705612183
1551855856.9236279,453426,0.6505152583122253
1551857657.1158183,459192,0.6540270447731018
1551859457.163178,464957,0.6555288434028625
1551861257.3165357,470723,0.664361834526062
1551863057.7508042,476488,0.6542277932167053
1551864857.3851235,482259,0.6599617004394531
1551866657.4753897,488031,0.6641806960105896
1551868457.632214,493804,0.6714164614677429
1551870257.9342625,499570,0.6602005362510681
1551872058.1258607,505333,0.6698595881462097
1551873858.3825996,511102,0.6669328808784485
1551875658.604031,516869,0.6677781939506531
1551877458.8889377,522631,0.6678182482719421
1551879259.012512,528384,0.6689848303794861
1551881059.4357421,534135,0.6743749380111694
1551882859.1916597,539889,0.6714930534362793
1551884659.3250678,545643,0.6747123003005981
1551886459.5439465,551396,0.6814483404159546
1551888259.5100088,557157,0.6725126504898071
1551890059.7000644,562916,0.6715211272239685
1551891859.8113792,568674,0.6759921312332153
1551893659.935666,574434,0.671509325504303
1551895460.1003175,580191,0.6822667121887207
1551897260.3004947,585950,0.6726340651512146
1551899060.3736684,591709,0.6840531826019287
1551900860.5772417,597470,0.6761314272880554
1551902660.7737696,603232,0.6840677857398987
1551904461.0228543,608994,0.6793162226676941
1551906261.180918,614755,0.6849833130836487
1551908061.3979752,620518,0.6832610368728638
1551909861.470499,626281,0.6813064217567444
1551911661.73718,632043,0.6867073774337769
1551913461.820233,637803,0.687870979309082
1551915261.8485322,643564,0.6879227161407471
1551917061.9865472,649325,0.6830230951309204
1551918862.5242496,655080,0.6934220194816589
1551920662.6171944,660836,0.6812853813171387
1551922462.881361,666593,0.691573441028595
1551924262.782205,672350,0.6950362920761108
1551926063.0480797,678106,0.6838003396987915
1551927863.3133647,683858,0.6908879280090332
1551929663.2964165,689611,0.6909624934196472
1551931463.4798315,695368,0.6923168897628784
1551933263.6239877,701125,0.6934592127799988
1551935063.763688,706884,0.6946993470191956
1551936863.859636,712642,0.6919845938682556
1551938664.140039,718396,0.6985462307929993
1551940464.0468068,724150,0.693359911441803
1551942264.3646755,729904,0.6937845349311829
1551944064.4964416,735656,0.6989986300468445
1551945864.6914372,741409,0.6997686624526978
1551947664.994634,747163,0.701180636882782
1551949465.1688004,752916,0.7019018530845642
1551952657.0921926,758839,0.6964685916900635
1551954456.823557,764606,0.6951507329940796
1551956257.2488446,770378,0.6902031898498535
1551958057.178107,776151,0.6929484009742737
1551959857.0851135,781923,0.6940075755119324
1551961657.264115,787693,0.6947866678237915
1551963457.517177,793465,0.6966939568519592
1551965257.9791918,799237,0.6972745656967163
1551967057.78776,805008,0.6982071399688721
1551968857.881207,810779,0.7079132795333862
1551970658.0430224,816549,0.6968377232551575
1551972458.3083477,822317,0.7011312246322632
1551974258.6299403,828083,0.7055883407592773
1551976058.9129844,833849,0.7061541676521301
1551977859.143448,839619,0.7044578194618225
1551979659.333909,845391,0.6995112895965576
1551981460.0631962,851155,0.7065141201019287
1551983260.1233637,856896,0.7001848816871643
1551985060.3993802,862640,0.7059003710746765
1551986860.8794494,868366,0.7104297280311584
1551988660.9298131,874078,0.7006150484085083
1551990460.850097,879810,0.7034681439399719
1551992261.0648184,885553,0.7069553136825562
1551994061.23445,891297,0.7100446820259094
1551995861.5880387,897042,0.7041595578193665
1551997662.1831944,902797,0.7121859788894653
1551999461.9977963,908555,0.7041335105895996
1552001261.73997,914312,0.7055917978286743
1552003062.2781339,920076,0.70816570520401
1552004862.257731,925837,0.7116376161575317
1552006662.5266602,931601,0.704403817653656
1552008462.6677964,937368,0.7046248316764832
1552010262.7013705,943132,0.7049116492271423
1552012063.010248,948898,0.7095531225204468
1552013863.193062,954663,0.7155420184135437
1552015663.4332452,960430,0.7090466618537903
1552017463.4312224,966196,0.709260106086731
1552019263.537911,971962,0.7071292400360107
1552021063.7567532,977728,0.7107170820236206
1552022863.894062,983493,0.7130991220474243
1552024664.0650253,989257,0.7047374844551086
1552026464.2825456,995016,0.714623212814331
1552028264.5257075,1000780,0.7128987312316895
1552030064.5024848,1006545,0.7133153676986694
1552031864.970572,1012310,0.7135604619979858
1552033665.16737,1018074,0.7151126861572266
1552035465.3529098,1023836,0.7135568261146545
1552037265.636486,1029601,0.709902822971344
1552039065.7686179,1035365,0.7071029543876648
1552040866.1556542,1041126,0.7175910472869873
1552042666.2633166,1046890,0.7145611047744751
1552044466.3386102,1052653,0.7152500152587891
1552046266.351269,1058417,0.7096492648124695
1552048066.6251826,1064181,0.7114840149879456
1552049866.8117013,1069948,0.719502866268158
1552051667.0066042,1075713,0.7210968136787415
1552053466.9492958,1081479,0.7166807651519775
1552055267.256736,1087247,0.716265857219696
1552057067.3581443,1093016,0.7130569219589233
1552058867.6444142,1098785,0.712763786315918
1552060668.0014365,1104556,0.7125818729400635
1552062467.851892,1110328,0.709949254989624
1552064268.054563,1116100,0.7200660109519958
1552066068.1224957,1121875,0.7222022414207458
1552067868.3286471,1127652,0.7195478677749634
1552069669.3014555,1133377,0.7243779301643372
1552071469.5113611,1139089,0.7172940969467163
1552073269.546683,1144803,0.7163637280464172
1552075069.8560562,1150517,0.7122563719749451
1552076869.7166505,1156245,0.7129859328269958
1552078669.6918066,1161980,0.712455689907074
1552080469.5128424,1167743,0.7157652974128723
1552082269.7925212,1173517,0.7236036658287048
1552084070.426743,1179291,0.7270652055740356
1552085870.2680717,1185037,0.7172855734825134
1552087670.690093,1190796,0.7206657528877258
1552089470.5557058,1196551,0.7203282713890076
1552091207.4441607,1202100,0.7178907990455627
1554124584.8191772,1207985,0.7208441495895386
1554126384.9383268,1213739,0.7167803645133972
1554128185.1659606,1219497,0.7210898399353027
1554129985.37171,1225253,0.7260882258415222
1554131785.4714937,1231007,0.7209378480911255
1554133585.728182,1236759,0.7185419201850891
1554135385.9671679,1242515,0.7219204306602478
1554137185.991911,1248273,0.7134376168251038
1554138986.6962178,1254006,0.7238483428955078
1554140786.8945727,1259738,0.7213220000267029
1554142586.9527304,1265456,0.7252787947654724
1554144387.3357575,1271184,0.7129771709442139
1554146186.2967985,1276923,0.7174081802368164
1554147986.3413095,1282686,0.7159206867218018
1554149786.440465,1288448,0.7209065556526184
1554151586.8361294,1294214,0.7264817953109741
1554153386.8779418,1299978,0.7272065877914429
1554155187.1666408,1305745,0.7220695614814758
1554156987.2702684,1311503,0.7256609797477722
1554158787.4698207,1317263,0.7231377363204956
1554160588.1556027,1323016,0.7255141735076904
1554162388.8219254,1328763,0.7233202457427979
1554164188.9919019,1334504,0.7278454303741455
1554165989.4055288,1340253,0.7201207280158997
1554167789.3528178,1346006,0.721930205821991
1554169589.6972663,1351754,0.7211019396781921
1554171389.7580721,1357493,0.7235247492790222
1554173189.4659286,1363237,0.7197731733322144
1554174989.9320755,1368983,0.7255015969276428
1554176790.184792,1374727,0.7241047620773315
1554178590.383406,1380466,0.726372241973877
1554180390.2620916,1386205,0.7184846997261047
1554182190.190199,1391944,0.7260603904724121
1554183990.223194,1397687,0.728652834892273
1554185790.9680617,1403432,0.7246265411376953
1554187590.8055189,1409177,0.7239904999732971
1554189390.9968498,1414918,0.7272371649742126
1554191191.2565053,1420660,0.7308751940727234
1554192991.4240282,1426396,0.7289811968803406
1554194791.9754124,1432134,0.7264177203178406
1554196592.0426123,1437879,0.7265675067901611
1554198392.8416588,1443616,0.7241277694702148
1554200192.7068048,1449351,0.7180582284927368
1554201992.519966,1455089,0.7267757058143616
1554203792.6027641,1460824,0.7294581532478333
1554205591.9232798,1466549,0.7188813090324402
1554207391.932827,1472302,0.7313519716262817
1554209192.1049728,1478063,0.7249634265899658
1554210992.6493838,1483814,0.722618818283081
1554212792.8149283,1489553,0.7291558980941772
1554214594.343456,1495309,0.7252767086029053
1554216393.4119496,1501042,0.7210763096809387
1554218193.5138674,1506778,0.7282169461250305
1554219993.4660249,1512526,0.7233113050460815
1554221793.7273273,1518286,0.7312411069869995
1554223593.9613957,1524048,0.7244822978973389
1554225394.0861535,1529802,0.7312718629837036
1554227194.2191048,1535555,0.7235979437828064
1554228994.3417468,1541318,0.7245839238166809
1554230794.791046,1547077,0.73393714427948
1554232594.8835695,1552829,0.7260021567344666
1554234395.0658746,1558576,0.722353994846344
1554236195.117932,1564324,0.7282612919807434
1554237995.325474,1570073,0.7287765741348267
1554239795.5977547,1575820,0.7370535731315613
1554241595.4029996,1581571,0.7329258322715759
1554243395.560903,1587334,0.7367311716079712
1554245195.652582,1593088,0.7304607033729553
1554246995.8891082,1598852,0.7263094186782837
1554248795.972053,1604618,0.7298691868782043
1554250596.1158895,1610383,0.726491391658783
1554252396.0571969,1616147,0.7266637086868286
1554254196.1121244,1621911,0.7348917126655579
1554255996.1724463,1627675,0.7319552898406982
1554257796.473657,1633442,0.729567289352417
1554259596.3728983,1639210,0.7226382493972778
1554261396.7108839,1644982,0.7387333512306213
1554263196.9150724,1650753,0.729155957698822
1554264997.2252042,1656526,0.7358136177062988
1554266797.4469235,1662299,0.7293468117713928
1554268597.7827702,1668070,0.7334167957305908
1554270397.9341793,1673834,0.730734646320343
1554272197.8884833,1679553,0.7320475578308105
1554273998.1367998,1685313,0.7337266206741333
1554275798.4186914,1691072,0.7264928817749023
1554277598.5767252,1696834,0.7327295541763306
1554279399.059448,1702579,0.7391858100891113
1554281199.3803892,1708308,0.7286153435707092
1554282999.5619757,1714036,0.7355148792266846
1554284799.6746306,1719758,0.7356991171836853
1554286599.8521826,1725486,0.7348616719245911
1554288399.9813516,1731208,0.7349903583526611
1554290200.1010005,1736930,0.7437664270401001
1554292000.024016,1742660,0.7318546772003174
1554293800.6223588,1748386,0.7364844083786011
1554295600.8883998,1754121,0.7298740148544312
1554297400.901835,1759837,0.7350534200668335
1554299201.2061372,1765567,0.7336098551750183
1554301001.3300061,1771298,0.7365815043449402
1554302801.5523415,1777031,0.7394403219223022
1554304601.7600944,1782766,0.7355359196662903
1554306401.787396,1788501,0.735588788986206
1554308202.3041055,1794240,0.736160397529602
1554310002.3779893,1799976,0.7283255457878113
1554311802.6195066,1805712,0.7340198755264282
1554313602.5303798,1811450,0.7415904998779297
1554315402.785491,1817202,0.7346119284629822
1554317202.88714,1822956,0.7316018342971802
1554319002.9700742,1828706,0.7386317253112793
1554320803.3697398,1834459,0.7376658916473389
1554322603.430904,1840197,0.7334548830986023
1554324403.55884,1845937,0.7379408478736877
1554326203.8658202,1851682,0.7407327890396118
1554328004.2315023,1857431,0.7346031069755554
1554329804.2077549,1863167,0.731457531452179
1554331604.3856976,1868923,0.7319138050079346
1554333404.461019,1874683,0.7322793006896973
1554335204.802572,1880442,0.72894287109375
1554337005.212038,1886205,0.7383811473846436
1554338805.4163833,1891965,0.7342630624771118
1554340605.464652,1897724,0.737044632434845
1554342405.7454953,1903484,0.7390139698982239
1554344205.9896417,1909244,0.7319673895835876
1554346006.118318,1915002,0.7334318161010742
1554347806.319488,1920761,0.7308120727539062
1554349606.5436356,1926515,0.7312816977500916
1554351406.773431,1932276,0.7364944815635681
1554353206.89555,1938036,0.7329742312431335
1554355006.9815385,1943793,0.7322587966918945
1554356807.1704988,1949554,0.7395489811897278
1554358607.3609884,1955312,0.7318390011787415
1554360407.4403698,1961067,0.7329928874969482
1554362207.744813,1966823,0.7390548586845398
1554364007.8287597,1972577,0.7347652912139893
1554365808.0102718,1978327,0.7395435571670532
1554367608.0572329,1984077,0.7337648272514343
1554369408.3528225,1989828,0.7367194890975952
1554371208.4581938,1995576,0.7375823855400085
1554373008.4798777,2001328,0.7397055625915527
1554374808.7733765,2007073,0.7388166785240173
1554376608.716084,2012810,0.7374863028526306
1554378408.9831047,2018551,0.7404179573059082
1554380209.1764736,2024303,0.7356504201889038
1554382009.1008453,2030057,0.7381566166877747
1554383809.6875103,2035779,0.736592173576355
1554385609.8459015,2041504,0.7338700294494629
1554387409.6979952,2047237,0.7387405633926392
1554389210.0085273,2052986,0.731626570224762
1554391009.971518,2058738,0.741553544998169
1554392810.2321413,2064492,0.7379207611083984
1554394610.6138318,2070242,0.7375332713127136
1554396410.7836046,2075987,0.7403246760368347
1554398210.9682415,2081743,0.7387905716896057
1554400010.8610835,2087502,0.7409613728523254
1554401811.0988123,2093261,0.7422922253608704
1554403611.2055807,2099019,0.7338236570358276
1554405411.46733,2104776,0.7384408116340637
1554407211.5073504,2110532,0.733406662940979
1554409011.46795,2116289,0.735953152179718
1554410811.6714325,2122049,0.7401632070541382
1554412611.3773031,2127803,0.7394688129425049
1554414411.4658816,2133564,0.7391312122344971
1554416212.3813298,2139330,0.7361285090446472
1554418011.9756274,2145084,0.7426977157592773
1554419812.2906077,2150838,0.7429554462432861
1554421612.4057543,2156588,0.7424666881561279
1554423412.6129382,2162340,0.7425782084465027
1554425212.6576872,2168090,0.7381811738014221
1554427012.9675121,2173841,0.7352308034896851
1554428813.0559194,2179594,0.7338916063308716
1554430613.229826,2185345,0.7415722608566284
1554432413.3029685,2191094,0.7419595718383789
1554434213.4534466,2196842,0.732418417930603
1554436013.695012,2202589,0.7362642288208008
1554437813.9068806,2208336,0.7367135882377625
1554439614.748423,2214081,0.7356308102607727
1554441414.5328932,2219812,0.741313099861145
1554443214.4331222,2225551,0.7472459673881531
1554445014.54521,2231301,0.7430291771888733
1554446814.429805,2237051,0.743618369102478
1554448614.7225766,2242803,0.7433279752731323
1554450415.1172829,2248549,0.7409177422523499
1554452215.1774676,2254299,0.7402406930923462
1554454015.1346083,2260045,0.7383870482444763
1554455815.2829494,2265797,0.7392939925193787
1554457615.4032817,2271549,0.7387927174568176
1554459415.5816293,2277312,0.741084098815918
1554461215.7010036,2283077,0.7378866076469421
1554463015.675011,2288846,0.7376278638839722
1554464815.9821174,2294618,0.7421744465827942
1554466616.2148046,2300389,0.7400007247924805
1554468416.4558234,2306157,0.7395089268684387
1554470216.476823,2311925,0.7417322993278503
1554472016.5860827,2317698,0.7398855686187744
1554473816.8124902,2323470,0.7367293834686279
1554475616.9202268,2329240,0.734229564666748
1554477417.297227,2335003,0.740692138671875
1554479217.4718761,2340769,0.7433017492294312
1554481017.452007,2346522,0.7454795241355896
1554482817.5887687,2352277,0.7421998977661133
1554484617.5776079,2358031,0.7375298738479614
1554486417.8801441,2363775,0.7379564642906189
1554488217.8795624,2369513,0.7404937148094177
1554490017.8382936,2375250,0.7424628734588623
1554491817.8725998,2381000,0.7380805015563965
1554493617.8757548,2386748,0.7347974181175232
1554495417.8759131,2392494,0.7429313659667969
1554497218.1055887,2398248,0.747155487537384
1554499018.008916,2404003,0.738494873046875
1554499122.901789,2404200,0.745108962059021
