Wall time,Step,Value
1551024137.5656486,2793,0.07930848002433777
1551025938.0388148,5414,0.1979006975889206
1551027738.1517022,8041,0.036286361515522
1551029538.408867,10672,0.16158141195774078
1551031338.1356547,13305,0.3175968825817108
1551033138.6090465,15941,0.4281945824623108
1551034938.5282583,18569,0.4647160470485687
1551036738.8341465,21197,0.5142084360122681
1551038539.4174483,23825,0.614416778087616
1551040339.4270427,26451,0.6463793516159058
1551042140.0311773,29079,0.6693330407142639
1551043940.3482046,31706,0.7004696130752563
1551045740.9482467,34333,0.7183365225791931
1551047541.5530403,36954,0.7309253215789795
1551049341.2564268,39577,0.738611102104187
1551051141.592911,42203,0.75308758020401
1551052942.0625947,44830,0.7594286203384399
1551054742.0747252,47456,0.7649809718132019
1551056542.7608366,50083,0.770974338054657
1551058342.7510073,52708,0.7817550301551819
1551060143.0394258,55333,0.781830906867981
1551061943.2687113,57958,0.782718300819397
1551063743.4846683,60584,0.7881778478622437
1551065543.8494031,63209,0.7959533929824829
1551067343.8235812,65834,0.795734703540802
1551069144.2695556,68460,0.8012444972991943
1551070944.6026437,71085,0.8042093515396118
1551072744.920428,73710,0.8070898652076721
1551074545.221628,76334,0.8104817867279053
1551076345.3096747,78957,0.8142354488372803
1551078145.3044872,81579,0.8143717050552368
1551079945.5788066,84201,0.8171230554580688
1551081745.5117836,86823,0.816225528717041
1551083546.1760507,89446,0.8209859132766724
1551085346.3974178,92067,0.8210292458534241
1551087146.634412,94689,0.8244413733482361
1551088946.798793,97310,0.8262593746185303
1551090747.02158,99932,0.8298546075820923
1551092547.3583252,102555,0.8297019004821777
1551094347.4722807,105177,0.8315858244895935
1551096147.7781427,107799,0.8340473175048828
1551097948.4605594,110421,0.8343864679336548
1551099748.9335763,113043,0.834720253944397
1551101548.9534159,115666,0.8385623097419739
1551103349.3895512,118290,0.8359652757644653
1551105149.8327541,120913,0.839324414730072
1551106949.7355456,123535,0.8397480845451355
1551108750.0273,126157,0.8414449095726013
1551110550.6521735,128781,0.8402392864227295
1551112350.3324423,131404,0.8430667519569397
1551114150.7555606,134029,0.8440626859664917
1551115950.9417477,136654,0.842805027961731
1551117751.0493937,139282,0.8465238809585571
1551119551.4486296,141912,0.8484522700309753
1551121351.7515035,144541,0.8450952172279358
1551123152.0145185,147172,0.8486136198043823
1551124951.8527951,149813,0.849168062210083
1551126752.5949557,152453,0.8523448705673218
1551128553.7225163,155088,0.8468039631843567
1551130353.3243756,157720,0.8507698774337769
1551132154.0690327,160354,0.8509830832481384
1551133954.6178439,162968,0.8528655767440796
1551135754.2632635,165584,0.8531247973442078
1551137555.2728038,168204,0.8546828627586365
1551139355.4318645,170821,0.8542779684066772
1551141155.7156603,173438,0.8540797829627991
1551142955.8965578,176055,0.8548535108566284
1551144756.3114107,178673,0.8566012382507324
1551146556.2844226,181291,0.8573759198188782
1551148356.6051524,183909,0.8592137098312378
1551150157.2117229,186527,0.8578039407730103
1551151957.9252439,189145,0.8586412668228149
1551153758.0088882,191762,0.8606172800064087
1551155558.4049895,194380,0.8603774905204773
1551157358.8105528,196998,0.8595423698425293
1551159159.3470087,199617,0.862959623336792
1551159744.276184,200350,0.862325131893158
1551161669.8082166,203211,0.8736262321472168
1551163469.9704375,205903,0.8734673261642456
1551165270.548803,208596,0.8744844794273376
1551167071.3601034,211288,0.8764262199401855
1551168871.0584953,213978,0.8764261603355408
1551170671.3538716,216669,0.8767142295837402
1551172471.8954837,219363,0.877370297908783
1551174272.4218757,222055,0.8776299357414246
1551176072.6035035,224745,0.8789946436882019
1551177873.3884726,227420,0.8810651302337646
1551179673.8250036,230096,0.8787087798118591
1551181473.571039,232774,0.8797459602355957
1551183274.1754048,235463,0.8805780410766602
1551185074.4765248,238152,0.8788763880729675
1551186874.5045266,240842,0.8808135986328125
1551188674.8507004,243531,0.883779764175415
1551190475.134298,246222,0.8822843432426453
1551192275.0823436,248901,0.8821312189102173
1551194074.8748324,251593,0.8837293982505798
1551195875.6358216,254289,0.8836663365364075
1551197675.5816169,256978,0.8851882815361023
1551199475.9293609,259668,0.8843727111816406
1551201276.44368,262358,0.8847557902336121
1551203077.2522268,265045,0.886810302734375
1551204877.5378208,267730,0.8841849565505981
1551206677.677276,270417,0.8874465227127075
1551208478.200756,273106,0.8862322568893433
1551210278.551991,275794,0.8864725232124329
1551212079.4241524,278482,0.8867054581642151
1551213879.6057677,281170,0.8870409727096558
1551215679.885356,283861,0.8891928791999817
1551217479.8115165,286551,0.8870064616203308
1551219279.9754221,289238,0.8873714208602905
1551221080.8143027,291926,0.8884689211845398
1551222881.3991878,294613,0.8882929086685181
1551224681.0307686,297290,0.890576183795929
1551226481.7099712,299971,0.8898740410804749
1551228282.2003672,302651,0.8901926875114441
1551230082.2814684,305331,0.8896507024765015
1551231882.3626714,308011,0.8911141157150269
1551233682.700227,310691,0.8907396793365479
1551235482.8745396,313372,0.8896570801734924
1551237283.2727904,316052,0.8894173502922058
1551239083.5841205,318732,0.8918414115905762
1551240345.3861957,320560,0.8918539881706238
