Wall time,Step,Value
1551712166.6554837,5289,0.0
1551713966.8550253,10405,0.0
1551715766.9851353,15525,0.0
1551717566.702994,20644,0.0
1551719366.8321073,25772,0.0
1551721167.1467838,30901,0.0
1551722967.761444,36014,0.0
1551724767.8445883,41127,0.0007024938822723925
1551726567.8109944,46238,0.0007861634949222207
1551728367.9569302,51349,0.0029131355695426464
1551730168.040325,56457,0.002612330252304673
1551731967.5752492,61576,0.006704980973154306
1551733767.7865033,66713,0.012231064029037952
1551735567.7514834,71850,0.01757405512034893
1551737368.1987216,76989,0.017556848004460335
1551739168.4621377,82108,0.01932670548558235
1551740968.376817,87235,0.03950681909918785
1551742768.4130058,92369,0.04106076434254646
1551744568.3045053,97511,0.043970346450805664
1551746368.42501,102662,0.052651114761829376
1551748168.3243673,107815,0.0654473602771759
1551749968.6203282,112967,0.0703691765666008
1551751768.6461945,118120,0.07981359213590622
1551753568.7148108,123274,0.08129428327083588
1551755368.961669,128425,0.10297337174415588
1551757169.2631392,133575,0.10968079417943954
1551758969.3951237,138727,0.11321639269590378
1551760769.6850035,143879,0.11310829222202301
1551762569.591518,149031,0.12573274970054626
1551764369.8900104,154181,0.13528287410736084
1551766170.2175236,159336,0.13715732097625732
1551767970.541025,164487,0.16155146062374115
1551769770.8595464,169626,0.15654073655605316
1551771571.212551,174765,0.1691998839378357
1551773374.304508,179895,0.16655845940113068
1551775174.2103088,184925,0.17549438774585724
1551776973.5921874,189988,0.1860569417476654
1551778773.64548,195054,0.19426646828651428
1551780574.4405866,200116,0.18250772356987
1551782374.916915,205175,0.1931614875793457
1551784175.3461988,210235,0.20796173810958862
1551785974.5732536,215284,0.2222781926393509
1551787775.1405003,220331,0.21144621074199677
1551789574.9998202,225383,0.21186597645282745
1551791374.8933785,230432,0.21398824453353882
1551793176.5771198,235476,0.24969172477722168
1551794976.1174376,240529,0.2379542589187622
1551796776.5837824,245574,0.2495201677083969
1551798576.390243,250618,0.25319746136665344
1551800376.441658,255665,0.27289754152297974
1551802176.1924953,260707,0.2637007534503937
1551803977.0896115,265754,0.2594507038593292
1551805777.188906,270797,0.269081175327301
1551807577.4953654,275839,0.2593510150909424
1551809243.4960248,280490,0.2720557153224945
1551811122.9016776,285877,0.33939212560653687
1551812923.5983257,291096,0.35511514544487
1551814723.4376006,296320,0.3684713542461395
1551816523.0350666,301540,0.3810398578643799
1551818323.120892,306768,0.3661783039569855
1551820123.9974504,312013,0.38579630851745605
1551821922.794067,317255,0.3933906853199005
1551823723.8117888,322515,0.3822174668312073
1551825521.7719493,327770,0.41021260619163513
1551827322.8971474,333035,0.3947177529335022
1551829122.9430356,338324,0.40033984184265137
1551830922.8772445,343621,0.39695581793785095
1551832721.6210656,348916,0.40658220648765564
1551834522.348228,354234,0.406455934047699
1551836322.2826374,359552,0.4034202992916107
1551838122.2191927,364864,0.4108829200267792
1551839923.6722295,370174,0.4350719451904297
1551841722.5323076,375479,0.42792510986328125
1551843524.0004206,380790,0.4181131422519684
1551845323.2691529,386086,0.4296545684337616
1551847125.0491858,391373,0.43245020508766174
1551848924.9755766,396634,0.434539258480072
1551850725.5861278,401874,0.4516221582889557
1551852526.4222429,407104,0.44358253479003906
1551854326.2575097,412324,0.45440009236335754
1551856127.117505,417536,0.436371386051178
1551857926.9561946,422751,0.447826087474823
1551859727.9103236,427981,0.4545378088951111
1551861527.445745,433203,0.4566814601421356
1551863327.5152953,438413,0.4546416997909546
1551865127.9062405,443631,0.4546550214290619
1551866928.1702323,448845,0.47085022926330566
1551868727.9667773,454062,0.4599992632865906
1551870527.9732025,459294,0.4739561378955841
1551872328.5226736,464513,0.4500376880168915
1551874128.873062,469728,0.48184704780578613
1551875928.425432,474940,0.4602523148059845
1551877728.835816,480156,0.46969643235206604
1551879529.4356678,485381,0.47650793194770813
1551881328.0117898,490621,0.49216821789741516
1551883129.3816745,495859,0.47854429483413696
1551884928.80752,501090,0.49990007281303406
1551886729.1564302,506315,0.4864906966686249
1551888529.552477,511552,0.4806942045688629
1551890329.0014238,516811,0.4893912374973297
1551892129.989315,522057,0.48028045892715454
1551893930.4981215,527282,0.4866328537464142
1551895730.1809335,532502,0.514496386051178
1551897529.901828,537738,0.4893776476383209
1551899331.0911605,542986,0.5106642246246338
1551901130.2276297,548231,0.4874366223812103
1551902929.8842373,553480,0.50923091173172
1551904730.5737605,558738,0.5115131139755249
1551906530.3059216,564004,0.4967200756072998
1551908330.47696,569262,0.5120641589164734
1551910131.0453548,574528,0.516839325428009
1551911930.12749,579789,0.502454936504364
1551913730.6859055,585069,0.5050193667411804
1551915530.4165795,590349,0.515544593334198
1551917329.7357433,595644,0.5257391929626465
1551919131.0581973,600921,0.514931321144104
1551920931.3122861,606194,0.5234522223472595
1551922730.495556,611475,0.5217186212539673
1551924531.5243495,616759,0.5181999206542969
1551926333.1167762,622043,0.5221386551856995
1551928132.870579,627319,0.532534658908844
1551929930.9826179,632591,0.5138581991195679
1551931732.1622186,637870,0.5185041427612305
1551933531.8617046,643133,0.5265885591506958
1551935333.5934832,648404,0.5225757956504822
1551937134.081916,653673,0.5449100136756897
1551938933.637672,658917,0.5261539816856384
1551940733.3032243,664164,0.5482079982757568
1551942533.8663158,669400,0.5281229615211487
1551944333.8255873,674622,0.5229492783546448
1551946134.1299343,679839,0.5322993397712708
1551947935.7697723,685062,0.5406389236450195
1551949734.9015656,690280,0.5480852127075195
1551952726.4516678,695766,0.5365636348724365
1551954526.4406285,701094,0.5479416847229004
1551956326.6770456,706427,0.5176761746406555
1551958127.219347,711749,0.5355796813964844
1551959927.6130686,717065,0.5472478270530701
1551961727.6582177,722379,0.5459387898445129
1551963527.461935,727698,0.5396472811698914
1551965329.0299222,733014,0.5580540895462036
1551967127.9307191,738324,0.546430230140686
1551968927.927233,743644,0.5374681949615479
1551970727.8704283,748959,0.5294872522354126
1551972528.2101815,754288,0.5455160737037659
1551974328.1909082,759571,0.538019597530365
1551976128.904981,764887,0.5508051514625549
1551977928.8982644,770198,0.5580334067344666
1551979729.156614,775516,0.5466153025627136
1551981529.7560859,780831,0.5411143898963928
1551983328.9125366,786156,0.5501371622085571
1551985128.9702234,791476,0.542506217956543
1551986929.291007,796795,0.5498276352882385
1551988729.4644408,802109,0.5520547032356262
1551990530.139466,807426,0.5590630173683167
1551992329.9719129,812740,0.5490871071815491
1551994129.771736,818067,0.5543081760406494
1551995929.788964,823397,0.5592959523200989
1551997730.590422,828714,0.5666480660438538
1551999530.2919226,834040,0.539789617061615
1552001330.0567381,839367,0.5490965843200684
1552003130.1545084,844698,0.564923882484436
1552004930.7092876,850036,0.5670665502548218
1552006730.447519,855376,0.5568240880966187
1552008530.5848062,860717,0.5648850202560425
1552010330.9408338,866058,0.5447494983673096
1552012130.7712986,871398,0.5672351717948914
1552013931.280374,876734,0.5581453442573547
1552015731.5258672,882074,0.5539780855178833
1552017531.6553066,887413,0.5673112869262695
1552019331.6570396,892746,0.574791669845581
1552021131.2024913,898098,0.5695465207099915
1552022931.5917132,903456,0.5634186863899231
1552024731.5417318,908812,0.5766019821166992
1552026531.467261,914170,0.575632631778717
1552028331.932028,919526,0.5644063353538513
1552030132.2914383,924881,0.5645272731781006
1552031932.3284025,930234,0.5764442086219788
1552033732.1410632,935593,0.5584496855735779
1552035532.6939394,940932,0.5759426951408386
1552037332.9746213,946283,0.5567493438720703
1552039133.3314419,951621,0.5704615116119385
1552040934.2707133,956949,0.5725244879722595
1552042734.2698166,962266,0.567396879196167
1552044534.4086378,967578,0.5679091811180115
1552046334.470067,972901,0.5795518755912781
1552048134.9561322,978215,0.5969537496566772
1552049934.7581112,983530,0.5592614412307739
1552051734.9019828,988850,0.5723263025283813
1552053535.1313205,994175,0.5598516464233398
1552055335.985055,999495,0.5710911154747009
1552057135.765007,1004807,0.5749057531356812
1552058935.962156,1010121,0.5732653737068176
1552060736.0075083,1015441,0.5911045074462891
1552062536.0514908,1020763,0.5904050469398499
1552064336.37694,1026074,0.5714706182479858
1552066136.3579943,1031387,0.5815711617469788
1552067936.8663669,1036716,0.597616970539093
1552069736.7941146,1042029,0.6090096235275269
1552071537.0453308,1047355,0.5971446633338928
1552073337.5619652,1052667,0.5641196966171265
1552075137.8448596,1057986,0.5633882880210876
1552076937.6827555,1063314,0.5764034986495972
1552078737.826253,1068647,0.5821306109428406
1552080538.186478,1073971,0.5982720851898193
1552082338.3172858,1079307,0.5698215961456299
1552084138.8316152,1084642,0.5693311095237732
1552085938.4920714,1089976,0.5772361159324646
1552087738.530215,1095303,0.5876671075820923
1552089538.5014608,1100636,0.5878627896308899
1552091339.1028214,1105967,0.5700425505638123
1552093139.0765734,1111300,0.582809567451477
1552094939.6432984,1116633,0.6090776324272156
1552096739.280591,1121962,0.5813289284706116
1552098539.5193422,1127296,0.5823379755020142
1552100339.4816566,1132634,0.5850022435188293
1552102140.1046653,1137977,0.578199028968811
1552103940.069577,1143315,0.5999320149421692
1552105740.3485408,1148654,0.5760971903800964
1552107540.4952366,1153990,0.5841482281684875
1552109340.9429178,1159329,0.5728398561477661
1552111140.8130028,1164664,0.5985767841339111
1552112941.1942132,1170001,0.5926039218902588
1552114741.1788368,1175331,0.5726732015609741
1552116541.2465844,1180662,0.5763565897941589
1552118341.4731362,1185993,0.5910769104957581
1552120141.7473698,1191326,0.5878562927246094
1552121941.6218915,1196661,0.5814944505691528
1552123741.8605196,1201994,0.569428026676178
1552123830.5710309,1202100,0.6134141087532043
1553366437.501487,1207586,0.6046404242515564
1553368237.5694578,1212935,0.5944547057151794
1553370037.6306434,1218300,0.5859653949737549
1553371838.042091,1223669,0.6147547960281372
1553373637.893759,1229028,0.5901044607162476
1553375437.9737563,1234392,0.5855925679206848
1553377238.5506692,1239735,0.5841464400291443
1553379038.3867648,1245080,0.5906800627708435
1553380838.7081702,1250445,0.6290571689605713
1553382638.8038454,1255815,0.6046342253684998
1553384438.76596,1261184,0.582949697971344
1553386239.0169039,1266554,0.5941854119300842
1553388039.3256156,1271925,0.6273795366287231
1553389839.2165215,1277292,0.6037376523017883
1553391639.4211226,1282658,0.6137093901634216
1553393439.5450747,1288027,0.5943952202796936
1553395239.7436013,1293395,0.6300239562988281
1553397039.905357,1298767,0.6027560234069824
1553398840.18913,1304136,0.6174546480178833
1553400640.4593642,1309504,0.6042537093162537
1553402440.7853181,1314863,0.6067154407501221
1553404240.5426924,1320213,0.6015979051589966
1553406040.9633918,1325582,0.6024870872497559
1553407841.3043673,1330948,0.5972347855567932
1553409641.6005805,1336311,0.6069670915603638
1553411441.7106044,1341672,0.5874664187431335
1553413242.1151972,1347028,0.6183838844299316
1553415042.1697462,1352379,0.6071261763572693
1553416842.4280322,1357728,0.6185017824172974
1553418414.5171726,1362380,0.6046521663665771
