Wall time,Step,Value
1554223798.5356934,948,0.5236803889274597
1554225599.0722766,1854,0.6501743197441101
1554227400.6499257,2761,0.6990986466407776
1554229202.4664514,3668,0.743050217628479
1554231002.6327903,4574,0.7904627323150635
1554232803.0682547,5480,0.8054046630859375
1554234604.8577464,6386,0.8216917514801025
1554236406.7041194,7292,0.8341635465621948
1554238207.115682,8198,0.8439280986785889
1554240008.11803,9104,0.8476738333702087
1554241808.8290458,10011,0.854905366897583
1554243609.6201959,10918,0.8582192063331604
1554245411.0818758,11825,0.858697235584259
1554247212.3731184,12732,0.8636478781700134
1554249013.3442924,13639,0.8658358454704285
1554250814.1460996,14546,0.8704642653465271
1554252614.7973068,15453,0.8678765892982483
1554254415.3428411,16360,0.8716380596160889
1554256215.776118,17267,0.8690272569656372
1554258016.4177337,18174,0.8726167678833008
1554259817.4971325,19081,0.875897228717804
1554261617.597991,19987,0.8726898431777954
1554263418.770876,20894,0.8716818690299988
1554265220.1638327,21801,0.8745244145393372
1554267020.3304582,22707,0.8797711730003357
1554268820.3757124,23613,0.8786467909812927
1554270620.956065,24519,0.877951443195343
1554272422.63874,25426,0.8763298392295837
1554274224.547488,26328,0.8779972791671753
1554276024.486217,27233,0.8773587346076965
1554277825.919594,28139,0.8780667781829834
1554279627.6017194,29045,0.8808332085609436
1554281429.01943,29951,0.8780744075775146
1554283230.5697486,30857,0.8788177967071533
1554285031.6928184,31763,0.8770957589149475
1554286832.7961144,32669,0.8767005205154419
1554288633.4035602,33574,0.877467155456543
1554290434.272174,34480,0.8774601817131042
1554292234.9493628,35387,0.878520131111145
1554294035.7101524,36294,0.8759118318557739
1554295837.4539874,37202,0.8784394264221191
1554297639.5808723,38110,0.8767994046211243
1554299441.2973173,39017,0.8791110515594482
1554301242.9313486,39924,0.8776286244392395
1554303044.1796057,40831,0.8785863518714905
1554304845.522173,41738,0.8794994950294495
1554306646.8557084,42645,0.8770207166671753
1554308448.7324908,43552,0.8759727478027344
1554310250.3665328,44459,0.8755854368209839
1554312051.7929177,45366,0.8759558200836182
1554313852.2163048,46272,0.8775763511657715
1554315653.3314183,47179,0.8763173818588257
1554317454.6035273,48086,0.8760813474655151
1554319256.2735047,48993,0.8748347163200378
1554321056.3394024,49899,0.874794065952301
1554322858.001129,50806,0.8784875273704529
1554324658.2252262,51712,0.8722743988037109
1554326458.4878168,52618,0.8749313950538635
1554328260.133227,53524,0.87749183177948
1554330061.3459606,54430,0.876444399356842
1554331862.1652515,55337,0.8728722929954529
1554333662.8354454,56244,0.8731744289398193
1554335463.5251613,57151,0.8741165995597839
1554337264.2928796,58058,0.8733085989952087
1554339065.3317027,58965,0.8733312487602234
1554340866.231904,59872,0.8764432072639465
1554342667.2380323,60779,0.8752177953720093
1554344468.6111002,61686,0.872933030128479
1554346269.4307299,62593,0.8685235977172852
1554348070.1902204,63500,0.8702914714813232
1554349870.893492,64407,0.8742058873176575
1554351671.583964,65314,0.872299313545227
1554353472.0434225,66221,0.873840868473053
1554355273.424644,67128,0.8696607351303101
1554357073.583987,68034,0.8725316524505615
1554358875.2018209,68941,0.8738083243370056
1554360677.111493,69848,0.8733470439910889
1554362175.259451,70595,0.8720930218696594
1554364080.5792532,71574,0.8735860586166382
1554365882.0484207,72513,0.8715505599975586
1554367682.3670666,73452,0.8708211779594421
1554369482.8898425,74391,0.8718486428260803
1554371283.7492082,75330,0.8704161047935486
1554373084.0706654,76268,0.8701502084732056
1554374885.745854,77207,0.8678130507469177
1554376687.282704,78145,0.874011754989624
1554378488.9628437,79084,0.8687744140625
1554380289.5453117,80023,0.872814953327179
1554382090.5708544,80962,0.8693214058876038
1554383891.2161186,81901,0.8698179125785828
1554385692.2891057,82840,0.8721959590911865
1554387493.1521158,83779,0.8674383759498596
1554389293.9140854,84718,0.868748128414154
1554391094.7214015,85657,0.8685562610626221
1554392895.8727067,86596,0.8662307858467102
1554394696.806328,87535,0.8677133321762085
1554396497.4090002,88474,0.8709155321121216
1554398298.2812212,89413,0.8732208609580994
1554400099.2357576,90352,0.8669584393501282
1554401900.8221493,91291,0.8699032664299011
1554403702.3057837,92230,0.8680484890937805
1554405502.3422167,93168,0.8685305714607239
1554407302.611196,94106,0.8675525188446045
1554409103.253802,95044,0.8708474040031433
1554410903.664647,95982,0.8666021227836609
1554412704.2152374,96920,0.868397057056427
1554414504.7967188,97858,0.8709097504615784
1554416306.534544,98796,0.8713544607162476
1554418106.5829597,99734,0.8684067726135254
1554419907.1234548,100673,0.8676669597625732
1554420306.9640648,100850,0.869299590587616
