Wall time,Step,Value
1551220146.7861536,2281,0.1514437347650528
1551221947.4953036,4412,0.2619563937187195
1551223747.5706766,6549,0.3587687313556671
1551225548.2476568,8688,0.47290483117103577
1551227348.0614824,10823,0.5437584519386292
1551229149.2031896,12958,0.5934706330299377
1551230949.8708928,15090,0.6279051303863525
1551232750.4313707,17216,0.658972978591919
1551234550.5314922,19345,0.6794226169586182
1551236350.828304,21473,0.6919783353805542
1551238150.9407606,23601,0.7045718431472778
1551239951.110795,25727,0.7176854014396667
1551241751.126087,27858,0.7249755263328552
1551243551.9917576,29993,0.7351301312446594
1551245352.0392277,32119,0.7421954274177551
1551247152.880072,34245,0.747809886932373
1551248952.7791502,36370,0.7493731379508972
1551250753.7828782,38498,0.7560843825340271
1551252554.1785538,40624,0.7591012120246887
1551254354.8123198,42750,0.7688822746276855
1551256155.5689995,44877,0.7721359133720398
1551257956.4047294,47002,0.7756080627441406
1551259756.0969477,49135,0.7785810232162476
1551261556.6864746,51270,0.7813000679016113
1551263357.002756,53402,0.7861625552177429
1551265157.4411159,55537,0.7872574925422668
1551266957.522616,57671,0.7860214114189148
1551268758.6434195,59806,0.7909871339797974
1551270558.7610295,61940,0.7935580611228943
1551272359.36578,64074,0.794748842716217
1551274158.6649642,66209,0.7990516424179077
1551275960.0093446,68342,0.8012270331382751
1551277760.3296745,70473,0.8032186031341553
1551279560.316119,72603,0.8019079566001892
1551281360.6029437,74736,0.8052818775177002
1551283160.8815002,76872,0.8094607591629028
1551284961.4834256,79006,0.8081827759742737
1551286762.1158125,81142,0.8103484511375427
1551288562.4300108,83277,0.8136377930641174
1551290363.1292489,85413,0.813217282295227
1551292162.8467085,87547,0.8173168301582336
1551293963.7734153,89680,0.8167387247085571
1551295763.946053,91811,0.8179596662521362
1551297564.398658,93941,0.8198689818382263
1551299364.4692721,96073,0.8209083676338196
1551301164.8169248,98202,0.8195955753326416
1551302965.2131,100329,0.8220551609992981
1551304766.0692954,102453,0.8242389559745789
1551306565.7831922,104578,0.8228484988212585
1551308366.2921383,106711,0.8263516426086426
1551310166.2765267,108842,0.8263259530067444
1551311966.9009633,110974,0.8289883732795715
1551313766.9851725,113097,0.8278709650039673
1551315568.0774057,115222,0.827867865562439
1551317368.2567885,117346,0.8293335437774658
1551319168.9439178,119470,0.8308354616165161
1551320969.953189,121592,0.8329811096191406
1551322770.6995206,123717,0.8357460498809814
1551324570.5111392,125842,0.8340211510658264
1551326371.0828114,127966,0.8343666791915894
1551328171.5018125,130087,0.8350571990013123
1551329972.0622468,132209,0.8358255624771118
1551331772.747453,134333,0.8335197567939758
1551333573.376479,136456,0.8380998969078064
1551335373.2560902,138577,0.8390436172485352
1551337174.2380962,140701,0.8384396433830261
1551338974.7665265,142825,0.8401370048522949
1551340775.0175092,144958,0.8396597504615784
1551342575.2377827,147092,0.8408355116844177
1551344375.894835,149226,0.840459942817688
1551346175.640015,151355,0.8412021994590759
1551347976.1041338,153488,0.8433679342269897
1551349775.8401668,155616,0.8447074294090271
1551351576.4298902,157744,0.8416926860809326
1551353376.23235,159876,0.8447388410568237
1551355176.458108,162008,0.8453221321105957
1551356976.3483014,164139,0.8451436758041382
1551358777.3954678,166271,0.8457557559013367
1551360578.1698954,168399,0.8460537791252136
1551362378.667443,170518,0.8478312492370605
1551364178.4722981,172636,0.8463318347930908
1551365978.7284021,174747,0.8469787240028381
1551367779.2758777,176867,0.8483986854553223
1551369579.4549506,178986,0.8509989380836487
1551371380.0293524,181106,0.8489036560058594
1551373181.1639757,183225,0.8505186438560486
1551374981.2126276,185340,0.851077139377594
1551376782.2545168,187459,0.8507084250450134
1551378582.3961384,189577,0.8505246043205261
1551380382.7138028,191696,0.851552426815033
1551382182.540351,193827,0.8531532287597656
1551383982.927881,195959,0.8520911931991577
1551385783.5642653,198085,0.8538413047790527
1551387583.457271,200208,0.853710412979126
1551387815.218195,200350,0.8537868857383728
1551389787.7510946,202663,0.8640130162239075
1551391587.8916743,204837,0.8618960380554199
1551393388.1916423,207008,0.8639889359474182
1551395188.559954,209176,0.8654557466506958
1551396989.3071923,211340,0.8672605156898499
1551398789.6354418,213502,0.8665919899940491
1551400590.318103,215665,0.8653541803359985
1551402390.9958653,217826,0.8688960075378418
1551404190.612857,219987,0.8695802688598633
1551405991.4375288,222147,0.8696251511573792
1551407791.3585835,224308,0.8699294924736023
1551409591.7069619,226470,0.8702805638313293
1551411392.263538,228633,0.8708466291427612
1551413192.9785008,230796,0.8700507879257202
1551414993.101763,232959,0.8703795075416565
1551416793.2213116,235121,0.8716315627098083
1551418593.409341,237287,0.8717202544212341
1551420394.0123885,239453,0.8737337589263916
1551422194.607355,241616,0.8716894388198853
1551423995.405425,243779,0.8739474415779114
1551425794.887072,245941,0.8743407726287842
1551427595.8395236,248103,0.8743067979812622
1551429396.350017,250264,0.8748095035552979
1551431197.0584655,252427,0.8741807341575623
1551432996.0191894,254592,0.8743081092834473
1551434796.5593264,256775,0.8752001523971558
1551436596.5865777,258959,0.8744401335716248
1551438397.6054857,261143,0.8765126466751099
1551440197.366975,263324,0.8747795820236206
1551441997.8904731,265506,0.8772740364074707
1551443798.3767264,267687,0.8765568137168884
1551445598.4512808,269868,0.8775053024291992
1551447398.733007,272044,0.8769946694374084
1551449199.743078,274226,0.8788796067237854
1551450999.8578138,276406,0.8778977394104004
1551452800.5348418,278586,0.8779083490371704
1551454600.5027876,280765,0.8784389495849609
1551456400.848697,282945,0.8790150284767151
1551458201.530999,285125,0.879141628742218
1551460001.6941972,287305,0.8773356676101685
1551461801.9712727,289486,0.8789910674095154
1551463602.6257603,291667,0.8796517848968506
1551465403.8079758,293830,0.8802582621574402
1551467204.1109722,295985,0.880095362663269
1551469004.5098088,298143,0.8795731663703918
1551470803.8823273,300316,0.8805952668190002
1551472604.1130664,302498,0.8822536468505859
1551474404.7808506,304680,0.8817151784896851
1551476204.7167842,306862,0.8805909156799316
1551478005.1011927,309044,0.8806710839271545
1551479805.84927,311225,0.8818261623382568
1551481606.6405182,313406,0.8820228576660156
1551483406.481185,315586,0.8825159072875977
1551485206.359932,317768,0.8809099793434143
1551487006.9511232,319951,0.8846001625061035
1551487591.1864965,320560,0.8848353624343872
