[
    {
        "plot_title": "loss",
        "plot_file_prefix": "M_FR_loss_until_convergence_bpe",
        "csv_dir": "csv_files/loss",
        "plot_max_y": 0.0003,
        "output_format": "pgf",
        "csv_files": {
            "training": "bpe_until_convergence_size_512_embdim_200_epochsWithDrop_7_isBi_True_optimizer_Adam_loss_sigmoidCrossEntropy-tag-loss.csv",
            "validation": "bpe_until_convergence_size_512_embdim_200_epochsWithDrop_7_isBi_True_optimizer_Adam_loss_sigmoidCrossEntropy_eval-tag-loss.csv"
        }
    }
]
