Wall time,Step,Value
1552323721.5291471,5660,0.003847667248919606
1552325521.3632674,11139,0.0061977761797606945
1552327321.489427,16618,0.030402539297938347
1552329120.8364718,22099,0.06387554109096527
1552330921.0499754,27585,0.09621339291334152
1552332721.182654,33072,0.13229067623615265
1552334521.2214441,38558,0.15949572622776031
1552336321.3527086,44050,0.18516448140144348
1552338122.076075,49540,0.20529651641845703
1552339921.5815935,55027,0.22902223467826843
1552341721.8782148,60515,0.2440919727087021
1552343521.7714896,66004,0.2594907879829407
1552345321.9982648,71499,0.27784428000450134
1552347121.984741,76993,0.29137906432151794
1552348922.095864,82476,0.296927809715271
1552350722.1509573,87963,0.31475886702537537
1552352521.7302344,93447,0.3213992714881897
1552354321.8357496,98937,0.3372667133808136
1552356122.1210582,104428,0.3475859761238098
1552357922.8040178,109916,0.35867226123809814
1552359722.8914824,115406,0.36146631836891174
1552361523.74843,120897,0.37304428219795227
1552363322.6513703,126381,0.3817865550518036
1552365122.8771152,131867,0.3876749277114868
1552366923.134851,137354,0.39794397354125977
1552368724.3815947,142834,0.39760780334472656
1552370523.1769543,148312,0.40825527906417847
1552372325.24533,153797,0.4167173206806183
1552374125.3485265,159277,0.4145152270793915
1552375925.1275,164759,0.416424959897995
1552377724.296273,170240,0.4302874803543091
1552379524.5895228,175723,0.4332828223705292
1552381325.837543,181205,0.4369666874408722
1552383125.8383942,186689,0.4453733563423157
1552384926.1148434,192175,0.4398801326751709
1552386726.205784,197659,0.46158215403556824
1552388526.677334,203141,0.45131370425224304
1552390326.8202908,208625,0.45528459548950195
1552392126.974549,214104,0.46357792615890503
1552393927.2581294,219590,0.4682905972003937
1552395727.3373847,225068,0.46639931201934814
1552397527.3128955,230552,0.4779773950576782
1552399327.7050984,236034,0.47810590267181396
1552401127.786253,241514,0.4847845137119293
1552402927.853502,246993,0.4887515604496002
1552404728.1030362,252472,0.48812007904052734
1552406528.477626,257955,0.49206510186195374
1552408327.5291362,263443,0.4876056909561157
1552410127.9179544,268932,0.4964766502380371
1552411928.0826538,274425,0.493102103471756
1552413728.1307883,279905,0.4987472891807556
1552415528.315213,285377,0.5091159343719482
1552417328.5951447,290861,0.5064306259155273
1552419128.787884,296345,0.5075708627700806
1552420928.8277833,301824,0.5125338435173035
1552422728.8881114,307306,0.516526997089386
1552424529.335832,312791,0.519676923751831
1552426330.5102766,318273,0.5250943303108215
1552428130.3540418,323755,0.5246337652206421
1552429930.6658504,329241,0.5197063088417053
1552431730.7049913,334724,0.5229518413543701
1552431993.0365,335360,0.5206048488616943
1552433863.8862183,341242,0.5680592656135559
1552435664.0472066,346941,0.5706674456596375
1552437464.102448,352641,0.5717759132385254
1552439262.801234,358342,0.5746043920516968
1552441062.7049787,364050,0.5764035582542419
1552442862.7143426,369755,0.5765069127082825
1552444662.82889,375477,0.5913786292076111
1552446464.230549,381189,0.5826372504234314
1552448264.1604054,386889,0.5845733284950256
1552450064.4164593,392591,0.5812031626701355
1552451864.9004805,398290,0.5928484201431274
1552453664.7598715,403988,0.5922534465789795
1552455464.9813063,409689,0.5969827771186829
1552457265.2757952,415390,0.5929312705993652
1552459065.546462,421085,0.5960261225700378
1552460865.8274868,426775,0.6005499362945557
1552462665.8722997,432461,0.5901764631271362
1552464465.9823618,438149,0.6011514663696289
1552466266.0144393,443838,0.6035696864128113
1552468066.3260033,449527,0.6000683903694153
1552469866.1288955,455217,0.6069437861442566
1552471666.4412584,460910,0.6016720533370972
1552473466.4059825,466607,0.6021724939346313
1552475266.3535156,472304,0.6061426401138306
1552477065.4440703,477999,0.6070370078086853
1552478865.4212844,483712,0.6107723116874695
1552480665.5988867,489418,0.6137676239013672
1552482465.990558,495124,0.612060546875
1552484266.0940652,500826,0.6046319007873535
1552486066.4931588,506526,0.6158782243728638
1552487866.6526735,512228,0.6139544248580933
1552489666.8213193,517927,0.6157125234603882
1552491467.220615,523615,0.6164417266845703
1552493268.555587,529311,0.6202796697616577
1552495067.5210521,535001,0.6129183769226074
1552496867.4145036,540694,0.6194880604743958
1552498667.744655,546384,0.6172456741333008
1552500469.2036798,552075,0.6202465295791626
1552502268.94728,557765,0.6183832287788391
1552504069.5122616,563446,0.6210124492645264
1552505869.4346776,569136,0.6233887076377869
1552507669.4587593,574830,0.6192000508308411
1552509469.5319924,580532,0.6213164925575256
1552511268.360545,586235,0.6238176226615906
1552513069.7613978,591948,0.6264239549636841
1552514870.076022,597646,0.6162744760513306
1552516670.1145198,603341,0.6225747466087341
1552518470.3115542,609039,0.6276887059211731
1552520270.1187222,614739,0.6199439764022827
1552522070.541257,620441,0.6314391493797302
1552523870.6694238,626142,0.6280971765518188
1552525670.8741372,631844,0.6281306743621826
1552527470.9933507,637547,0.6357645392417908
1552529271.401754,643247,0.6342048645019531
1552531071.224881,648942,0.6301523447036743
1552532870.1668272,654644,0.6318314671516418
1552534670.4530683,660357,0.6340498328208923
1552536470.813375,666065,0.6353335380554199
1552538272.050021,671767,0.6334162354469299
1552540072.2182965,677467,0.6325966119766235
1552541871.3178835,683172,0.6308973431587219
1552543671.5889099,688879,0.6332955956459045
1552545471.5406694,694578,0.6343029141426086
1552547272.0937457,700269,0.629133403301239
1552549072.2656424,705961,0.6343806982040405
1552550872.5064666,711659,0.6421310305595398
1552552672.77261,717352,0.6438008546829224
1552554472.7321265,723048,0.6310458183288574
1552556272.758004,728746,0.638508677482605
1552558073.1196997,734442,0.6422529220581055
1552559874.15841,740131,0.6393930912017822
1552561674.71541,745815,0.6344527006149292
1552563474.9384818,751502,0.6422657370567322
1552565275.2181773,757196,0.6391274333000183
1552567075.0804834,762877,0.6378217935562134
1552568875.7294693,768564,0.6430644392967224
1552570675.586577,774252,0.6376166343688965
1552572476.126131,779933,0.6475717425346375
1552574276.1309237,785624,0.6331116557121277
1552576076.1816485,791317,0.6349524855613708
1552577876.4731052,797004,0.6363747715950012
1552579676.274828,802684,0.6369743347167969
1552581475.4502168,808368,0.6388006210327148
1552583277.003005,814056,0.6435157656669617
1552585077.0350633,819742,0.6430470943450928
1552586877.3010228,825424,0.6457359790802002
1552588677.3071244,831107,0.6457257866859436
1552590477.3746145,836796,0.645604133605957
1552592277.7556303,842484,0.6433917284011841
1552594077.523021,848179,0.6449219584465027
1552595877.5285325,853878,0.6517029404640198
1552597677.8785524,859574,0.6474575400352478
1552599478.227771,865267,0.6439036726951599
1552601278.0716228,870959,0.645862877368927
1552603078.219834,876649,0.6420722603797913
1552604878.0920708,882337,0.6404045820236206
1552606678.3278065,888038,0.6423093676567078
1552608478.309439,893737,0.6391812562942505
1552610278.72754,899434,0.640007495880127
1552612078.8052719,905126,0.6516706943511963
1552613877.5963433,910827,0.6471760869026184
1552615678.0923684,916538,0.6435851454734802
1552617478.1160352,922244,0.6496067643165588
1552619278.1596026,927953,0.6522930860519409
1552621078.617476,933658,0.6458290219306946
1552622878.453655,939359,0.6489879488945007
1552624678.481786,945066,0.6465574502944946
1552626479.0456655,950775,0.649745523929596
1552628279.0510817,956481,0.6423112750053406
1552630079.087755,962192,0.6470155715942383
1552631879.094899,967899,0.6546003222465515
1552633679.0980654,973606,0.6507710218429565
1552635479.0974052,979309,0.6511741876602173
1552637279.148686,985018,0.6529273986816406
1552639079.2379055,990722,0.6473938822746277
1552640880.246277,996429,0.6488168239593506
1552642679.5006337,1002128,0.6528193950653076
1552644479.6357982,1007834,0.6443230509757996
1552646279.9608927,1013537,0.6545371413230896
1552648080.199668,1019237,0.6500548720359802
1552649880.2134645,1024939,0.6481526494026184
1552651680.426618,1030647,0.6528695821762085
1552653480.2912834,1036351,0.6527342796325684
1552655280.590871,1042050,0.6565181612968445
1552657080.8788128,1047759,0.6516849994659424
1552658881.0421367,1053460,0.6511029005050659
1552660681.0460098,1059156,0.6527552008628845
1552662481.513285,1064859,0.6517759561538696
1552664281.4995162,1070562,0.6476328372955322
1552666081.7575321,1076265,0.6580473780632019
1552667881.9730608,1081967,0.6575765609741211
1552669681.9571161,1087662,0.6554778218269348
1552671481.9914107,1093360,0.6510963439941406
1552673282.3005652,1099058,0.6604822874069214
1552675082.438001,1104756,0.6498474478721619
1552676882.8981721,1110457,0.6553232669830322
1552678682.993044,1116158,0.6477672457695007
1552680483.0626886,1121857,0.6513016819953918
1552682283.2052312,1127558,0.6523873805999756
1552684084.6335084,1133262,0.6535534858703613
1552685883.787515,1138966,0.6520856022834778
1552687683.6166606,1144665,0.6596435308456421
1552689484.3310235,1150365,0.6550962924957275
1552691285.2245226,1156067,0.6573045253753662
1552693085.3484132,1161763,0.6514990329742432
1552694885.2785237,1167458,0.6512393951416016
1552696685.640314,1173154,0.6509430408477783
1552698485.604639,1178857,0.6543594598770142
1552700285.9898465,1184558,0.651719331741333
1552702085.8160589,1190254,0.6517490744590759
1552703886.0988746,1195955,0.6557334065437317
1552705686.3511612,1201654,0.6518766283988953
1552707486.2573211,1207351,0.6527407765388489
1552709286.5521429,1213048,0.6598857641220093
1552711086.8292432,1218742,0.6602596044540405
1552712887.0017104,1224440,0.6500957012176514
1552714687.2599545,1230143,0.6580520868301392
1552716487.6450167,1235837,0.6604377031326294
1552718286.4463933,1241533,0.6586146950721741
1552720086.6220613,1247235,0.6613761782646179
1552721886.822147,1252933,0.6501399874687195
1552723687.0879662,1258630,0.6558096408843994
1552725487.26227,1264328,0.6560987830162048
1552727287.6412663,1270030,0.6524146795272827
1552729087.4293597,1275725,0.6612500548362732
1552730887.6358404,1281425,0.6573681831359863
1552732687.7573583,1287118,0.6605590581893921
1552734488.0581586,1292813,0.6574665904045105
1552736288.1304467,1298512,0.6584972143173218
1552738088.302296,1304210,0.6573512554168701
1552739888.6545594,1309906,0.6605290174484253
1552741688.6352975,1315604,0.6577900052070618
1552743488.9690833,1321300,0.6595950722694397
1552745289.2063355,1326997,0.6569286584854126
1552747089.524876,1332691,0.6624718904495239
1552748889.4401205,1338386,0.6558064818382263
1552749880.3695326,1341440,0.6614245772361755
1552902287.2075014,1347257,0.6574954986572266
1552904087.1574802,1352902,0.6591587066650391
1552905887.289745,1358547,0.6513353586196899
1552907687.2650135,1364194,0.6593554615974426
1552909487.30428,1369837,0.659805178642273
1552911287.728725,1375481,0.6619652509689331
1552913087.6976838,1381127,0.6580443978309631
1552914887.990465,1386785,0.6564733982086182
1552916688.246717,1392439,0.6519550681114197
1552918489.0904713,1398086,0.6603476405143738
1552920289.0993814,1403730,0.653938889503479
1552922088.6917865,1409378,0.6605829000473022
1552923889.347922,1415022,0.6573728919029236
1552925689.2530265,1420665,0.6616871953010559
1552927489.7873454,1426302,0.6648051142692566
1552929289.6352513,1431937,0.652555525302887
1552931088.8682263,1437580,0.6582275629043579
1552932889.1992404,1443227,0.6598490476608276
1552934689.4271777,1448869,0.6599413156509399
1552936489.1582656,1454518,0.657072901725769
1552938289.3905406,1460178,0.6629996299743652
1552940089.728047,1465844,0.6640655398368835
1552941889.614652,1471508,0.6567416787147522
1552943689.6054072,1477175,0.6659674644470215
1552945489.742263,1482841,0.6548295021057129
1552947290.8493714,1488490,0.6575049757957458
1552949090.4584568,1494139,0.6599776148796082
1552950890.4633012,1499794,0.6568511724472046
1552952690.4971728,1505459,0.6590650677680969
1552954490.5114994,1511124,0.6668155193328857
1552956290.5727224,1516788,0.6564273238182068
1552958090.6780665,1522460,0.6622915267944336
1552959890.7214131,1528138,0.6678096055984497
1552961690.7326038,1533817,0.6643911600112915
1552963490.5823815,1539496,0.6584943532943726
1552965290.7823076,1545179,0.6611907482147217
1552967091.175922,1550861,0.658423125743866
1552968891.543282,1556530,0.6606484651565552
1552970692.0855644,1562188,0.6670585870742798
1552972491.5014808,1567851,0.657520592212677
1552974291.6649263,1573528,0.6594957113265991
1552976091.735448,1579202,0.6598747968673706
1552977891.8826876,1584875,0.6605607867240906
1552979691.9574351,1590554,0.6596391797065735
1552981492.3416026,1596232,0.6623757481575012
1552983292.2023783,1601897,0.661279559135437
1552985092.453006,1607566,0.661209762096405
1552986892.838167,1613230,0.6592440009117126
1552988693.4130871,1618880,0.6654535531997681
1552990493.29458,1624532,0.660200834274292
1552992293.3192728,1630189,0.6657198071479797
1552994093.6635034,1635837,0.664306104183197
1552995894.0328834,1641490,0.6603870987892151
1552997694.095771,1647144,0.6676984429359436
1552999494.0504808,1652795,0.6676506400108337
1553001294.5319693,1658454,0.6695985198020935
1553003094.529303,1664110,0.6641533970832825
1553004894.856391,1669761,0.668677031993866
1553006694.8385663,1675403,0.6670958995819092
1553008495.170833,1681054,0.6621456742286682
1553010295.6310313,1686693,0.6606263518333435
1553012095.9815369,1692336,0.663114607334137
1553013896.2576253,1697979,0.6588779091835022
1553015695.859642,1703621,0.664456307888031
1553017496.0809631,1709269,0.6631459593772888
1553019296.2998989,1714900,0.666666567325592
1553021096.2404766,1720549,0.6646196246147156
1553022896.5725884,1726198,0.6694534420967102
1553024696.5692267,1731850,0.6576688289642334
1553026496.2858157,1737507,0.663133442401886
1553028296.759263,1743169,0.660254955291748
1553030096.7444265,1748830,0.6618276834487915
1553031896.9168897,1754498,0.6668202877044678
1553033697.133666,1760166,0.6641018986701965
1553035497.7474115,1765824,0.6672357320785522
1553037298.196367,1771456,0.6673725843429565
1553039097.502013,1777116,0.6610060334205627
1553040897.7556422,1782782,0.6691216230392456
1553042697.806447,1788453,0.6631073355674744
1553044498.0730026,1794123,0.6666539907455444
1553046298.3697221,1799799,0.6619576215744019
1553048098.6599953,1805473,0.6592240929603577
1553049898.4080262,1811139,0.6653017997741699
1553051698.7901113,1816811,0.6659523248672485
1553053498.7205994,1822475,0.6623244285583496
1553055298.783508,1828142,0.6678319573402405
1553057098.8584435,1833812,0.6682021021842957
1553058898.9125316,1839478,0.6658357381820679
1553060699.256268,1845149,0.6685506105422974
1553062499.3063955,1850814,0.6668087840080261
1553064299.650676,1856482,0.6662416458129883
1553066099.5676632,1862154,0.6663661599159241
1553067899.6508331,1867831,0.6646134853363037
1553069699.7117321,1873506,0.6629956364631653
1553071500.0004153,1879181,0.6612837910652161
1553073300.1345758,1884855,0.6664028763771057
1553075100.9412165,1890497,0.6614415049552917
1553076900.6250834,1896130,0.6624396443367004
1553078701.6503284,1901763,0.6605567336082458
1553080501.5632875,1907394,0.6654068827629089
1553082301.9015021,1913033,0.6658826470375061
1553084101.998482,1918664,0.6678372025489807
1553085902.1170607,1924302,0.6690291166305542
1553087702.2349913,1929940,0.6651806235313416
1553089502.3800316,1935584,0.6650985479354858
1553091302.2557406,1941220,0.6603713631629944
1553093102.523488,1946855,0.6658222675323486
1553094902.3279834,1952498,0.6660477519035339
1553096702.4193873,1958143,0.6588742733001709
1553098502.7099307,1963789,0.669366180896759
1553100302.6925688,1969437,0.6657297015190125
1553102102.7768784,1975083,0.6641527414321899
1553103903.1205077,1980729,0.6651065349578857
1553105703.356435,1986366,0.6674538254737854
1553107503.5841851,1992007,0.6720305681228638
1553109303.4125857,1997648,0.6634731292724609
1553111103.2886088,2003296,0.6699392795562744
1553112903.5803263,2008950,0.6627112627029419
1553113952.3685458,2012160,0.6627812385559082
