Wall time,Step,Value
1553595180.2935832,5261,8.376044570468366e-05
1553596980.1853087,10387,7.215412915684283e-05
1553598780.659746,15510,5.4836960771353915e-05
1553600580.6574218,20633,3.515221760608256e-05
1553602380.9369578,25753,4.679551057051867e-05
1553604181.0876384,30874,8.623484609415755e-05
1553605981.1419737,35993,0.00025672363699413836
1553607781.3756468,41109,0.0004264074086677283
1553609581.3287518,46229,0.000513550010509789
1553611381.3942075,51350,0.0006328099989332259
1553613181.6760259,56471,0.0008250314858742058
1553614981.9083297,61593,0.0009622591314837337
1553616781.9475079,66713,0.0017728529637679458
1553618582.2098246,71833,0.00129587238188833
1553620382.2305863,76949,0.002528642537072301
1553622182.4265504,82068,0.001938434550538659
1553623982.7970586,87170,0.00406995601952076
1553625494.77207,91440,0.002793146064504981
1553627359.3644555,96908,0.006959190126508474
1553629159.3601096,102249,0.00795730110257864
1553630959.509994,107599,0.008713661693036556
1553632759.637664,112950,0.013573012314736843
1553634559.6720324,118304,0.009376921691000462
1553636360.0007381,123659,0.011785060167312622
1553638160.202227,129009,0.010700524784624577
1553639960.1279914,134352,0.010358771309256554
1553641760.4228964,139705,0.013230816461145878
1553643560.45767,145058,0.014745501801371574
1553645360.686421,150410,0.020372675731778145
1553647160.507069,155761,0.01557092647999525
1553648960.8502197,161117,0.016800187528133392
1553650761.090627,166471,0.019518105313181877
1553652561.3101041,171825,0.02654152177274227
1553654361.534177,177178,0.020143432542681694
1553656161.6866324,182530,0.024202462285757065
1553657961.794007,187884,0.02045491896569729
1553659762.0125527,193238,0.027764271944761276
1553661562.3899505,198592,0.029656989499926567
1553663362.480493,203945,0.028210146352648735
1553665162.7383144,209298,0.028148753568530083
1553666962.7705288,214650,0.0245595034211874
1553668762.739339,220004,0.02967034839093685
1553670563.0481389,225360,0.03705430403351784
1553672363.065229,230721,0.022791976109147072
1553674163.374061,236084,0.03866668790578842
1553675963.5159836,241446,0.025652123615145683
1553677763.6543086,246808,0.02401704527437687
1553679564.0497732,252169,0.03284645453095436
1553681364.138211,257530,0.03864843025803566
1553683164.416148,262891,0.04372898489236832
1553684964.5356054,268250,0.04226427152752876
1553686764.8606837,273605,0.03909975662827492
1553688564.9794905,278959,0.03099146857857704
1553690365.1973162,284313,0.04461957886815071
1553692165.1275845,289670,0.039152592420578
1553693965.525347,295032,0.052026353776454926
1553695765.5956216,300393,0.025815976783633232
